%!PS-Adobe-3.0 EPSF-3.0
%%Title: 100_hist_weights.eps
%%Creator: matplotlib version 2.0.2, http://matplotlib.org/
%%CreationDate: Fri Sep  1 18:21:06 2017
%%Orientation: portrait
%%BoundingBox: 90 252 522 540
%%EndComments
%%BeginProlog
/mpldict 8 dict def
mpldict begin
/m { moveto } bind def
/l { lineto } bind def
/r { rlineto } bind def
/c { curveto } bind def
/cl { closepath } bind def
/box {
m
1 index 0 r
0 exch r
neg 0 r
cl
} bind def
/clipbox {
box
clip
newpath
} bind def
%!PS-Adobe-3.0 Resource-Font
%%Title: DejaVu Sans
%%Copyright: Copyright (c) 2003 by Bitstream, Inc. All Rights Reserved. Copyright (c) 2006 by Tavmjong Bah. All Rights Reserved. DejaVu changes are in public domain 
%%Creator: Converted from TrueType to type 3 by PPR
25 dict begin
/_d{bind def}bind def
/_m{moveto}_d
/_l{lineto}_d
/_cl{closepath eofill}_d
/_c{curveto}_d
/_sc{7 -1 roll{setcachedevice}{pop pop pop pop pop pop}ifelse}_d
/_e{exec}_d
/FontName /DejaVuSans def
/PaintType 0 def
/FontMatrix[.001 0 0 .001 0 0]def
/FontBBox[-1021 -463 1793 1232]def
/FontType 3 def
/Encoding [ /space /zero /one /two /four /six /eight /H /W /a /e /g /h /i /m /o /r /s /t /minus ] def
/FontInfo 10 dict dup begin
/FamilyName (DejaVu Sans) def
/FullName (DejaVu Sans) def
/Notice (Copyright (c) 2003 by Bitstream, Inc. All Rights Reserved. Copyright (c) 2006 by Tavmjong Bah. All Rights Reserved. DejaVu changes are in public domain ) def
/Weight (Book) def
/Version (Version 2.35) def
/ItalicAngle 0.0 def
/isFixedPitch false def
/UnderlinePosition -130 def
/UnderlineThickness 90 def
end readonly def
/CharStrings 20 dict dup begin
/space{318 0 0 0 0 0 _sc
}_d
/zero{636 0 66 -13 570 742 _sc
318 664 _m
267 664 229 639 203 589 _c
177 539 165 464 165 364 _c
165 264 177 189 203 139 _c
229 89 267 64 318 64 _c
369 64 407 89 433 139 _c
458 189 471 264 471 364 _c
471 464 458 539 433 589 _c
407 639 369 664 318 664 _c
318 742 _m
399 742 461 709 505 645 _c
548 580 570 486 570 364 _c
570 241 548 147 505 83 _c
461 19 399 -13 318 -13 _c
236 -13 173 19 130 83 _c
87 147 66 241 66 364 _c
66 486 87 580 130 645 _c
173 709 236 742 318 742 _c
_cl}_d
/one{636 0 110 0 544 729 _sc
124 83 _m
285 83 _l
285 639 _l
110 604 _l
110 694 _l
284 729 _l
383 729 _l
383 83 _l
544 83 _l
544 0 _l
124 0 _l
124 83 _l
_cl}_d
/two{{636 0 73 0 536 742 _sc
192 83 _m
536 83 _l
536 0 _l
73 0 _l
73 83 _l
110 121 161 173 226 239 _c
290 304 331 346 348 365 _c
380 400 402 430 414 455 _c
426 479 433 504 433 528 _c
433 566 419 598 392 622 _c
365 646 330 659 286 659 _c
255 659 222 653 188 643 _c
154 632 117 616 78 594 _c
78 694 _l
118 710 155 722 189 730 _c
223 738 255 742 284 742 _c
}_e{359 742 419 723 464 685 _c
509 647 532 597 532 534 _c
532 504 526 475 515 449 _c
504 422 484 390 454 354 _c
446 344 420 317 376 272 _c
332 227 271 164 192 83 _c
_cl}_e}_d
/four{636 0 49 0 580 729 _sc
378 643 _m
129 254 _l
378 254 _l
378 643 _l
352 729 _m
476 729 _l
476 254 _l
580 254 _l
580 172 _l
476 172 _l
476 0 _l
378 0 _l
378 172 _l
49 172 _l
49 267 _l
352 729 _l
_cl}_d
/six{{636 0 70 -13 573 742 _sc
330 404 _m
286 404 251 388 225 358 _c
199 328 186 286 186 234 _c
186 181 199 139 225 109 _c
251 79 286 64 330 64 _c
374 64 409 79 435 109 _c
461 139 474 181 474 234 _c
474 286 461 328 435 358 _c
409 388 374 404 330 404 _c
526 713 _m
526 623 _l
501 635 476 644 451 650 _c
425 656 400 659 376 659 _c
310 659 260 637 226 593 _c
}_e{192 549 172 482 168 394 _c
187 422 211 444 240 459 _c
269 474 301 482 336 482 _c
409 482 467 459 509 415 _c
551 371 573 310 573 234 _c
573 159 550 99 506 54 _c
462 9 403 -13 330 -13 _c
246 -13 181 19 137 83 _c
92 147 70 241 70 364 _c
70 479 97 571 152 639 _c
206 707 280 742 372 742 _c
396 742 421 739 447 735 _c
472 730 498 723 526 713 _c
_cl}_e}_d
/eight{{636 0 68 -13 568 742 _sc
318 346 _m
271 346 234 333 207 308 _c
180 283 167 249 167 205 _c
167 161 180 126 207 101 _c
234 76 271 64 318 64 _c
364 64 401 76 428 102 _c
455 127 469 161 469 205 _c
469 249 455 283 429 308 _c
402 333 365 346 318 346 _c
219 388 _m
177 398 144 418 120 447 _c
96 476 85 511 85 553 _c
85 611 105 657 147 691 _c
188 725 245 742 318 742 _c
}_e{390 742 447 725 489 691 _c
530 657 551 611 551 553 _c
551 511 539 476 515 447 _c
491 418 459 398 417 388 _c
464 377 501 355 528 323 _c
554 291 568 251 568 205 _c
568 134 546 80 503 43 _c
459 5 398 -13 318 -13 _c
237 -13 175 5 132 43 _c
89 80 68 134 68 205 _c
68 251 81 291 108 323 _c
134 355 171 377 219 388 _c
183 544 _m
183 506 194 476 218 455 _c
}_e{242 434 275 424 318 424 _c
360 424 393 434 417 455 _c
441 476 453 506 453 544 _c
453 582 441 611 417 632 _c
393 653 360 664 318 664 _c
275 664 242 653 218 632 _c
194 611 183 582 183 544 _c
_cl}_e}_d
/H{752 0 98 0 654 729 _sc
98 729 _m
197 729 _l
197 430 _l
555 430 _l
555 729 _l
654 729 _l
654 0 _l
555 0 _l
555 347 _l
197 347 _l
197 0 _l
98 0 _l
98 729 _l
_cl}_d
/W{989 0 33 0 956 729 _sc
33 729 _m
133 729 _l
286 113 _l
439 729 _l
550 729 _l
703 113 _l
856 729 _l
956 729 _l
773 0 _l
649 0 _l
495 633 _l
340 0 _l
216 0 _l
33 729 _l
_cl}_d
/a{{613 0 60 -13 522 560 _sc
343 275 _m
270 275 220 266 192 250 _c
164 233 150 205 150 165 _c
150 133 160 107 181 89 _c
202 70 231 61 267 61 _c
317 61 357 78 387 114 _c
417 149 432 196 432 255 _c
432 275 _l
343 275 _l
522 312 _m
522 0 _l
432 0 _l
432 83 _l
411 49 385 25 355 10 _c
325 -5 287 -13 243 -13 _c
187 -13 142 2 109 33 _c
76 64 60 106 60 159 _c
}_e{60 220 80 266 122 298 _c
163 329 224 345 306 345 _c
432 345 _l
432 354 _l
432 395 418 427 391 450 _c
364 472 326 484 277 484 _c
245 484 215 480 185 472 _c
155 464 127 453 100 439 _c
100 522 _l
132 534 164 544 195 550 _c
226 556 256 560 286 560 _c
365 560 424 539 463 498 _c
502 457 522 395 522 312 _c
_cl}_e}_d
/e{{615 0 55 -13 562 560 _sc
562 296 _m
562 252 _l
149 252 _l
153 190 171 142 205 110 _c
238 78 284 62 344 62 _c
378 62 412 66 444 74 _c
476 82 509 95 541 113 _c
541 28 _l
509 14 476 3 442 -3 _c
408 -9 373 -13 339 -13 _c
251 -13 182 12 131 62 _c
80 112 55 181 55 268 _c
55 357 79 428 127 481 _c
175 533 241 560 323 560 _c
397 560 455 536 498 489 _c
}_e{540 441 562 377 562 296 _c
472 322 _m
471 371 457 410 431 440 _c
404 469 368 484 324 484 _c
274 484 234 469 204 441 _c
174 413 156 373 152 322 _c
472 322 _l
_cl}_e}_d
/g{{635 0 55 -207 544 560 _sc
454 280 _m
454 344 440 395 414 431 _c
387 467 349 485 301 485 _c
253 485 215 467 188 431 _c
161 395 148 344 148 280 _c
148 215 161 165 188 129 _c
215 93 253 75 301 75 _c
349 75 387 93 414 129 _c
440 165 454 215 454 280 _c
544 68 _m
544 -24 523 -93 482 -139 _c
440 -184 377 -207 292 -207 _c
260 -207 231 -204 203 -200 _c
175 -195 147 -188 121 -178 _c
}_e{121 -91 _l
147 -105 173 -115 199 -122 _c
225 -129 251 -133 278 -133 _c
336 -133 380 -117 410 -87 _c
439 -56 454 -10 454 52 _c
454 96 _l
435 64 411 40 382 24 _c
353 8 319 0 279 0 _c
211 0 157 25 116 76 _c
75 127 55 195 55 280 _c
55 364 75 432 116 483 _c
157 534 211 560 279 560 _c
319 560 353 552 382 536 _c
411 520 435 496 454 464 _c
454 547 _l
544 547 _l
}_e{544 68 _l
_cl}_e}_d
/h{634 0 91 0 549 760 _sc
549 330 _m
549 0 _l
459 0 _l
459 327 _l
459 379 448 417 428 443 _c
408 469 378 482 338 482 _c
289 482 251 466 223 435 _c
195 404 181 362 181 309 _c
181 0 _l
91 0 _l
91 760 _l
181 760 _l
181 462 _l
202 494 227 519 257 535 _c
286 551 320 560 358 560 _c
420 560 468 540 500 501 _c
532 462 549 405 549 330 _c
_cl}_d
/i{278 0 94 0 184 760 _sc
94 547 _m
184 547 _l
184 0 _l
94 0 _l
94 547 _l
94 760 _m
184 760 _l
184 646 _l
94 646 _l
94 760 _l
_cl}_d
/m{{974 0 91 0 889 560 _sc
520 442 _m
542 482 569 511 600 531 _c
631 550 668 560 711 560 _c
767 560 811 540 842 500 _c
873 460 889 403 889 330 _c
889 0 _l
799 0 _l
799 327 _l
799 379 789 418 771 444 _c
752 469 724 482 686 482 _c
639 482 602 466 575 435 _c
548 404 535 362 535 309 _c
535 0 _l
445 0 _l
445 327 _l
445 379 435 418 417 444 _c
398 469 369 482 331 482 _c
}_e{285 482 248 466 221 435 _c
194 404 181 362 181 309 _c
181 0 _l
91 0 _l
91 547 _l
181 547 _l
181 462 _l
201 495 226 520 255 536 _c
283 552 317 560 357 560 _c
397 560 430 550 458 530 _c
486 510 506 480 520 442 _c
_cl}_e}_d
/o{612 0 55 -13 557 560 _sc
306 484 _m
258 484 220 465 192 427 _c
164 389 150 338 150 273 _c
150 207 163 156 191 118 _c
219 80 257 62 306 62 _c
354 62 392 80 420 118 _c
448 156 462 207 462 273 _c
462 337 448 389 420 427 _c
392 465 354 484 306 484 _c
306 560 _m
384 560 445 534 490 484 _c
534 433 557 363 557 273 _c
557 183 534 113 490 63 _c
445 12 384 -13 306 -13 _c
227 -13 165 12 121 63 _c
77 113 55 183 55 273 _c
55 363 77 433 121 484 _c
165 534 227 560 306 560 _c
_cl}_d
/r{411 0 91 0 411 560 _sc
411 463 _m
401 469 390 473 378 476 _c
366 478 353 480 339 480 _c
288 480 249 463 222 430 _c
194 397 181 350 181 288 _c
181 0 _l
91 0 _l
91 547 _l
181 547 _l
181 462 _l
199 495 224 520 254 536 _c
284 552 321 560 365 560 _c
371 560 378 559 386 559 _c
393 558 401 557 411 555 _c
411 463 _l
_cl}_d
/s{{521 0 54 -13 472 560 _sc
443 531 _m
443 446 _l
417 458 391 468 364 475 _c
336 481 308 485 279 485 _c
234 485 200 478 178 464 _c
156 450 145 430 145 403 _c
145 382 153 366 169 354 _c
185 342 217 330 265 320 _c
296 313 _l
360 299 405 279 432 255 _c
458 230 472 195 472 151 _c
472 100 452 60 412 31 _c
372 1 316 -13 246 -13 _c
216 -13 186 -10 154 -5 _c
}_e{122 0 89 8 54 20 _c
54 113 _l
87 95 120 82 152 74 _c
184 65 216 61 248 61 _c
290 61 323 68 346 82 _c
368 96 380 117 380 144 _c
380 168 371 187 355 200 _c
339 213 303 226 247 238 _c
216 245 _l
160 257 119 275 95 299 _c
70 323 58 356 58 399 _c
58 450 76 490 112 518 _c
148 546 200 560 268 560 _c
301 560 332 557 362 552 _c
391 547 418 540 443 531 _c
}_e{_cl}_e}_d
/t{392 0 27 0 368 702 _sc
183 702 _m
183 547 _l
368 547 _l
368 477 _l
183 477 _l
183 180 _l
183 135 189 106 201 94 _c
213 81 238 75 276 75 _c
368 75 _l
368 0 _l
276 0 _l
206 0 158 13 132 39 _c
106 65 93 112 93 180 _c
93 477 _l
27 477 _l
27 547 _l
93 547 _l
93 702 _l
183 702 _l
_cl}_d
/minus{838 0 106 272 732 355 _sc
106 355 _m
732 355 _l
732 272 _l
106 272 _l
106 355 _l
_cl}_d
end readonly def

/BuildGlyph
 {exch begin
 CharStrings exch
 2 copy known not{pop /.notdef}if
 true 3 1 roll get exec
 end}_d

/BuildChar {
 1 index /Encoding get exch get
 1 index /BuildGlyph get exec
}_d

FontName currentdict end definefont pop
end
%%EndProlog
mpldict begin
90 252 translate
432 288 0 0 clipbox
gsave
0 0 m
432 0 l
432 288 l
0 288 l
cl
1.000 setgray
fill
grestore
gsave
54 36 m
388.8 36 l
388.8 253.44 l
54 253.44 l
cl
1.000 setgray
fill
grestore
gsave
334.8 217.4 54 36 clipbox
69.218182 36 m
79.363636 36 l
79.363636 82.019048 l
69.218182 82.019048 l
cl
0.122 0.467 0.706 setrgbcolor
fill
grestore
gsave
334.8 217.4 54 36 clipbox
79.363636 36 m
89.509091 36 l
89.509091 105.028571 l
79.363636 105.028571 l
cl
0.122 0.467 0.706 setrgbcolor
fill
grestore
gsave
334.8 217.4 54 36 clipbox
89.509091 36 m
99.654545 36 l
99.654545 36 l
89.509091 36 l
cl
0.122 0.467 0.706 setrgbcolor
fill
grestore
gsave
334.8 217.4 54 36 clipbox
99.654545 36 m
109.8 36 l
109.8 82.019048 l
99.654545 82.019048 l
cl
0.122 0.467 0.706 setrgbcolor
fill
grestore
gsave
334.8 217.4 54 36 clipbox
109.8 36 m
119.945455 36 l
119.945455 105.028571 l
109.8 105.028571 l
cl
0.122 0.467 0.706 setrgbcolor
fill
grestore
gsave
334.8 217.4 54 36 clipbox
119.945455 36 m
130.090909 36 l
130.090909 82.019048 l
119.945455 82.019048 l
cl
0.122 0.467 0.706 setrgbcolor
fill
grestore
gsave
334.8 217.4 54 36 clipbox
130.090909 36 m
140.236364 36 l
140.236364 151.047619 l
130.090909 151.047619 l
cl
0.122 0.467 0.706 setrgbcolor
fill
grestore
gsave
334.8 217.4 54 36 clipbox
140.236364 36 m
150.381818 36 l
150.381818 105.028571 l
140.236364 105.028571 l
cl
0.122 0.467 0.706 setrgbcolor
fill
grestore
gsave
334.8 217.4 54 36 clipbox
150.381818 36 m
160.527273 36 l
160.527273 243.085714 l
150.381818 243.085714 l
cl
0.122 0.467 0.706 setrgbcolor
fill
grestore
gsave
334.8 217.4 54 36 clipbox
160.527273 36 m
170.672727 36 l
170.672727 105.028571 l
160.527273 105.028571 l
cl
0.122 0.467 0.706 setrgbcolor
fill
grestore
gsave
334.8 217.4 54 36 clipbox
170.672727 36 m
180.818182 36 l
180.818182 243.085714 l
170.672727 243.085714 l
cl
0.122 0.467 0.706 setrgbcolor
fill
grestore
gsave
334.8 217.4 54 36 clipbox
180.818182 36 m
190.963636 36 l
190.963636 105.028571 l
180.818182 105.028571 l
cl
0.122 0.467 0.706 setrgbcolor
fill
grestore
gsave
334.8 217.4 54 36 clipbox
190.963636 36 m
201.109091 36 l
201.109091 82.019048 l
190.963636 82.019048 l
cl
0.122 0.467 0.706 setrgbcolor
fill
grestore
gsave
334.8 217.4 54 36 clipbox
201.109091 36 m
211.254545 36 l
211.254545 82.019048 l
201.109091 82.019048 l
cl
0.122 0.467 0.706 setrgbcolor
fill
grestore
gsave
334.8 217.4 54 36 clipbox
211.254545 36 m
221.4 36 l
221.4 197.066667 l
211.254545 197.066667 l
cl
0.122 0.467 0.706 setrgbcolor
fill
grestore
gsave
334.8 217.4 54 36 clipbox
221.4 36 m
231.545455 36 l
231.545455 174.057143 l
221.4 174.057143 l
cl
0.122 0.467 0.706 setrgbcolor
fill
grestore
gsave
334.8 217.4 54 36 clipbox
231.545455 36 m
241.690909 36 l
241.690909 243.085714 l
231.545455 243.085714 l
cl
0.122 0.467 0.706 setrgbcolor
fill
grestore
gsave
334.8 217.4 54 36 clipbox
241.690909 36 m
251.836364 36 l
251.836364 151.047619 l
241.690909 151.047619 l
cl
0.122 0.467 0.706 setrgbcolor
fill
grestore
gsave
334.8 217.4 54 36 clipbox
251.836364 36 m
261.981818 36 l
261.981818 220.07619 l
251.836364 220.07619 l
cl
0.122 0.467 0.706 setrgbcolor
fill
grestore
gsave
334.8 217.4 54 36 clipbox
261.981818 36 m
272.127273 36 l
272.127273 105.028571 l
261.981818 105.028571 l
cl
0.122 0.467 0.706 setrgbcolor
fill
grestore
gsave
334.8 217.4 54 36 clipbox
272.127273 36 m
282.272727 36 l
282.272727 59.009524 l
272.127273 59.009524 l
cl
0.122 0.467 0.706 setrgbcolor
fill
grestore
gsave
334.8 217.4 54 36 clipbox
282.272727 36 m
292.418182 36 l
292.418182 105.028571 l
282.272727 105.028571 l
cl
0.122 0.467 0.706 setrgbcolor
fill
grestore
gsave
334.8 217.4 54 36 clipbox
292.418182 36 m
302.563636 36 l
302.563636 105.028571 l
292.418182 105.028571 l
cl
0.122 0.467 0.706 setrgbcolor
fill
grestore
gsave
334.8 217.4 54 36 clipbox
302.563636 36 m
312.709091 36 l
312.709091 36 l
302.563636 36 l
cl
0.122 0.467 0.706 setrgbcolor
fill
grestore
gsave
334.8 217.4 54 36 clipbox
312.709091 36 m
322.854545 36 l
322.854545 105.028571 l
312.709091 105.028571 l
cl
0.122 0.467 0.706 setrgbcolor
fill
grestore
gsave
334.8 217.4 54 36 clipbox
322.854545 36 m
333 36 l
333 36 l
322.854545 36 l
cl
0.122 0.467 0.706 setrgbcolor
fill
grestore
gsave
334.8 217.4 54 36 clipbox
333 36 m
343.145455 36 l
343.145455 59.009524 l
333 59.009524 l
cl
0.122 0.467 0.706 setrgbcolor
fill
grestore
gsave
334.8 217.4 54 36 clipbox
343.145455 36 m
353.290909 36 l
353.290909 59.009524 l
343.145455 59.009524 l
cl
0.122 0.467 0.706 setrgbcolor
fill
grestore
gsave
334.8 217.4 54 36 clipbox
353.290909 36 m
363.436364 36 l
363.436364 59.009524 l
353.290909 59.009524 l
cl
0.122 0.467 0.706 setrgbcolor
fill
grestore
gsave
334.8 217.4 54 36 clipbox
363.436364 36 m
373.581818 36 l
373.581818 59.009524 l
363.436364 59.009524 l
cl
0.122 0.467 0.706 setrgbcolor
fill
grestore
0.800 setlinewidth
1 setlinejoin
0 setlinecap
[] 0 setdash
0.000 setgray
gsave
/o {
gsave
newpath
translate
0.8 setlinewidth
1 setlinejoin
0 setlinecap
0 0 m
0 -3.5 l

gsave
0.000 setgray
fill
grestore
stroke
grestore
} bind def
85.2948 36 o
grestore
/DejaVuSans findfont
10.000 scalefont
setfont
gsave
77.927642 21.406250 translate
0.000000 rotate
0.000000 0.000000 m /minus glyphshow
8.378906 0.000000 m /two glyphshow
grestore
gsave
/o {
gsave
newpath
translate
0.8 setlinewidth
1 setlinejoin
0 setlinecap
0 0 m
0 -3.5 l

gsave
0.000 setgray
fill
grestore
stroke
grestore
} bind def
154.461 36 o
grestore
gsave
147.093851 21.406250 translate
0.000000 rotate
0.000000 0.000000 m /minus glyphshow
8.378906 0.000000 m /one glyphshow
grestore
gsave
/o {
gsave
newpath
translate
0.8 setlinewidth
1 setlinejoin
0 setlinecap
0 0 m
0 -3.5 l

gsave
0.000 setgray
fill
grestore
stroke
grestore
} bind def
223.627 36 o
grestore
gsave
220.447559 21.406250 translate
0.000000 rotate
0.000000 0.000000 m /zero glyphshow
grestore
gsave
/o {
gsave
newpath
translate
0.8 setlinewidth
1 setlinejoin
0 setlinecap
0 0 m
0 -3.5 l

gsave
0.000 setgray
fill
grestore
stroke
grestore
} bind def
292.793 36 o
grestore
gsave
289.613767 21.406250 translate
0.000000 rotate
0.000000 0.000000 m /one glyphshow
grestore
gsave
/o {
gsave
newpath
translate
0.8 setlinewidth
1 setlinejoin
0 setlinecap
0 0 m
0 -3.5 l

gsave
0.000 setgray
fill
grestore
stroke
grestore
} bind def
361.96 36 o
grestore
gsave
358.779975 21.406250 translate
0.000000 rotate
0.000000 0.000000 m /two glyphshow
grestore
gsave
201.071875 7.734375 translate
0.000000 rotate
0.000000 0.000000 m /W glyphshow
9.887695 0.000000 m /e glyphshow
16.040039 0.000000 m /i glyphshow
18.818359 0.000000 m /g glyphshow
25.166016 0.000000 m /h glyphshow
31.503906 0.000000 m /t glyphshow
35.424805 0.000000 m /s glyphshow
grestore
gsave
/o {
gsave
newpath
translate
0.8 setlinewidth
1 setlinejoin
0 setlinecap
0 0 m
-3.5 0 l

gsave
0.000 setgray
fill
grestore
stroke
grestore
} bind def
54 36 o
grestore
gsave
40.640625 32.203125 translate
0.000000 rotate
0.000000 0.000000 m /zero glyphshow
grestore
gsave
/o {
gsave
newpath
translate
0.8 setlinewidth
1 setlinejoin
0 setlinecap
0 0 m
-3.5 0 l

gsave
0.000 setgray
fill
grestore
stroke
grestore
} bind def
54 82.019 o
grestore
gsave
40.640625 78.222173 translate
0.000000 rotate
0.000000 0.000000 m /two glyphshow
grestore
gsave
/o {
gsave
newpath
translate
0.8 setlinewidth
1 setlinejoin
0 setlinecap
0 0 m
-3.5 0 l

gsave
0.000 setgray
fill
grestore
stroke
grestore
} bind def
54 128.038 o
grestore
gsave
40.640625 124.241220 translate
0.000000 rotate
0.000000 0.000000 m /four glyphshow
grestore
gsave
/o {
gsave
newpath
translate
0.8 setlinewidth
1 setlinejoin
0 setlinecap
0 0 m
-3.5 0 l

gsave
0.000 setgray
fill
grestore
stroke
grestore
} bind def
54 174.057 o
grestore
gsave
40.640625 170.260268 translate
0.000000 rotate
0.000000 0.000000 m /six glyphshow
grestore
gsave
/o {
gsave
newpath
translate
0.8 setlinewidth
1 setlinejoin
0 setlinecap
0 0 m
-3.5 0 l

gsave
0.000 setgray
fill
grestore
stroke
grestore
} bind def
54 220.076 o
grestore
gsave
40.640625 216.279315 translate
0.000000 rotate
0.000000 0.000000 m /eight glyphshow
grestore
0 setlinejoin
2 setlinecap
[] 0 setdash
gsave
54 36 m
54 253.44 l
stroke
grestore
gsave
388.8 36 m
388.8 253.44 l
stroke
grestore
gsave
54 36 m
388.8 36 l
stroke
grestore
gsave
54 253.44 m
388.8 253.44 l
stroke
grestore
/DejaVuSans findfont
12.000 scalefont
setfont
gsave
150.610938 259.440000 translate
0.000000 rotate
0.000000 0.000000 m /one glyphshow
7.634766 0.000000 m /zero glyphshow
15.269531 0.000000 m /zero glyphshow
22.904297 0.000000 m /space glyphshow
26.718750 0.000000 m /W glyphshow
38.583984 0.000000 m /e glyphshow
45.966797 0.000000 m /i glyphshow
49.300781 0.000000 m /g glyphshow
56.917969 0.000000 m /h glyphshow
64.523438 0.000000 m /t glyphshow
69.228516 0.000000 m /s glyphshow
75.480469 0.000000 m /space glyphshow
79.294922 0.000000 m /H glyphshow
88.318359 0.000000 m /i glyphshow
91.652344 0.000000 m /s glyphshow
97.904297 0.000000 m /t glyphshow
102.609375 0.000000 m /o glyphshow
109.951172 0.000000 m /g glyphshow
117.568359 0.000000 m /r glyphshow
122.501953 0.000000 m /a glyphshow
129.855469 0.000000 m /m glyphshow
grestore

end
showpage
