,5302,5305,5306,5506,5515,5518,5649,5754,5755,5771,5825,5843,5844,5900,5902,5953,5955,5977,6010,6028,6033,6034,6035,6040,6045,6057,6060,6102,6105,6138,6149,6163,6165,6167,6199,6226,6227,6229,6291,6347,6348,6503,6512,6613,6712,6731,6732,6741,6802,6908,6955,6958,6964,6965,6983,7106,7108,7152,7163,7168,7170,7206,7207,7229,7230,7286,7287,7290,7293,7321,7341,7366,7367,7368,7516,7690,7802,7803,7895,7953,7954,8155,8231,10398,10524,10536,10547,10563,10566,10606,10620,10621,10667
1_length_4782,86.64886884124138,79.41139167759738,72.32849760957666,73.25695019842676,76.57948243533225,70.07535239521107,79.82821289894258,75.61948486059896,60.81466944184866,81.1342008648268,79.48335662090805,68.79173764352477,76.23214640227077,64.85988065784724,66.90012268251668,66.93290567027546,69.90853552768995,79.1198409396737,75.51329199220099,70.86308367004871,83.67963680764565,92.31607570537943,84.32463535509612,87.04859829767372,80.02519570006949,71.83091498519968,75.41774362839344,72.63246914044836,76.36842787149591,67.69730244366771,91.36523529526985,81.48462437401133,89.7728326000518,82.27974379094785,72.88493595246102,80.33707807278746,79.96328706049633,68.10347602022216,73.93492175546825,65.25776774088541,75.24843574025,62.530992633630454,68.96006386881618,75.75215477971305,48.567942489339416,75.0474511387793,58.549348971491014,79.10164451010174,67.99026833710313,72.7824803478313,76.73652228653636,69.91029355315122,83.44538930281568,76.42224592635814,74.81156773302764,70.69216078826705,78.40886503019948,64.39295898203875,62.6993748638608,75.3364128772328,65.55544483886575,72.82324452296751,78.7794251523843,86.43485985501275,91.3768279091914,74.02863482095896,70.17501617283158,72.19991793930642,78.62972685366995,83.33769212570866,81.40636230074205,82.8127114116824,97.05195102060979,78.21651190043137,71.28433906155651,74.29225604466572,86.54159865308813,82.70655712195202,71.32191870546599,86.23365971568353,90.55094662693341,63.508240715013294,79.31859108200645,72.69410047474373,81.67240194112313,71.84228156301556,85.83133222815695,85.05943923510037,75.19558164923505,81.51376051895535,68.36336467610452,71.35627458574045,71.03457583461542
1_count_volumeadj_235,49.0,150.0,142.0,62.0,23.0,66.0,2.0,0.0,17.0,425.0,5.0,19.0,16.0,0.0,5.0,48.0,0.0,4.0,12.0,14.0,36.0,47.0,44.0,75.0,16.0,66.0,20.0,1.0,1.0,2.0,222.0,0.0,12.0,13.0,5.0,5.0,20.0,5.0,2.0,35.0,1.0,1.0,3.0,7.0,0.0,1.0,0.0,18.0,18.0,0.0,197.0,57.0,48.0,49.0,134.0,1.0,2.0,0.0,1.0,1.0,13.0,11.0,7.0,34.0,2.0,54.0,202.0,41.0,76.0,26.0,0.0,1.0,8.0,30.0,62.0,17.0,65.0,33.0,1.0,33.0,8.0,98.0,44.0,0.0,22.0,0.0,0.0,0.0,39.0,77.0,58.0,10.0,111.0
1_count_volumeadj_212,58.0,110.0,77.0,151.0,98.0,336.0,3.0,24.0,53.0,340.0,21.0,100.0,76.0,17.0,22.0,226.0,16.0,84.0,61.0,33.0,134.0,293.0,267.0,340.0,67.0,119.0,184.0,4.0,10.0,151.0,218.0,9.0,103.0,92.0,52.0,67.0,64.0,34.0,2.0,97.0,36.0,6.0,100.0,31.0,0.0,11.0,0.0,104.0,49.0,0.0,143.0,133.0,325.0,104.0,136.0,22.0,11.0,3.0,0.0,33.0,59.0,26.0,5.0,66.0,8.0,343.0,311.0,262.0,269.0,52.0,0.0,15.0,47.0,118.0,38.0,74.0,302.0,390.0,19.0,43.0,44.0,225.0,94.0,26.0,39.0,0.0,59.0,9.0,31.0,64.0,61.0,28.0,107.0
1_length_1121,65.60825334873066,62.95632344149676,57.056698844969816,66.787332563839,70.65738242757007,60.42116056862214,61.80972179135548,57.29446311461832,54.23543507764565,77.13734103340923,60.14519023578539,53.88030749558319,57.52747914169716,53.57148408074943,56.93301153963329,57.68083508640103,62.55422936006877,65.37163749203843,55.788459861414175,57.42662810361346,66.79069262196164,60.327412262543476,72.99727602237547,66.53526255780946,64.82739580951791,67.99939213633385,64.56076718216136,59.580888327335074,58.52626059860658,64.49880324013992,77.6181719047823,62.97206879270611,58.25769430423686,63.857464942833225,53.00451791708346,67.2317374970997,66.82216769461472,69.90018015602988,59.612115892354275,65.26596678423996,64.06901198653671,60.48221250397178,60.70766871711371,65.07679435900774,52.47043684428323,66.41798360179645,58.17025764665721,57.13006431650894,52.913581911116346,61.04430910137146,60.71011867601547,61.09137166209401,58.95715560566354,66.24846378421567,68.88270659326321,68.08093842973514,61.80957460257799,61.23936685826241,43.98582836587019,64.15979966759339,72.46435414146093,63.56484351234753,66.92275897971605,74.21342838998463,77.94453501758836,68.9208437039576,70.41596282879523,69.37105271497718,63.677645208799284,58.73869321312255,65.4380916554262,64.78942618292956,79.25390255468855,71.67482989333989,66.81531257206697,62.211170623403,63.02110130275512,66.42703724330417,51.75263732990811,63.97840474496415,57.32444809249986,55.47395017961325,59.246614909459936,65.82940516024323,67.29751768804459,55.98413990202703,64.57382550033869,64.30047489108227,64.41111911073426,71.56016096954878,68.33161794642231,65.8830186295328,58.97766616526397
1_length_4194,46.91728022201732,45.25517385288322,44.325212780425815,50.20210353291673,45.8331315095696,42.50199894525864,46.26268517595845,39.7246333726365,40.64301221535701,46.86083363907727,38.57283529043856,40.39014085443832,46.05278484247414,38.39537260729381,41.811740651829254,39.93119880815618,41.22683292758169,48.27334589560036,42.77503062096189,43.403787713468226,50.22097173864649,45.54320317628518,43.9120211511962,49.220160141734546,38.35438694295057,43.241959705317,41.24678344323859,41.18926949290136,42.40733387225292,43.8024090805901,55.437416854097464,41.681806455755904,45.01278956987525,40.65545992004065,46.06451624477683,40.52061000023113,49.786628387966296,44.04752682978089,44.03560572762672,37.40875504211407,47.443960125375824,38.98613883544908,44.1373207624321,41.45720700905188,36.34813113746928,42.443373886664965,45.22918460582372,43.06152826625304,42.00393504811047,38.95500436173671,41.95098295201592,41.288632702508345,41.04713587298029,42.229575177694244,40.4479899480076,44.833032221867114,46.26619924361374,39.75976296673198,42.43357402909965,46.11350518168367,40.734401533929976,44.597111507723035,46.127988843189705,49.328911952177116,49.17515904067872,45.15631278403853,46.814097486264714,44.325056279261034,46.14330308984243,46.73110388878986,45.23200194157571,45.0566372317067,50.04677975085081,46.444388368492966,45.464562475332244,45.70988556449574,46.24085503310521,48.094094588284904,42.86789866128572,51.16589611250706,44.29076816666704,40.81497923929624,41.8387032699829,45.484624413207186,46.960390666278045,40.05521593567747,40.132060490489394,48.98888962646267,47.508451859223975,44.185103208654176,42.29234858070003,42.91404284801652,42.02315316429999
1_count_volumeadj_1891,45.0,393.0,85.0,94.0,15.0,81.0,403.0,61.0,26.0,118.0,21.0,34.0,27.0,6.0,23.0,86.0,2.0,12.0,22.0,56.0,340.0,187.0,227.0,614.0,35.0,27.0,27.0,6.0,2.0,22.0,145.0,16.0,140.0,39.0,47.0,40.0,3.0,10.0,16.0,37.0,64.0,18.0,89.0,42.0,41.0,30.0,0.0,234.0,30.0,1.0,65.0,217.0,121.0,119.0,72.0,10.0,82.0,2.0,1.0,43.0,38.0,4.0,7.0,297.0,30.0,118.0,219.0,75.0,340.0,84.0,6.0,23.0,329.0,32.0,5.0,1.0,286.0,77.0,55.0,5.0,65.0,116.0,110.0,109.0,38.0,6.0,155.0,40.0,140.0,25.0,62.0,9.0,108.0
1_count_volumeadj_242,148.0,626.0,707.0,125.0,96.0,437.0,0.0,14.0,118.0,302.0,57.0,135.0,140.0,0.0,93.0,302.0,16.0,82.0,60.0,137.0,131.0,332.0,1174.0,927.0,529.0,312.0,147.0,16.0,5.0,55.0,651.0,30.0,12.0,116.0,43.0,45.0,32.0,21.0,6.0,117.0,10.0,2.0,112.0,169.0,0.0,21.0,0.0,66.0,60.0,0.0,654.0,185.0,367.0,309.0,233.0,100.0,46.0,0.0,0.0,69.0,184.0,24.0,9.0,248.0,23.0,117.0,378.0,80.0,912.0,177.0,73.0,21.0,155.0,677.0,413.0,12.0,153.0,380.0,3.0,324.0,25.0,328.0,261.0,9.0,35.0,0.0,27.0,0.0,105.0,67.0,190.0,147.0,173.0
1_length_29,46.42670934109112,43.45309982467429,38.472074605831295,47.44925641943667,51.14898213957409,44.707867235053406,45.30843192087901,40.09617814898304,39.45423652580651,51.10819329227377,41.986178533626145,38.6140214272005,42.15775609088996,37.83795268687422,41.13910315105215,40.072179581533646,42.885260932829965,46.62328908177695,40.78356808566637,42.27246686911758,45.77725843907418,45.93084981665636,52.199913716288606,43.8983978920463,41.227874892526096,46.95063814669025,44.77035139698757,43.03809524045866,41.42292621290638,43.63415694499795,55.13779650544021,40.37801155182614,44.11472498022217,42.09469219093767,39.13620147249009,42.88832401214493,45.73025304264118,41.97090586474906,43.92764296193696,47.2696672149095,44.97624435493596,43.11488281143907,43.35069831643683,46.44111028757509,36.74878443186068,43.775009750269014,36.51581618201653,40.40249794368609,39.630285066445644,41.5845632420082,41.17116259763142,45.61537346589344,41.552497843935754,44.443716085851854,49.41687446896908,50.49489942878513,42.88114416079061,39.19001480780512,34.088250967030284,45.553742296989505,48.2116706724075,40.24905155786043,48.00167247492001,49.22535070535592,44.15094909366808,47.34573233770709,47.03009951423104,43.940854481153046,48.00458569718251,43.336051501082295,47.138242578648345,47.301231793796646,46.64885931700699,53.39005809484399,50.3775776078424,53.90397784789937,48.46448512335811,48.75712725047959,38.476417369829996,45.645087419426716,43.00257337803832,42.776316802855156,41.93648156942953,43.398695670564365,47.94869804804772,36.28059805259029,44.78197790009774,49.50125079956764,45.88445348993537,45.893754244808406,45.98907160793557,43.47361935605309,44.06108286547332
1_length_617,82.30289378874753,75.39687388984727,70.21566997658911,72.31741401673574,81.3979649454336,70.7238868405212,73.02245799319843,74.77137046905047,61.83089976487538,87.36745653082106,71.70267482926491,62.04744803086672,67.59087439523616,64.60706301317067,66.26362119471797,64.94717046119035,71.61943703154158,80.76740356822425,64.75828746738398,69.40397606831414,71.7137069575803,76.88320033957847,84.0297884618542,77.15134920570073,63.21504102921342,78.80033573246205,81.8582599593867,65.23971963033539,70.96903869108971,69.33642338176135,87.49942807696938,74.90460809569082,85.36493647849724,75.5933139951306,63.3257565522036,82.76447793327685,80.76793362444866,74.5828345355433,72.31705630366186,72.75967503272766,74.63156978575006,75.02520197664613,78.48677797682517,79.85001371029897,50.98420866153858,73.25861820828447,49.492006776695696,71.63685923314392,69.16966097459506,70.98646730795139,78.49148731853884,74.08467985123492,73.92059040765693,84.12886716907046,80.4590607058744,71.32544934602903,71.23684791574131,67.23031413014671,57.53919545809429,73.95887253053127,80.36393947622773,75.26989124363921,74.47530442843454,82.15983565857178,93.50555878068934,80.82781313726979,79.74454430609946,79.45611401776361,75.24761392032399,72.51250429878458,79.2504054670389,74.7955509535143,87.55399496003616,86.1948026861937,77.50559072494507,78.50758292942238,75.52686257493977,78.99873006513242,63.32894195464333,73.71702567166268,74.23290396527827,56.987022205718155,78.23439728957705,70.26388420741772,71.4617352679227,69.31676894512665,79.75029967356166,74.10018807506881,76.86369138417291,79.94691095687297,73.63469570026722,77.06979229192065,69.97374380361742
1_count_volumeadj_243,775.0,1430.0,3129.0,1433.0,1449.0,6992.0,1778.0,627.0,2396.0,2630.0,342.0,2445.0,1814.0,572.0,1452.0,2607.0,206.0,4128.0,723.0,1445.0,2314.0,2735.0,2759.0,2290.0,2258.0,2019.0,3842.0,341.0,180.0,2015.0,2714.0,877.0,165.0,1149.0,615.0,2278.0,1371.0,397.0,461.0,1428.0,1255.0,394.0,2233.0,1312.0,0.0,582.0,38.0,1937.0,1023.0,24.0,3830.0,2132.0,2655.0,2749.0,1427.0,1395.0,291.0,26.0,89.0,277.0,1415.0,1157.0,169.0,2601.0,612.0,3328.0,2903.0,2659.0,5403.0,628.0,2073.0,594.0,1351.0,3757.0,2012.0,1414.0,1823.0,2016.0,202.0,2847.0,1364.0,2996.0,2156.0,951.0,1703.0,637.0,1166.0,60.0,1245.0,1315.0,715.0,1324.0,1504.0
