lh.aparc.a2009s.area	lh_G_and_S_frontomargin_area	lh_G_and_S_occipital_inf_area	lh_G_and_S_paracentral_area	lh_G_and_S_subcentral_area	lh_G_and_S_transv_frontopol_area	lh_G_and_S_cingul-Ant_area	lh_G_and_S_cingul-Mid-Ant_area	lh_G_and_S_cingul-Mid-Post_area	lh_G_cingul-Post-dorsal_area	lh_G_cingul-Post-ventral_area	lh_G_cuneus_area	lh_G_front_inf-Opercular_area	lh_G_front_inf-Orbital_area	lh_G_front_inf-Triangul_area	lh_G_front_middle_area	lh_G_front_sup_area	lh_G_Ins_lg_and_S_cent_ins_area	lh_G_insular_short_area	lh_G_occipital_middle_area	lh_G_occipital_sup_area	lh_G_oc-temp_lat-fusifor_area	lh_G_oc-temp_med-Lingual_area	lh_G_oc-temp_med-Parahip_area	lh_G_orbital_area	lh_G_pariet_inf-Angular_area	lh_G_pariet_inf-Supramar_area	lh_G_parietal_sup_area	lh_G_postcentral_area	lh_G_precentral_area	lh_G_precuneus_area	lh_G_rectus_area	lh_G_subcallosal_area	lh_G_temp_sup-G_T_transv_area	lh_G_temp_sup-Lateral_area	lh_G_temp_sup-Plan_polar_area	lh_G_temp_sup-Plan_tempo_area	lh_G_temporal_inf_area	lh_G_temporal_middle_area	lh_Lat_Fis-ant-Horizont_area	lh_Lat_Fis-ant-Vertical_area	lh_Lat_Fis-post_area	lh_Pole_occipital_area	lh_Pole_temporal_area	lh_S_calcarine_area	lh_S_central_area	lh_S_cingul-Marginalis_area	lh_S_circular_insula_ant_area	lh_S_circular_insula_inf_area	lh_S_circular_insula_sup_area	lh_S_collat_transv_ant_area	lh_S_collat_transv_post_area	lh_S_front_inf_area	lh_S_front_middle_area	lh_S_front_sup_area	lh_S_interm_prim-Jensen_area	lh_S_intrapariet_and_P_trans_area	lh_S_oc_middle_and_Lunatus_area	lh_S_oc_sup_and_transversal_area	lh_S_occipital_ant_area	lh_S_oc-temp_lat_area	lh_S_oc-temp_med_and_Lingual_area	lh_S_orbital_lateral_area	lh_S_orbital_med-olfact_area	lh_S_orbital-H_Shaped_area	lh_S_parieto_occipital_area	lh_S_pericallosal_area	lh_S_postcentral_area	lh_S_precentral-inf-part_area	lh_S_precentral-sup-part_area	lh_S_suborbital_area	lh_S_subparietal_area	lh_S_temporal_inf_area	lh_S_temporal_sup_area	lh_S_temporal_transverse_area	lh_WhiteSurfArea_area
10398/	681.0	986.0	866.0	919.0	470.0	1544.0	1066.0	781.0	290.0	208.0	1493.0	1067.0	166.0	786.0	2232.0	4144.0	317.0	385.0	1257.0	1316.0	1164.0	2022.0	730.0	1440.0	1338.0	1709.0	2118.0	1249.0	1511.0	2139.0	638.0	72.0	279.0	1210.0	332.0	646.0	1463.0	1837.0	175.0	162.0	862.0	1351.0	1139.0	1621.0	1973.0	877.0	289.0	876.0	1076.0	358.0	290.0	1550.0	878.0	1533.0	238.0	1895.0	620.0	857.0	422.0	567.0	1796.0	232.0	414.0	718.0	1001.0	724.0	1772.0	1028.0	823.0	349.0	533.0	952.0	2760.0	197.0	75780.5
10423/	800.0	1455.0	917.0	1003.0	417.0	1713.0	918.0	1024.0	396.0	235.0	1832.0	931.0	247.0	873.0	3081.0	4879.0	335.0	511.0	1828.0	1210.0	1288.0	2497.0	742.0	1726.0	1574.0	2096.0	2283.0	1452.0	1595.0	1477.0	713.0	178.0	424.0	1633.0	499.0	724.0	1363.0	2327.0	237.0	260.0	970.0	1441.0	1278.0	1925.0	2089.0	702.0	333.0	940.0	1239.0	340.0	309.0	1657.0	814.0	1931.0	165.0	2037.0	1015.0	690.0	716.0	636.0	2067.0	308.0	617.0	694.0	1592.0	824.0	2164.0	923.0	840.0	342.0	683.0	816.0	4009.0	158.0	86956.4
10524/	869.0	1420.0	879.0	1010.0	461.0	1725.0	1185.0	1065.0	379.0	242.0	1408.0	1198.0	287.0	820.0	2929.0	5929.0	386.0	524.0	1552.0	1201.0	1716.0	2803.0	888.0	1726.0	2038.0	2376.0	2653.0	1718.0	2242.0	1895.0	697.0	264.0	491.0	1598.0	639.0	922.0	1643.0	1866.0	219.0	263.0	763.0	1810.0	1378.0	2256.0	2265.0	782.0	354.0	873.0	1287.0	809.0	567.0	1470.0	1124.0	2511.0	584.0	2419.0	1083.0	900.0	471.0	514.0	2072.0	298.0	514.0	1001.0	1737.0	862.0	2299.0	1072.0	1367.0	569.0	759.0	824.0	4348.0	370.0	96432.1
10536/	559.0	1148.0	811.0	824.0	529.0	1639.0	848.0	879.0	403.0	177.0	1512.0	1062.0	152.0	808.0	2957.0	4638.0	266.0	470.0	1798.0	1147.0	1394.0	2474.0	686.0	1536.0	1956.0	1929.0	2060.0	1357.0	1385.0	1523.0	641.0	203.0	336.0	1388.0	245.0	645.0	2185.0	1800.0	198.0	213.0	816.0	1455.0	1326.0	1745.0	2057.0	691.0	320.0	984.0	1101.0	710.0	323.0	1877.0	1002.0	2074.0	303.0	1978.0	921.0	956.0	547.0	634.0	1769.0	248.0	691.0	972.0	1657.0	667.0	2088.0	864.0	789.0	450.0	727.0	884.0	4073.0	243.0	84722.3
10547/	1042.0	970.0	1216.0	1311.0	508.0	1943.0	1354.0	1124.0	396.0	340.0	1557.0	1123.0	260.0	817.0	4374.0	4857.0	247.0	466.0	1954.0	1508.0	1324.0	2521.0	1059.0	2308.0	2158.0	2176.0	2262.0	2069.0	2254.0	2533.0	866.0	482.0	459.0	1740.0	468.0	865.0	2343.0	2335.0	240.0	230.0	1021.0	1499.0	1170.0	1900.0	2843.0	961.0	431.0	1088.0	1363.0	825.0	292.0	2139.0	1589.0	2721.0	123.0	2335.0	1194.0	1119.0	393.0	949.0	1848.0	475.0	729.0	1274.0	1630.0	987.0	3044.0	1339.0	930.0	485.0	787.0	1262.0	4466.0	384.0	103650.0
10563/	719.0	1089.0	949.0	1127.0	552.0	1371.0	819.0	740.0	300.0	183.0	985.0	1124.0	202.0	671.0	2265.0	4666.0	269.0	495.0	1065.0	783.0	1474.0	1626.0	716.0	1415.0	1494.0	1896.0	1725.0	1252.0	1765.0	1520.0	570.0	179.0	358.0	1440.0	283.0	782.0	1890.0	1704.0	240.0	171.0	891.0	1087.0	969.0	1290.0	1938.0	654.0	412.0	1063.0	1253.0	464.0	202.0	1713.0	836.0	1758.0	415.0	1690.0	370.0	810.0	360.0	509.0	1692.0	206.0	378.0	789.0	1506.0	809.0	1741.0	613.0	744.0	378.0	490.0	873.0	3118.0	298.0	75190.5
10566/	711.0	1096.0	999.0	1023.0	472.0	1451.0	913.0	899.0	327.0	134.0	1046.0	704.0	229.0	710.0	2948.0	4533.0	304.0	511.0	1129.0	882.0	965.0	1404.0	762.0	1450.0	1751.0	1907.0	1677.0	1098.0	1615.0	1730.0	625.0	78.0	390.0	1145.0	360.0	565.0	1928.0	1935.0	254.0	295.0	774.0	1256.0	1027.0	1376.0	2121.0	794.0	382.0	829.0	1410.0	528.0	244.0	1047.0	856.0	1796.0	264.0	1924.0	396.0	865.0	549.0	706.0	1377.0	317.0	481.0	729.0	1488.0	625.0	1713.0	1021.0	718.0	371.0	625.0	623.0	3596.0	295.0	76077.7
10606/	842.0	1130.0	1127.0	1263.0	470.0	1678.0	978.0	882.0	423.0	216.0	1400.0	1073.0	181.0	1022.0	3587.0	4498.0	242.0	411.0	1387.0	982.0	1055.0	2567.0	786.0	1634.0	1504.0	2494.0	2193.0	1327.0	2086.0	1992.0	778.0	298.0	457.0	1595.0	356.0	895.0	1493.0	2107.0	373.0	158.0	1073.0	1488.0	1233.0	1517.0	2203.0	833.0	305.0	909.0	1143.0	808.0	350.0	1488.0	1282.0	1904.0	112.0	2326.0	969.0	901.0	679.0	501.0	1728.0	211.0	639.0	830.0	1284.0	432.0	2147.0	1210.0	934.0	400.0	876.0	999.0	4317.0	398.0	88365.6
10620/	1204.0	971.0	958.0	1107.0	627.0	2181.0	1237.0	1301.0	533.0	360.0	1374.0	1083.0	210.0	999.0	4355.0	5961.0	409.0	575.0	1506.0	1394.0	1834.0	1977.0	957.0	2203.0	1900.0	2344.0	2577.0	1672.0	2328.0	2365.0	918.0	494.0	479.0	1608.0	556.0	813.0	1939.0	2615.0	313.0	210.0	1019.0	1462.0	1403.0	1772.0	2634.0	727.0	529.0	954.0	1363.0	665.0	235.0	1685.0	1367.0	2612.0	435.0	2672.0	923.0	1078.0	763.0	796.0	2099.0	376.0	608.0	1178.0	1386.0	1051.0	1762.0	1619.0	1061.0	386.0	1086.0	1292.0	5557.0	175.0	103179.0
10621/	1090.0	1128.0	1219.0	1206.0	559.0	2243.0	939.0	855.0	470.0	242.0	1596.0	1247.0	206.0	813.0	3927.0	5574.0	305.0	517.0	1477.0	1305.0	1475.0	1905.0	863.0	1873.0	2063.0	1819.0	2875.0	1444.0	2140.0	1562.0	812.0	403.0	380.0	1659.0	416.0	612.0	2007.0	2364.0	251.0	259.0	800.0	1489.0	1248.0	1848.0	2553.0	781.0	422.0	1045.0	1301.0	660.0	238.0	2062.0	1254.0	2689.0	299.0	2544.0	1010.0	1102.0	891.0	659.0	1496.0	314.0	738.0	1177.0	1615.0	747.0	1871.0	1510.0	906.0	513.0	909.0	968.0	4350.0	254.0	96357.3
10667/	853.0	1085.0	992.0	912.0	465.0	1527.0	858.0	818.0	342.0	151.0	1551.0	1163.0	243.0	735.0	2573.0	4399.0	266.0	404.0	1198.0	1173.0	1324.0	2240.0	662.0	1791.0	1592.0	1843.0	1731.0	1429.0	1481.0	1533.0	604.0	212.0	211.0	1440.0	276.0	586.0	1988.0	1713.0	226.0	131.0	699.0	1223.0	1416.0	1778.0	1875.0	647.0	318.0	904.0	1214.0	759.0	227.0	1705.0	1222.0	1266.0	248.0	2090.0	699.0	893.0	488.0	777.0	1324.0	204.0	692.0	1010.0	1875.0	667.0	2024.0	1033.0	670.0	362.0	634.0	876.0	3484.0	186.0	80209.0
10813/	860.0	1129.0	1108.0	1093.0	488.0	1474.0	1030.0	882.0	281.0	138.0	1389.0	753.0	159.0	1038.0	3209.0	4823.0	262.0	394.0	1649.0	897.0	1626.0	2271.0	947.0	1444.0	1828.0	2488.0	2001.0	1353.0	1766.0	1585.0	633.0	149.0	290.0	1344.0	330.0	649.0	1779.0	2201.0	231.0	151.0	776.0	1319.0	1198.0	1783.0	1963.0	672.0	279.0	943.0	1094.0	850.0	267.0	1701.0	1294.0	1778.0	144.0	2027.0	1084.0	721.0	320.0	914.0	1270.0	286.0	495.0	838.0	1361.0	466.0	1788.0	881.0	1203.0	337.0	785.0	934.0	4074.0	246.0	84212.5
10903/	900.0	1353.0	1072.0	1212.0	556.0	2168.0	1154.0	914.0	479.0	285.0	1503.0	1037.0	192.0	552.0	3230.0	5683.0	317.0	462.0	1878.0	1222.0	1685.0	2856.0	1184.0	1859.0	2023.0	2531.0	1971.0	2042.0	1890.0	2280.0	734.0	397.0	287.0	1653.0	583.0	896.0	2315.0	2379.0	193.0	191.0	961.0	1365.0	1486.0	1776.0	2735.0	724.0	355.0	932.0	1396.0	952.0	284.0	1744.0	1180.0	2254.0	454.0	2028.0	926.0	1028.0	1125.0	721.0	1843.0	188.0	592.0	1067.0	1675.0	893.0	2601.0	1041.0	910.0	581.0	1073.0	1124.0	5045.0	262.0	99440.3
10943/	728.0	1020.0	851.0	925.0	341.0	1499.0	796.0	820.0	328.0	170.0	1539.0	976.0	160.0	617.0	3180.0	4665.0	244.0	406.0	1615.0	996.0	1396.0	2033.0	643.0	1469.0	1467.0	1766.0	1924.0	1343.0	1775.0	1908.0	553.0	24.0	339.0	1205.0	338.0	561.0	1230.0	1929.0	161.0	99.0	770.0	1280.0	1049.0	1414.0	2003.0	703.0	250.0	891.0	1133.0	715.0	185.0	1233.0	807.0	1954.0	262.0	2223.0	871.0	887.0	729.0	393.0	1530.0	181.0	266.0	732.0	1245.0	593.0	1821.0	1152.0	619.0	453.0	580.0	656.0	3771.0	253.0	77644.3
5202/	738.0	995.0	1057.0	878.0	502.0	1395.0	1087.0	799.0	296.0	194.0	1485.0	1108.0	179.0	716.0	2335.0	4394.0	325.0	401.0	1226.0	1375.0	1205.0	2005.0	823.0	1399.0	1241.0	1875.0	2246.0	1321.0	1597.0	2164.0	677.0	355.0	268.0	1107.0	369.0	692.0	1480.0	1906.0	213.0	181.0	875.0	1390.0	1143.0	1700.0	1981.0	851.0	333.0	862.0	1143.0	304.0	265.0	1605.0	949.0	1731.0	353.0	1987.0	549.0	812.0	335.0	566.0	1962.0	260.0	543.0	813.0	1147.0	785.0	1820.0	1046.0	815.0	519.0	577.0	1018.0	2939.0	199.0	78786.7
5302/	815.0	1234.0	976.0	1053.0	492.0	1590.0	959.0	768.0	406.0	166.0	1146.0	960.0	188.0	805.0	2544.0	4290.0	278.0	442.0	1402.0	838.0	1393.0	1926.0	599.0	1480.0	1513.0	2109.0	2356.0	1804.0	1826.0	1808.0	588.0	195.0	304.0	1188.0	352.0	630.0	1844.0	2041.0	209.0	223.0	771.0	1494.0	956.0	1636.0	1904.0	582.0	326.0	884.0	1169.0	710.0	327.0	1659.0	756.0	1397.0	113.0	2149.0	663.0	983.0	276.0	773.0	1278.0	292.0	391.0	757.0	1328.0	808.0	2236.0	1130.0	809.0	610.0	910.0	1038.0	3674.0	218.0	80744.8
5305/	622.0	1022.0	943.0	858.0	456.0	1500.0	773.0	850.0	273.0	164.0	1244.0	968.0	210.0	916.0	2295.0	4178.0	212.0	389.0	1613.0	985.0	1294.0	1832.0	677.0	1456.0	1455.0	1512.0	1668.0	1274.0	1645.0	1490.0	552.0	183.0	327.0	1206.0	394.0	619.0	1849.0	1684.0	236.0	222.0	763.0	1194.0	1113.0	1684.0	2104.0	602.0	320.0	910.0	1011.0	428.0	229.0	1753.0	913.0	1538.0	105.0	1683.0	983.0	826.0	390.0	541.0	1636.0	253.0	514.0	884.0	1383.0	579.0	1540.0	1021.0	728.0	552.0	512.0	671.0	3575.0	193.0	75179.2
5306/	744.0	1186.0	947.0	855.0	392.0	1435.0	759.0	815.0	313.0	131.0	1047.0	1057.0	181.0	669.0	2795.0	4033.0	264.0	395.0	1132.0	867.0	1095.0	1747.0	594.0	1590.0	1777.0	1725.0	1560.0	1421.0	1655.0	1385.0	509.0	189.0	281.0	1413.0	228.0	657.0	1294.0	1594.0	196.0	200.0	682.0	1549.0	1145.0	1595.0	2064.0	732.0	324.0	721.0	1125.0	451.0	290.0	1676.0	702.0	1487.0	137.0	1590.0	672.0	602.0	407.0	640.0	1379.0	259.0	417.0	878.0	1156.0	524.0	1825.0	1226.0	754.0	323.0	511.0	542.0	2883.0	149.0	72548.2
5464/	766.0	1129.0	1149.0	991.0	473.0	1387.0	882.0	891.0	367.0	184.0	1326.0	908.0	157.0	732.0	2429.0	4056.0	294.0	558.0	1159.0	1088.0	1695.0	1695.0	720.0	1483.0	1419.0	1775.0	1707.0	1383.0	1939.0	1681.0	613.0	188.0	343.0	1384.0	381.0	648.0	1457.0	1619.0	245.0	266.0	903.0	1288.0	1205.0	1534.0	2171.0	672.0	266.0	924.0	1086.0	548.0	166.0	1714.0	1244.0	1500.0	172.0	1742.0	492.0	850.0	332.0	546.0	1697.0	243.0	468.0	818.0	1126.0	677.0	2005.0	1093.0	758.0	352.0	454.0	935.0	3032.0	303.0	76881.9
5505/	833.0	975.0	879.0	980.0	476.0	1404.0	933.0	763.0	342.0	194.0	1213.0	959.0	218.0	911.0	3265.0	4509.0	314.0	468.0	1483.0	1122.0	1662.0	2303.0	742.0	1616.0	2054.0	2336.0	2027.0	1262.0	1885.0	1814.0	617.0	82.0	329.0	1273.0	313.0	793.0	1406.0	1968.0	232.0	334.0	840.0	1350.0	1230.0	1652.0	2072.0	632.0	353.0	1052.0	1219.0	658.0	239.0	1745.0	674.0	1921.0	603.0	2413.0	697.0	934.0	544.0	781.0	2027.0	368.0	418.0	992.0	1130.0	705.0	1728.0	799.0	923.0	435.0	688.0	735.0	4025.0	153.0	84027.2
5506/	696.0	780.0	933.0	707.0	390.0	965.0	630.0	643.0	196.0	156.0	1056.0	983.0	185.0	757.0	2106.0	3842.0	233.0	345.0	1188.0	936.0	1132.0	1630.0	584.0	1352.0	1342.0	1639.0	1738.0	1203.0	1551.0	1685.0	571.0	24.0	250.0	1008.0	364.0	542.0	1358.0	1404.0	211.0	247.0	680.0	1248.0	1014.0	1570.0	1782.0	610.0	245.0	766.0	950.0	613.0	222.0	1734.0	964.0	1606.0	109.0	2006.0	693.0	594.0	329.0	474.0	1501.0	250.0	216.0	725.0	721.0	523.0	1522.0	1206.0	577.0	479.0	500.0	501.0	3285.0	175.0	67954.5
5514/	847.0	844.0	1054.0	959.0	528.0	1293.0	788.0	965.0	334.0	240.0	1489.0	1084.0	244.0	943.0	3476.0	4567.0	321.0	484.0	1803.0	988.0	1177.0	2570.0	857.0	1914.0	1641.0	2107.0	1924.0	1269.0	1744.0	1861.0	674.0	275.0	318.0	1372.0	463.0	803.0	2005.0	1868.0	234.0	253.0	767.0	1298.0	1093.0	2098.0	1949.0	648.0	468.0	782.0	1253.0	694.0	230.0	1532.0	1158.0	2091.0	276.0	2263.0	1017.0	708.0	774.0	867.0	1708.0	263.0	533.0	1028.0	1603.0	752.0	1806.0	798.0	860.0	326.0	786.0	760.0	3729.0	255.0	85755.1
5515/	785.0	1297.0	909.0	1053.0	880.0	1714.0	926.0	939.0	440.0	225.0	1453.0	1056.0	246.0	1005.0	3102.0	5256.0	285.0	422.0	1661.0	1286.0	1468.0	2452.0	749.0	1615.0	1961.0	1999.0	2043.0	1726.0	2119.0	1572.0	772.0	171.0	321.0	1513.0	401.0	793.0	1748.0	2224.0	313.0	237.0	979.0	1685.0	1263.0	2092.0	2544.0	764.0	378.0	999.0	1481.0	627.0	255.0	1781.0	885.0	2441.0	363.0	2663.0	972.0	1018.0	431.0	675.0	1936.0	339.0	631.0	887.0	1726.0	909.0	1910.0	1277.0	1103.0	345.0	708.0	1198.0	4144.0	299.0	92846.8
5516/	859.0	1262.0	875.0	938.0	445.0	1228.0	920.0	814.0	346.0	235.0	1139.0	888.0	224.0	739.0	2826.0	4392.0	258.0	446.0	1446.0	898.0	1168.0	2005.0	776.0	1607.0	1530.0	1465.0	2031.0	1467.0	1761.0	1897.0	626.0	312.0	453.0	1359.0	331.0	605.0	1488.0	1968.0	167.0	211.0	703.0	1202.0	960.0	1681.0	2325.0	723.0	357.0	912.0	1119.0	562.0	243.0	1228.0	1101.0	1894.0	105.0	2114.0	814.0	739.0	338.0	550.0	1126.0	321.0	499.0	997.0	1199.0	523.0	1719.0	972.0	773.0	367.0	588.0	627.0	3625.0	234.0	77642.0
5518/	746.0	1077.0	897.0	766.0	515.0	1540.0	772.0	985.0	294.0	247.0	1146.0	932.0	199.0	852.0	2837.0	4142.0	277.0	373.0	1300.0	794.0	1322.0	2023.0	649.0	1527.0	1495.0	1780.0	1840.0	1465.0	1908.0	1679.0	606.0	171.0	270.0	1246.0	283.0	555.0	1268.0	1770.0	237.0	304.0	822.0	1247.0	1079.0	1513.0	2140.0	811.0	339.0	963.0	1087.0	448.0	286.0	1859.0	811.0	1848.0	180.0	1664.0	688.0	732.0	440.0	528.0	1400.0	258.0	495.0	925.0	1227.0	578.0	1682.0	1162.0	664.0	502.0	613.0	996.0	3528.0	202.0	76806.0
5640/	633.0	1111.0	1256.0	889.0	236.0	1718.0	940.0	878.0	427.0	249.0	1727.0	976.0	141.0	860.0	3219.0	4878.0	315.0	570.0	1521.0	1079.0	1290.0	1914.0	986.0	1808.0	1741.0	2366.0	1823.0	1627.0	2032.0	1549.0	739.0	94.0	362.0	1417.0	575.0	680.0	1796.0	1874.0	293.0	248.0	881.0	1396.0	1156.0	1521.0	2848.0	769.0	422.0	1006.0	1265.0	420.0	418.0	1714.0	1237.0	2343.0	17.0	1953.0	495.0	973.0	580.0	851.0	1565.0	397.0	671.0	1093.0	1009.0	830.0	1777.0	912.0	961.0	415.0	449.0	671.0	4316.0	221.0	86388.9
5649/	875.0	898.0	1082.0	1125.0	548.0	1875.0	1149.0	855.0	403.0	405.0	967.0	1405.0	214.0	812.0	3011.0	5266.0	349.0	473.0	1836.0	929.0	1705.0	2378.0	1728.0	1817.0	2480.0	2804.0	2473.0	1977.0	1930.0	2059.0	613.0	173.0	306.0	1473.0	338.0	792.0	1729.0	1984.0	228.0	244.0	983.0	1488.0	1236.0	1474.0	2739.0	777.0	427.0	943.0	1447.0	888.0	308.0	1776.0	1044.0	2120.0	512.0	2597.0	1146.0	1237.0	516.0	791.0	2204.0	424.0	537.0	1064.0	803.0	873.0	2590.0	1565.0	766.0	428.0	1004.0	940.0	4324.0	241.0	95923.8
5754/	999.0	1304.0	1039.0	1047.0	618.0	1796.0	931.0	981.0	425.0	181.0	1541.0	976.0	210.0	870.0	3656.0	5319.0	301.0	468.0	1378.0	914.0	1571.0	2278.0	827.0	1620.0	1930.0	2383.0	2128.0	1584.0	1830.0	1715.0	599.0	226.0	352.0	1540.0	354.0	868.0	1846.0	1897.0	192.0	204.0	810.0	1563.0	1289.0	1738.0	2099.0	775.0	321.0	871.0	1293.0	641.0	326.0	1401.0	1512.0	2346.0	510.0	2657.0	898.0	750.0	427.0	793.0	1776.0	290.0	524.0	866.0	1518.0	834.0	2259.0	1024.0	919.0	499.0	725.0	888.0	3396.0	259.0	89692.5
5755/	663.0	960.0	630.0	660.0	389.0	1109.0	704.0	663.0	225.0	77.0	1100.0	753.0	127.0	733.0	1985.0	3589.0	192.0	286.0	1016.0	981.0	1103.0	1731.0	587.0	1077.0	1157.0	1248.0	1638.0	906.0	1262.0	1072.0	510.0	83.0	242.0	1147.0	148.0	394.0	1489.0	1370.0	254.0	232.0	515.0	1167.0	1054.0	1375.0	1679.0	508.0	215.0	868.0	980.0	417.0	232.0	1057.0	757.0	1245.0	137.0	1758.0	532.0	315.0	479.0	616.0	1149.0	172.0	239.0	622.0	1059.0	427.0	1204.0	809.0	612.0	296.0	454.0	724.0	2936.0	167.0	61268.9
5771/	855.0	1381.0	804.0	1049.0	412.0	1498.0	828.0	887.0	319.0	240.0	1588.0	962.0	210.0	860.0	2991.0	4681.0	346.0	475.0	1200.0	1154.0	1371.0	1940.0	815.0	1776.0	1835.0	1987.0	2432.0	1658.0	1706.0	1816.0	707.0	254.0	320.0	1362.0	630.0	702.0	1981.0	1900.0	256.0	320.0	892.0	1470.0	1128.0	1724.0	2206.0	723.0	443.0	976.0	1183.0	515.0	334.0	1560.0	1077.0	2020.0	312.0	2129.0	885.0	626.0	448.0	643.0	1809.0	292.0	657.0	1091.0	1776.0	801.0	2534.0	1350.0	759.0	452.0	597.0	1023.0	3929.0	304.0	87169.1
5798/	146.0	180.0	86.0	226.0	90.0	592.0	22.0	4.0	205.0	528.0	248.0	255.0	17.0	209.0	601.0	604.0	135.0	124.0	323.0	157.0	234.0	358.0	903.0	642.0	459.0	800.0	556.0	571.0	360.0	463.0	297.0	279.0	119.0	235.0	85.0	255.0	337.0	422.0	59.0	0.0	319.0	293.0	238.0	327.0	369.0	57.0	126.0	241.0	314.0	125.0	56.0	283.0	165.0	305.0	52.0	550.0	29.0	93.0	24.0	140.0	297.0	17.0	209.0	197.0	254.0	580.0	496.0	206.0	220.0	53.0	247.0	210.0	996.0	0.0	20270.6
5825/	830.0	943.0	930.0	789.0	472.0	1508.0	988.0	928.0	455.0	232.0	896.0	1030.0	160.0	732.0	3111.0	4272.0	298.0	344.0	1191.0	942.0	1368.0	1798.0	883.0	1610.0	1929.0	1797.0	1989.0	1512.0	1784.0	1834.0	673.0	192.0	342.0	1315.0	383.0	476.0	2025.0	1571.0	202.0	231.0	690.0	1148.0	1081.0	1258.0	2018.0	819.0	278.0	996.0	1222.0	907.0	308.0	1570.0	1292.0	1518.0	93.0	1864.0	488.0	980.0	661.0	516.0	1266.0	178.0	393.0	1051.0	909.0	530.0	2237.0	1113.0	901.0	421.0	771.0	709.0	3611.0	287.0	79050.0
5843/	620.0	1048.0	671.0	694.0	309.0	1195.0	625.0	664.0	193.0	200.0	1044.0	777.0	127.0	810.0	2185.0	3330.0	216.0	361.0	906.0	848.0	1244.0	1528.0	522.0	1267.0	1224.0	1323.0	1381.0	1071.0	1209.0	1375.0	530.0	122.0	359.0	1095.0	211.0	436.0	1015.0	1296.0	196.0	137.0	494.0	1066.0	963.0	1406.0	1961.0	614.0	245.0	805.0	1035.0	361.0	252.0	1273.0	394.0	1344.0	245.0	1445.0	639.0	421.0	552.0	508.0	1145.0	200.0	440.0	613.0	1065.0	529.0	1225.0	696.0	684.0	386.0	399.0	526.0	2450.0	187.0	60926.7
5844/	655.0	1031.0	783.0	1181.0	458.0	1248.0	853.0	709.0	331.0	102.0	1344.0	683.0	181.0	615.0	2312.0	4233.0	228.0	447.0	1150.0	1012.0	1022.0	1763.0	813.0	1322.0	1516.0	1451.0	1664.0	1503.0	1679.0	1480.0	572.0	127.0	266.0	1442.0	290.0	608.0	1405.0	1656.0	278.0	204.0	711.0	1343.0	1122.0	1280.0	2119.0	606.0	298.0	910.0	1188.0	770.0	280.0	1425.0	763.0	1571.0	331.0	1686.0	681.0	767.0	597.0	468.0	1453.0	285.0	300.0	686.0	1318.0	552.0	1609.0	921.0	828.0	442.0	814.0	546.0	3515.0	189.0	72991.1
5899/	847.0	970.0	852.0	880.0	350.0	1362.0	1063.0	800.0	358.0	190.0	1221.0	764.0	146.0	532.0	2607.0	4351.0	234.0	362.0	973.0	698.0	925.0	2082.0	672.0	1700.0	1604.0	1710.0	1870.0	1518.0	1525.0	1755.0	599.0	199.0	357.0	1292.0	434.0	738.0	1797.0	1765.0	161.0	193.0	793.0	1216.0	1049.0	1702.0	2131.0	703.0	341.0	907.0	1180.0	546.0	254.0	1017.0	1262.0	1802.0	272.0	2068.0	481.0	826.0	419.0	619.0	1180.0	254.0	484.0	841.0	891.0	682.0	2052.0	970.0	1000.0	499.0	969.0	852.0	3800.0	228.0	76749.0
5900/	1078.0	1023.0	835.0	1177.0	695.0	1514.0	1013.0	865.0	443.0	205.0	1588.0	909.0	229.0	641.0	3658.0	5005.0	357.0	491.0	1373.0	1118.0	1699.0	2161.0	753.0	1694.0	1672.0	2032.0	2424.0	1615.0	2019.0	1842.0	702.0	259.0	290.0	1321.0	580.0	511.0	1775.0	2327.0	210.0	91.0	659.0	1294.0	1113.0	1978.0	2538.0	750.0	289.0	918.0	1317.0	691.0	178.0	2111.0	1031.0	2280.0	317.0	2549.0	608.0	896.0	237.0	871.0	1067.0	270.0	470.0	777.0	1502.0	1008.0	2625.0	1228.0	1163.0	481.0	966.0	1231.0	4233.0	289.0	90121.5
5902/	881.0	1507.0	1118.0	1070.0	373.0	1538.0	989.0	991.0	391.0	216.0	1397.0	1017.0	219.0	832.0	3810.0	5218.0	276.0	429.0	1521.0	976.0	1340.0	2218.0	745.0	1964.0	1847.0	2760.0	2393.0	1527.0	2258.0	2122.0	638.0	262.0	378.0	1393.0	562.0	846.0	1533.0	2050.0	232.0	239.0	1055.0	1915.0	1067.0	1947.0	2347.0	877.0	473.0	935.0	1294.0	582.0	419.0	1683.0	1248.0	1912.0	332.0	2272.0	884.0	923.0	448.0	302.0	1683.0	382.0	564.0	918.0	1231.0	730.0	2262.0	1369.0	999.0	511.0	983.0	930.0	3937.0	334.0	91826.1
5953/	731.0	1068.0	936.0	867.0	358.0	1292.0	885.0	757.0	316.0	223.0	1391.0	1038.0	156.0	685.0	3032.0	4067.0	245.0	420.0	1228.0	938.0	1184.0	2300.0	647.0	1575.0	1392.0	2058.0	2148.0	1491.0	1728.0	1696.0	562.0	88.0	311.0	1263.0	344.0	589.0	1476.0	1691.0	176.0	199.0	651.0	1278.0	1078.0	1835.0	2062.0	607.0	432.0	911.0	1203.0	531.0	229.0	1485.0	1252.0	1948.0	199.0	2189.0	541.0	987.0	479.0	586.0	1335.0	193.0	332.0	848.0	1201.0	740.0	1787.0	1021.0	825.0	457.0	639.0	885.0	3091.0	241.0	77627.9
5955/	838.0	1102.0	712.0	970.0	457.0	1614.0	771.0	878.0	397.0	196.0	935.0	822.0	230.0	686.0	3106.0	4424.0	281.0	342.0	1305.0	881.0	1414.0	1958.0	828.0	1527.0	1345.0	2051.0	2054.0	1103.0	1556.0	2080.0	567.0	112.0	343.0	1301.0	382.0	440.0	1378.0	1735.0	156.0	107.0	696.0	1153.0	953.0	1492.0	1988.0	728.0	320.0	848.0	1217.0	670.0	339.0	1367.0	897.0	1677.0	174.0	2143.0	788.0	865.0	664.0	386.0	1193.0	308.0	283.0	836.0	1095.0	864.0	1902.0	848.0	949.0	428.0	848.0	846.0	3442.0	190.0	76783.3
5977/	779.0	1181.0	1062.0	1241.0	511.0	1792.0	786.0	831.0	403.0	206.0	1113.0	922.0	179.0	751.0	2850.0	4536.0	328.0	403.0	1279.0	1067.0	1109.0	1900.0	750.0	1537.0	2255.0	2097.0	1681.0	1549.0	1837.0	1791.0	684.0	269.0	346.0	1455.0	471.0	596.0	1817.0	2127.0	323.0	194.0	864.0	1355.0	1316.0	1741.0	2386.0	746.0	462.0	957.0	1068.0	380.0	265.0	1469.0	1147.0	1770.0	183.0	2230.0	789.0	794.0	730.0	621.0	1679.0	203.0	474.0	944.0	1218.0	614.0	1952.0	1131.0	704.0	327.0	549.0	793.0	4519.0	241.0	83624.7
6010/	490.0	1283.0	1065.0	1128.0	443.0	1194.0	708.0	886.0	320.0	227.0	1440.0	1035.0	197.0	1154.0	2479.0	4195.0	324.0	354.0	1388.0	1083.0	1465.0	1869.0	446.0	1353.0	1680.0	2228.0	1879.0	1598.0	1853.0	1475.0	584.0	278.0	485.0	1490.0	403.0	620.0	1501.0	1593.0	225.0	231.0	829.0	1387.0	1170.0	1579.0	1772.0	785.0	279.0	830.0	1251.0	527.0	182.0	1692.0	710.0	1485.0	51.0	1709.0	621.0	655.0	387.0	759.0	1295.0	345.0	513.0	708.0	1360.0	853.0	1786.0	1178.0	1112.0	482.0	699.0	721.0	3124.0	236.0	77716.5
6026/	882.0	1273.0	911.0	1337.0	445.0	1624.0	833.0	863.0	448.0	199.0	1393.0	1144.0	256.0	780.0	3088.0	5134.0	341.0	530.0	1523.0	1139.0	1669.0	2028.0	952.0	1853.0	1519.0	2699.0	1996.0	1483.0	1886.0	1823.0	668.0	299.0	260.0	1638.0	710.0	930.0	1873.0	2412.0	244.0	240.0	1062.0	1263.0	1211.0	1550.0	2405.0	697.0	326.0	913.0	1193.0	1090.0	176.0	1271.0	1204.0	2308.0	200.0	2474.0	742.0	1113.0	729.0	588.0	1661.0	327.0	650.0	882.0	1565.0	938.0	1831.0	1091.0	1017.0	561.0	773.0	1151.0	4404.0	289.0	90982.2
6028/	800.0	959.0	721.0	1004.0	354.0	1389.0	926.0	756.0	301.0	153.0	1183.0	844.0	134.0	569.0	2760.0	4354.0	271.0	363.0	1218.0	943.0	1265.0	1752.0	790.0	1563.0	1547.0	1885.0	1630.0	1247.0	1485.0	1383.0	519.0	128.0	244.0	1184.0	281.0	849.0	1248.0	2046.0	186.0	138.0	801.0	1210.0	1319.0	1583.0	1734.0	664.0	283.0	923.0	1130.0	543.0	219.0	1242.0	996.0	1879.0	157.0	1865.0	468.0	842.0	576.0	570.0	1583.0	214.0	472.0	827.0	1388.0	493.0	1844.0	843.0	782.0	327.0	558.0	654.0	4103.0	233.0	74698.0
6033/	672.0	1311.0	914.0	912.0	471.0	1339.0	638.0	751.0	246.0	190.0	1200.0	904.0	165.0	592.0	2519.0	4649.0	293.0	338.0	1370.0	912.0	1003.0	2156.0	699.0	1534.0	1516.0	1660.0	1764.0	1397.0	1679.0	1813.0	583.0	49.0	393.0	1137.0	420.0	642.0	1271.0	1717.0	236.0	181.0	821.0	1316.0	1161.0	1564.0	1927.0	612.0	349.0	826.0	1091.0	539.0	201.0	1385.0	1162.0	1995.0	173.0	1823.0	741.0	861.0	606.0	492.0	1430.0	222.0	233.0	849.0	1367.0	596.0	1832.0	879.0	553.0	384.0	542.0	631.0	3656.0	258.0	75311.5
6034/	940.0	1238.0	841.0	1193.0	585.0	1885.0	971.0	840.0	445.0	281.0	1362.0	1282.0	104.0	985.0	3637.0	5166.0	338.0	460.0	1572.0	1378.0	1410.0	2125.0	896.0	1883.0	1742.0	1785.0	2032.0	1946.0	2098.0	1965.0	729.0	221.0	347.0	1454.0	482.0	769.0	1832.0	2181.0	256.0	231.0	842.0	1578.0	1287.0	2311.0	2128.0	766.0	364.0	930.0	1472.0	588.0	381.0	2143.0	843.0	2071.0	91.0	2019.0	669.0	1134.0	646.0	686.0	1609.0	304.0	476.0	1062.0	1289.0	811.0	1914.0	1251.0	1064.0	462.0	903.0	977.0	4176.0	359.0	91496.1
6035/	926.0	1219.0	1032.0	1060.0	464.0	1586.0	1271.0	1011.0	389.0	284.0	1534.0	1094.0	259.0	1074.0	3687.0	5886.0	418.0	566.0	1891.0	1202.0	1235.0	2278.0	922.0	2000.0	1873.0	2339.0	2561.0	1770.0	2144.0	1939.0	754.0	338.0	419.0	1903.0	521.0	874.0	2121.0	2415.0	190.0	276.0	1054.0	1792.0	1191.0	2234.0	2475.0	916.0	445.0	1045.0	1514.0	1016.0	236.0	1887.0	1237.0	2599.0	455.0	2394.0	1267.0	824.0	378.0	901.0	1207.0	366.0	684.0	1052.0	1360.0	1037.0	1979.0	1237.0	1059.0	432.0	695.0	828.0	4730.0	245.0	98492.5
6040/	878.0	1376.0	1027.0	1112.0	667.0	1867.0	941.0	910.0	335.0	191.0	1657.0	1032.0	199.0	843.0	3647.0	5500.0	256.0	367.0	1632.0	1575.0	1489.0	2385.0	813.0	1942.0	1855.0	2351.0	2612.0	1996.0	2067.0	2237.0	775.0	260.0	463.0	1584.0	391.0	837.0	1660.0	1990.0	249.0	271.0	954.0	1935.0	1318.0	2318.0	2313.0	641.0	403.0	1042.0	1339.0	632.0	410.0	1740.0	1581.0	2168.0	558.0	2054.0	755.0	1249.0	589.0	701.0	1504.0	414.0	618.0	1001.0	1763.0	734.0	1897.0	1157.0	1291.0	448.0	798.0	1128.0	4152.0	279.0	96127.2
6044/	829.0	875.0	767.0	1066.0	568.0	1422.0	887.0	880.0	303.0	187.0	1184.0	870.0	228.0	570.0	2908.0	4549.0	363.0	426.0	1514.0	1109.0	1027.0	2208.0	817.0	1468.0	1411.0	2054.0	2008.0	1345.0	1952.0	1662.0	707.0	159.0	400.0	1380.0	306.0	815.0	1592.0	1348.0	296.0	201.0	897.0	1336.0	1032.0	1814.0	2528.0	869.0	258.0	1072.0	1305.0	716.0	301.0	1402.0	981.0	1816.0	209.0	2281.0	742.0	785.0	553.0	644.0	1121.0	256.0	424.0	967.0	1077.0	585.0	2026.0	942.0	1113.0	451.0	592.0	831.0	3028.0	263.0	79877.6
6045/	921.0	1524.0	1036.0	912.0	529.0	1690.0	948.0	923.0	303.0	214.0	1308.0	1240.0	269.0	1040.0	3193.0	5553.0	230.0	451.0	1633.0	1205.0	1509.0	2031.0	735.0	1718.0	1767.0	1754.0	1572.0	1582.0	1915.0	1861.0	762.0	231.0	322.0	1401.0	318.0	672.0	1251.0	1799.0	297.0	253.0	773.0	1318.0	1181.0	1830.0	2285.0	813.0	367.0	926.0	1307.0	738.0	268.0	1964.0	959.0	2355.0	183.0	1994.0	911.0	914.0	703.0	551.0	1743.0	293.0	534.0	985.0	1179.0	575.0	2137.0	1049.0	1077.0	401.0	737.0	787.0	4551.0	270.0	87528.9
6050/	254.0	519.0	515.0	155.0	224.0	514.0	301.0	265.0	13.0	5.0	526.0	362.0	206.0	154.0	971.0	2543.0	158.0	101.0	734.0	348.0	631.0	446.0	231.0	536.0	715.0	1013.0	1243.0	770.0	795.0	779.0	271.0	59.0	134.0	634.0	105.0	139.0	684.0	674.0	122.0	57.0	476.0	314.0	262.0	558.0	797.0	195.0	167.0	412.0	375.0	252.0	93.0	374.0	300.0	522.0	87.0	728.0	200.0	311.0	310.0	178.0	608.0	24.0	275.0	258.0	566.0	36.0	769.0	365.0	352.0	137.0	164.0	291.0	1383.0	27.0	31069.6
6057/	769.0	661.0	1050.0	677.0	325.0	1393.0	761.0	768.0	304.0	171.0	1067.0	939.0	150.0	768.0	2897.0	4390.0	238.0	368.0	1174.0	946.0	1047.0	1930.0	746.0	1382.0	1680.0	1578.0	1601.0	1217.0	1502.0	1523.0	555.0	0.0	274.0	1267.0	303.0	425.0	1752.0	1866.0	193.0	221.0	547.0	1114.0	1164.0	1316.0	1774.0	597.0	331.0	891.0	1070.0	593.0	200.0	1392.0	796.0	1966.0	462.0	1718.0	364.0	763.0	510.0	643.0	1192.0	273.0	226.0	836.0	1224.0	655.0	1726.0	917.0	574.0	368.0	600.0	646.0	3931.0	198.0	72455.8
6058/	756.0	1489.0	1017.0	797.0	439.0	1832.0	884.0	762.0	245.0	183.0	1347.0	1000.0	218.0	767.0	2586.0	4527.0	261.0	501.0	1117.0	979.0	944.0	2188.0	682.0	1497.0	1631.0	1974.0	1867.0	1292.0	1350.0	1624.0	647.0	170.0	310.0	1516.0	269.0	457.0	1382.0	1566.0	200.0	104.0	696.0	1546.0	1277.0	1482.0	1984.0	669.0	361.0	877.0	1154.0	451.0	356.0	1534.0	912.0	1909.0	268.0	2032.0	903.0	918.0	359.0	528.0	1425.0	172.0	480.0	752.0	1290.0	449.0	1937.0	901.0	627.0	374.0	693.0	650.0	3650.0	251.0	77244.4
6060/	706.0	1310.0	998.0	951.0	506.0	1687.0	912.0	822.0	288.0	200.0	1509.0	915.0	182.0	882.0	3415.0	4737.0	346.0	451.0	1338.0	984.0	1481.0	2045.0	750.0	1664.0	1243.0	2647.0	2130.0	1383.0	1682.0	1826.0	620.0	177.0	290.0	1216.0	363.0	601.0	2129.0	1764.0	218.0	212.0	722.0	1422.0	1306.0	1866.0	1912.0	679.0	320.0	945.0	1119.0	615.0	302.0	2032.0	858.0	1927.0	102.0	1957.0	642.0	771.0	743.0	713.0	1450.0	173.0	548.0	989.0	1536.0	537.0	2091.0	1276.0	743.0	310.0	620.0	801.0	3233.0	204.0	83046.7
6102/	874.0	989.0	1070.0	969.0	344.0	1624.0	963.0	1012.0	469.0	289.0	1175.0	1003.0	77.0	938.0	3979.0	5147.0	360.0	502.0	1426.0	1228.0	1407.0	1715.0	808.0	1799.0	1723.0	1848.0	1561.0	1602.0	1682.0	1241.0	607.0	427.0	375.0	1622.0	382.0	730.0	1609.0	1812.0	244.0	284.0	1051.0	1143.0	933.0	1660.0	2435.0	817.0	355.0	1159.0	1277.0	430.0	344.0	1958.0	1117.0	1991.0	128.0	2040.0	589.0	942.0	636.0	528.0	1526.0	219.0	566.0	1045.0	1212.0	710.0	1668.0	1196.0	879.0	403.0	644.0	771.0	4033.0	249.0	84569.7
6103/	992.0	1370.0	963.0	1318.0	578.0	1808.0	1024.0	989.0	446.0	222.0	1301.0	1093.0	244.0	836.0	3126.0	5662.0	260.0	495.0	1567.0	1098.0	1632.0	2175.0	902.0	1738.0	1409.0	2556.0	2706.0	1595.0	1982.0	1610.0	831.0	323.0	441.0	1650.0	424.0	1040.0	1937.0	1962.0	278.0	214.0	937.0	1650.0	1442.0	2037.0	2247.0	871.0	388.0	1270.0	1220.0	799.0	379.0	1496.0	1353.0	2230.0	355.0	2788.0	926.0	1061.0	825.0	532.0	1523.0	317.0	522.0	1064.0	1625.0	869.0	2284.0	978.0	1284.0	418.0	635.0	824.0	3014.0	362.0	93320.2
6105/	784.0	1209.0	967.0	1057.0	368.0	1920.0	1105.0	869.0	352.0	231.0	1644.0	1131.0	205.0	794.0	3173.0	5340.0	258.0	512.0	1383.0	1309.0	1221.0	2308.0	768.0	1873.0	1815.0	1881.0	2070.0	1593.0	2013.0	1487.0	674.0	240.0	363.0	1544.0	489.0	783.0	2039.0	2138.0	290.0	198.0	1055.0	1520.0	1324.0	1936.0	2229.0	760.0	393.0	976.0	1153.0	551.0	339.0	1687.0	1269.0	2311.0	182.0	2124.0	1080.0	1036.0	314.0	622.0	1853.0	299.0	558.0	974.0	1362.0	868.0	2254.0	930.0	752.0	463.0	790.0	1140.0	4458.0	351.0	90311.2
6138/	708.0	991.0	887.0	923.0	324.0	1488.0	679.0	835.0	251.0	107.0	1172.0	1165.0	115.0	606.0	2056.0	3992.0	214.0	311.0	1127.0	992.0	1267.0	2046.0	682.0	1455.0	1289.0	1803.0	1694.0	1064.0	1550.0	1501.0	696.0	26.0	336.0	1272.0	327.0	512.0	1214.0	1755.0	176.0	170.0	753.0	1084.0	911.0	1187.0	1709.0	566.0	300.0	784.0	948.0	379.0	261.0	1786.0	620.0	1437.0	21.0	1959.0	620.0	630.0	632.0	515.0	1238.0	241.0	318.0	823.0	1104.0	362.0	1574.0	940.0	570.0	459.0	539.0	648.0	3029.0	199.0	68922.9
6149/	986.0	1137.0	942.0	1044.0	544.0	1658.0	914.0	855.0	303.0	361.0	1582.0	1009.0	216.0	678.0	2902.0	5456.0	270.0	520.0	1887.0	1154.0	1330.0	1767.0	1182.0	2025.0	1924.0	2530.0	2410.0	1450.0	2106.0	1908.0	771.0	144.0	465.0	1501.0	533.0	761.0	2548.0	1944.0	167.0	177.0	937.0	1272.0	1455.0	1718.0	2282.0	713.0	389.0	951.0	1257.0	1105.0	396.0	1622.0	1310.0	1958.0	93.0	2401.0	844.0	1032.0	594.0	596.0	1602.0	337.0	645.0	1243.0	1786.0	808.0	2062.0	1136.0	786.0	437.0	615.0	1144.0	4363.0	276.0	92228.5
6162/	569.0	860.0	759.0	817.0	377.0	1194.0	628.0	711.0	279.0	159.0	1199.0	874.0	99.0	618.0	2375.0	3893.0	264.0	361.0	1329.0	755.0	1139.0	1583.0	552.0	1215.0	1356.0	1459.0	1355.0	1308.0	1210.0	1237.0	569.0	222.0	241.0	1116.0	210.0	406.0	1202.0	1661.0	139.0	52.0	679.0	1317.0	952.0	1418.0	1903.0	557.0	264.0	914.0	958.0	252.0	356.0	1345.0	669.0	1419.0	221.0	1776.0	788.0	732.0	469.0	534.0	1368.0	182.0	502.0	644.0	1261.0	626.0	1741.0	839.0	731.0	411.0	580.0	469.0	3234.0	193.0	66655.0
6163/	912.0	1027.0	952.0	1086.0	629.0	1687.0	834.0	849.0	324.0	133.0	1272.0	901.0	260.0	621.0	3126.0	4910.0	242.0	381.0	1861.0	1070.0	1469.0	2164.0	774.0	1433.0	1772.0	1986.0	2092.0	1801.0	1800.0	1555.0	824.0	220.0	220.0	1397.0	431.0	551.0	1932.0	1954.0	228.0	205.0	841.0	1238.0	1025.0	1398.0	2149.0	968.0	319.0	904.0	1136.0	663.0	309.0	1560.0	1449.0	2302.0	186.0	2254.0	718.0	1036.0	546.0	814.0	1575.0	269.0	580.0	678.0	1487.0	826.0	2020.0	1088.0	949.0	340.0	798.0	1071.0	4188.0	286.0	85855.8
6165/	914.0	1281.0	1144.0	1231.0	631.0	2049.0	927.0	988.0	408.0	167.0	1408.0	1351.0	275.0	1045.0	4109.0	5563.0	318.0	676.0	1859.0	1128.0	1571.0	2435.0	815.0	2116.0	2377.0	2104.0	2050.0	1773.0	2003.0	2189.0	711.0	633.0	320.0	1555.0	620.0	881.0	2247.0	2378.0	250.0	217.0	1000.0	1337.0	1020.0	1698.0	2505.0	899.0	496.0	936.0	1473.0	619.0	388.0	1904.0	1186.0	2298.0	501.0	2147.0	1094.0	843.0	871.0	900.0	2003.0	373.0	509.0	889.0	1602.0	1301.0	1766.0	1013.0	1515.0	398.0	629.0	1353.0	4618.0	222.0	99019.1
6167/	772.0	1065.0	947.0	882.0	373.0	1516.0	762.0	795.0	339.0	143.0	1238.0	1109.0	154.0	740.0	3113.0	4507.0	281.0	331.0	1527.0	1002.0	1102.0	2220.0	685.0	1387.0	1369.0	2160.0	1932.0	1228.0	1617.0	1763.0	717.0	150.0	317.0	1233.0	388.0	565.0	1560.0	2208.0	185.0	98.0	811.0	1388.0	1041.0	1330.0	1983.0	770.0	266.0	897.0	1090.0	844.0	274.0	1475.0	1105.0	1869.0	320.0	1862.0	861.0	789.0	695.0	499.0	1292.0	259.0	444.0	723.0	1353.0	581.0	1376.0	967.0	571.0	413.0	749.0	940.0	3697.0	244.0	78257.3
6199/	772.0	864.0	1202.0	981.0	742.0	1575.0	852.0	941.0	338.0	227.0	1495.0	971.0	258.0	771.0	3134.0	4564.0	246.0	481.0	1518.0	1197.0	1303.0	1933.0	832.0	1466.0	1196.0	2040.0	2378.0	1557.0	1987.0	1665.0	648.0	194.0	547.0	1394.0	447.0	867.0	1522.0	1511.0	251.0	204.0	1209.0	1444.0	961.0	1850.0	2317.0	718.0	342.0	924.0	1222.0	728.0	99.0	1428.0	1206.0	2091.0	399.0	2325.0	735.0	779.0	487.0	614.0	1232.0	196.0	466.0	569.0	958.0	699.0	1751.0	915.0	885.0	340.0	787.0	563.0	3583.0	252.0	82142.6
6226/	899.0	1097.0	894.0	1110.0	369.0	1336.0	891.0	973.0	468.0	190.0	1135.0	1029.0	185.0	576.0	2877.0	5085.0	342.0	460.0	1194.0	919.0	1077.0	1982.0	665.0	1654.0	1641.0	2230.0	2297.0	1453.0	1585.0	1879.0	655.0	298.0	332.0	1494.0	228.0	516.0	1731.0	1941.0	214.0	245.0	701.0	1560.0	1011.0	1257.0	1894.0	615.0	401.0	1035.0	1160.0	533.0	192.0	1528.0	1055.0	1987.0	248.0	2138.0	693.0	800.0	362.0	837.0	1433.0	184.0	568.0	1039.0	1198.0	667.0	2061.0	852.0	1007.0	406.0	993.0	557.0	3839.0	232.0	81194.3
6227/	838.0	1182.0	837.0	1111.0	565.0	1875.0	1152.0	1044.0	585.0	207.0	1315.0	1069.0	272.0	914.0	3426.0	5534.0	319.0	480.0	1352.0	1009.0	1588.0	2288.0	738.0	1641.0	1752.0	2245.0	2678.0	1709.0	1770.0	2406.0	733.0	314.0	278.0	1470.0	425.0	701.0	1991.0	1940.0	313.0	245.0	848.0	1419.0	1135.0	1718.0	1858.0	746.0	447.0	1023.0	1333.0	495.0	308.0	1687.0	1052.0	2103.0	349.0	2346.0	602.0	919.0	599.0	836.0	1726.0	168.0	508.0	749.0	1070.0	960.0	2415.0	1036.0	928.0	424.0	1253.0	887.0	4001.0	372.0	90632.2
6228/	873.0	1011.0	817.0	1026.0	589.0	1817.0	1152.0	940.0	542.0	235.0	1476.0	865.0	198.0	935.0	3978.0	4856.0	259.0	440.0	1556.0	1189.0	1193.0	2488.0	902.0	1617.0	1845.0	2633.0	2140.0	1490.0	1863.0	2438.0	786.0	429.0	248.0	1487.0	423.0	729.0	1679.0	2067.0	321.0	157.0	750.0	1539.0	1283.0	2402.0	2508.0	881.0	367.0	1023.0	1298.0	826.0	391.0	1866.0	990.0	1886.0	240.0	2269.0	873.0	944.0	671.0	629.0	1768.0	291.0	464.0	941.0	1321.0	821.0	2234.0	1152.0	770.0	464.0	1011.0	1049.0	3989.0	281.0	91879.8
6229/	888.0	1059.0	1161.0	1224.0	542.0	1913.0	1322.0	1114.0	665.0	265.0	1461.0	1370.0	298.0	715.0	4651.0	5872.0	387.0	468.0	1482.0	1220.0	1772.0	2462.0	795.0	1910.0	2285.0	2901.0	2861.0	1691.0	1942.0	2256.0	899.0	435.0	424.0	1655.0	430.0	799.0	1554.0	2001.0	231.0	135.0	779.0	1610.0	1067.0	2601.0	2223.0	1080.0	420.0	1090.0	1481.0	697.0	300.0	2340.0	1207.0	2468.0	561.0	2487.0	720.0	1052.0	298.0	681.0	1788.0	254.0	750.0	975.0	1242.0	670.0	2569.0	998.0	1229.0	504.0	1185.0	852.0	4349.0	258.0	100298.0
6291/	585.0	818.0	843.0	795.0	271.0	919.0	617.0	713.0	284.0	154.0	975.0	793.0	165.0	716.0	1649.0	4462.0	251.0	349.0	965.0	885.0	804.0	1592.0	698.0	1295.0	1230.0	1617.0	1423.0	1270.0	1216.0	1644.0	659.0	136.0	307.0	1122.0	351.0	485.0	1275.0	1443.0	164.0	144.0	661.0	1137.0	900.0	1230.0	1763.0	646.0	301.0	766.0	1166.0	426.0	174.0	980.0	670.0	1538.0	162.0	1625.0	602.0	578.0	415.0	608.0	1108.0	148.0	275.0	726.0	1004.0	614.0	1665.0	1010.0	577.0	323.0	365.0	557.0	2794.0	215.0	63812.8
6347/	739.0	1444.0	997.0	1077.0	454.0	1757.0	908.0	778.0	340.0	222.0	1538.0	1075.0	268.0	1072.0	2215.0	5065.0	371.0	497.0	1488.0	1219.0	1388.0	2122.0	800.0	1688.0	1447.0	2048.0	1894.0	1430.0	1867.0	1797.0	706.0	178.0	512.0	1673.0	448.0	727.0	1239.0	1655.0	270.0	228.0	1010.0	1178.0	1072.0	1994.0	2592.0	793.0	468.0	1014.0	1257.0	766.0	252.0	1883.0	795.0	1961.0	177.0	1901.0	878.0	906.0	620.0	540.0	1171.0	313.0	592.0	862.0	1354.0	577.0	1777.0	755.0	1317.0	307.0	781.0	832.0	3581.0	308.0	84225.8
6348/	605.0	1228.0	833.0	906.0	350.0	1700.0	942.0	801.0	354.0	222.0	1461.0	846.0	239.0	710.0	2582.0	4417.0	229.0	442.0	1433.0	951.0	1520.0	1892.0	715.0	1399.0	1576.0	1773.0	2078.0	1331.0	1708.0	1665.0	627.0	151.0	389.0	1300.0	316.0	488.0	1636.0	1641.0	206.0	233.0	718.0	1433.0	1111.0	1469.0	2268.0	682.0	366.0	966.0	1131.0	375.0	257.0	1411.0	972.0	1542.0	138.0	1898.0	969.0	761.0	504.0	594.0	1462.0	225.0	370.0	893.0	1658.0	611.0	1791.0	819.0	1104.0	353.0	817.0	719.0	3640.0	234.0	78154.4
6503/	941.0	1244.0	1127.0	1244.0	440.0	1638.0	888.0	1014.0	337.0	251.0	1535.0	1174.0	204.0	800.0	3151.0	5255.0	379.0	604.0	1877.0	1205.0	1672.0	2159.0	1011.0	1941.0	1675.0	2375.0	2566.0	1634.0	1811.0	1990.0	734.0	186.0	477.0	1515.0	532.0	677.0	1604.0	2440.0	227.0	296.0	1125.0	1880.0	1461.0	2115.0	2447.0	788.0	457.0	1047.0	1408.0	715.0	250.0	1965.0	1202.0	1945.0	135.0	2515.0	1138.0	947.0	592.0	653.0	2041.0	317.0	720.0	1049.0	1697.0	613.0	2422.0	1356.0	652.0	572.0	688.0	1042.0	4702.0	367.0	95854.6
6512/	762.0	942.0	914.0	913.0	446.0	1325.0	1145.0	729.0	459.0	115.0	1577.0	835.0	259.0	594.0	2314.0	4629.0	276.0	410.0	1683.0	1032.0	1242.0	1641.0	765.0	1673.0	1475.0	1823.0	2035.0	1340.0	1738.0	1573.0	550.0	194.0	314.0	1369.0	227.0	887.0	1571.0	1812.0	163.0	285.0	1046.0	1322.0	1123.0	1607.0	1980.0	637.0	336.0	951.0	1159.0	606.0	220.0	1664.0	1128.0	1776.0	106.0	2231.0	714.0	533.0	435.0	579.0	1661.0	285.0	214.0	718.0	724.0	644.0	1441.0	958.0	893.0	420.0	814.0	789.0	3644.0	303.0	77694.5
6613/	1088.0	1269.0	1161.0	1097.0	593.0	1872.0	1074.0	990.0	352.0	237.0	1552.0	1203.0	241.0	724.0	4118.0	5617.0	300.0	481.0	1444.0	1141.0	1492.0	2471.0	982.0	1740.0	1911.0	2165.0	2331.0	1645.0	1921.0	2157.0	743.0	217.0	410.0	1440.0	377.0	837.0	1920.0	2171.0	210.0	229.0	984.0	1473.0	1236.0	1563.0	2786.0	1038.0	355.0	1144.0	1186.0	470.0	353.0	2549.0	1096.0	1985.0	216.0	2431.0	818.0	1102.0	640.0	759.0	2090.0	244.0	532.0	1082.0	1299.0	730.0	1958.0	1138.0	854.0	542.0	973.0	804.0	4588.0	158.0	95102.0
6636/	121.0	396.0	657.0	478.0	72.0	36.0	0.0	135.0	175.0	105.0	364.0	438.0	34.0	313.0	1344.0	890.0	125.0	153.0	428.0	367.0	388.0	658.0	1094.0	379.0	611.0	1072.0	984.0	864.0	842.0	740.0	4.0	0.0	172.0	478.0	224.0	218.0	483.0	521.0	63.0	0.0	484.0	331.0	446.0	643.0	1127.0	367.0	104.0	353.0	458.0	171.0	85.0	676.0	211.0	569.0	72.0	740.0	149.0	365.0	88.0	175.0	405.0	13.0	14.0	46.0	380.0	573.0	737.0	298.0	410.0	19.0	302.0	38.0	1105.0	34.0	28413.1
6685/	123.0	167.0	237.0	332.0	171.0	45.0	52.0	2.0	29.0	0.0	216.0	207.0	16.0	151.0	601.0	862.0	93.0	172.0	326.0	259.0	212.0	238.0	495.0	675.0	422.0	564.0	497.0	390.0	558.0	499.0	167.0	142.0	122.0	390.0	229.0	152.0	357.0	329.0	85.0	0.0	198.0	381.0	242.0	183.0	584.0	94.0	67.0	223.0	249.0	75.0	33.0	370.0	237.0	425.0	23.0	503.0	72.0	182.0	107.0	44.0	298.0	0.0	141.0	78.0	270.0	0.0	482.0	257.0	202.0	12.0	129.0	92.0	753.0	28.0	17619.7
6712/	563.0	1225.0	777.0	844.0	670.0	1297.0	717.0	683.0	253.0	148.0	1024.0	793.0	196.0	477.0	2340.0	3967.0	238.0	220.0	987.0	861.0	1228.0	1827.0	801.0	1197.0	1445.0	1648.0	1559.0	1274.0	1154.0	1593.0	655.0	52.0	245.0	1016.0	286.0	509.0	1297.0	1684.0	152.0	23.0	749.0	1227.0	1071.0	1837.0	1514.0	734.0	174.0	686.0	969.0	657.0	161.0	1075.0	890.0	1488.0	158.0	1236.0	634.0	681.0	700.0	365.0	1328.0	77.0	212.0	596.0	838.0	511.0	2336.0	595.0	641.0	328.0	668.0	829.0	2864.0	185.0	66936.1
6730/	707.0	834.0	1037.0	1003.0	470.0	1728.0	781.0	832.0	285.0	84.0	1340.0	869.0	219.0	977.0	3224.0	4848.0	171.0	486.0	1144.0	916.0	1013.0	1648.0	869.0	1530.0	1863.0	1642.0	1914.0	1478.0	1665.0	1876.0	621.0	77.0	332.0	1380.0	437.0	806.0	1971.0	1968.0	217.0	250.0	765.0	1244.0	1284.0	1218.0	2003.0	692.0	260.0	918.0	1173.0	620.0	375.0	1667.0	709.0	1936.0	258.0	1851.0	621.0	731.0	354.0	628.0	1684.0	360.0	477.0	696.0	1493.0	590.0	1833.0	915.0	872.0	347.0	596.0	839.0	3878.0	224.0	79621.2
6731/	782.0	1005.0	998.0	1264.0	559.0	1314.0	1040.0	907.0	361.0	233.0	1364.0	933.0	241.0	695.0	3376.0	5140.0	346.0	472.0	1295.0	990.0	1496.0	2049.0	745.0	1860.0	1473.0	2088.0	2542.0	1592.0	1795.0	1991.0	800.0	169.0	486.0	1463.0	377.0	783.0	1468.0	2329.0	167.0	186.0	965.0	1575.0	1437.0	1617.0	2025.0	832.0	360.0	900.0	1265.0	634.0	281.0	1519.0	1061.0	2277.0	164.0	2452.0	483.0	725.0	374.0	766.0	2021.0	296.0	638.0	855.0	1300.0	531.0	2173.0	1145.0	1078.0	330.0	932.0	1029.0	3396.0	351.0	86959.2
6732/	596.0	1073.0	763.0	926.0	503.0	1488.0	1115.0	994.0	366.0	204.0	1204.0	933.0	210.0	751.0	2908.0	5096.0	324.0	423.0	1051.0	969.0	994.0	2141.0	626.0	1430.0	1337.0	2146.0	1967.0	1398.0	1689.0	1812.0	594.0	268.0	475.0	1197.0	295.0	514.0	1935.0	1721.0	199.0	122.0	849.0	1551.0	1305.0	1457.0	2133.0	776.0	348.0	969.0	1105.0	733.0	203.0	1290.0	976.0	1956.0	332.0	2103.0	705.0	819.0	457.0	806.0	1313.0	236.0	436.0	644.0	1066.0	680.0	2011.0	972.0	784.0	295.0	843.0	1162.0	3331.0	277.0	79679.5
6738/	1110.0	1288.0	1032.0	1204.0	604.0	1961.0	1216.0	1247.0	538.0	272.0	2005.0	1220.0	329.0	671.0	4479.0	5809.0	343.0	503.0	1567.0	1206.0	1873.0	2736.0	962.0	2087.0	1683.0	3152.0	2309.0	1787.0	2799.0	2098.0	883.0	285.0	486.0	1561.0	591.0	822.0	2345.0	2239.0	284.0	238.0	987.0	1704.0	1425.0	1925.0	2642.0	740.0	416.0	1025.0	1364.0	635.0	510.0	1943.0	1311.0	2528.0	347.0	2834.0	1159.0	987.0	657.0	974.0	2333.0	356.0	817.0	1270.0	1327.0	688.0	2163.0	1498.0	1115.0	573.0	841.0	1091.0	4115.0	302.0	104430.0
6741/	944.0	963.0	972.0	1128.0	491.0	1639.0	898.0	1029.0	374.0	293.0	1481.0	1036.0	265.0	850.0	3190.0	5708.0	284.0	476.0	1499.0	951.0	1002.0	2157.0	730.0	1942.0	1744.0	2043.0	2032.0	1494.0	1818.0	1989.0	707.0	86.0	451.0	1285.0	384.0	694.0	2028.0	1763.0	220.0	269.0	830.0	1467.0	1181.0	2264.0	2127.0	853.0	429.0	988.0	1339.0	974.0	293.0	1644.0	883.0	2037.0	118.0	2208.0	889.0	647.0	944.0	439.0	1348.0	403.0	549.0	1021.0	1354.0	831.0	1993.0	985.0	1056.0	462.0	556.0	1010.0	3430.0	194.0	87048.9
6752/	185.0	321.0	222.0	230.0	151.0	195.0	0.0	0.0	0.0	0.0	258.0	298.0	88.0	251.0	833.0	836.0	21.0	61.0	530.0	355.0	215.0	6.0	15.0	461.0	757.0	565.0	778.0	379.0	612.0	364.0	260.0	6.0	8.0	217.0	194.0	28.0	539.0	690.0	33.0	12.0	184.0	343.0	334.0	73.0	682.0	106.0	62.0	338.0	181.0	138.0	14.0	525.0	236.0	422.0	65.0	751.0	193.0	227.0	77.0	8.0	34.0	43.0	30.0	160.0	214.0	17.0	610.0	275.0	336.0	64.0	73.0	0.0	989.0	16.0	18789.1
6802/	785.0	1061.0	1030.0	1052.0	655.0	1750.0	1125.0	925.0	323.0	415.0	1470.0	986.0	279.0	1055.0	3282.0	5078.0	228.0	430.0	1543.0	1357.0	1216.0	2506.0	702.0	1631.0	1662.0	1946.0	2298.0	1598.0	2114.0	1618.0	771.0	121.0	351.0	1364.0	303.0	650.0	1592.0	1801.0	189.0	305.0	913.0	1526.0	1154.0	2226.0	2151.0	774.0	404.0	1062.0	1357.0	779.0	376.0	1583.0	1052.0	1961.0	176.0	2090.0	872.0	1003.0	510.0	582.0	1558.0	362.0	490.0	683.0	1690.0	798.0	2062.0	1261.0	899.0	594.0	802.0	987.0	3560.0	217.0	88077.2
6863/	976.0	1096.0	1154.0	1046.0	597.0	1403.0	885.0	1076.0	301.0	214.0	2048.0	910.0	283.0	821.0	3447.0	5169.0	338.0	434.0	1736.0	1234.0	1348.0	1769.0	685.0	1658.0	1818.0	1931.0	2249.0	1734.0	1866.0	1768.0	623.0	166.0	329.0	1231.0	301.0	384.0	2071.0	2283.0	194.0	200.0	708.0	1542.0	1142.0	1623.0	2070.0	809.0	250.0	965.0	1256.0	735.0	252.0	1565.0	1695.0	1956.0	107.0	2182.0	1065.0	822.0	789.0	766.0	1492.0	248.0	386.0	808.0	1584.0	538.0	2435.0	1044.0	857.0	335.0	599.0	1297.0	4314.0	223.0	88229.9
6888/	865.0	1234.0	1059.0	1284.0	607.0	1790.0	1247.0	1042.0	576.0	347.0	1579.0	1078.0	206.0	696.0	3074.0	5068.0	329.0	494.0	1394.0	1212.0	1335.0	2405.0	850.0	2092.0	1600.0	2428.0	2384.0	1418.0	2030.0	1975.0	877.0	194.0	479.0	1282.0	342.0	736.0	1904.0	1964.0	205.0	217.0	946.0	1524.0	1114.0	2166.0	2359.0	775.0	360.0	952.0	1220.0	530.0	278.0	1475.0	1134.0	1662.0	287.0	2509.0	788.0	1040.0	687.0	698.0	1639.0	319.0	666.0	954.0	1229.0	944.0	1913.0	1219.0	865.0	493.0	1102.0	946.0	3897.0	280.0	90871.4
6908/	850.0	1167.0	950.0	1078.0	492.0	1667.0	1084.0	976.0	376.0	252.0	1558.0	883.0	255.0	827.0	3922.0	5035.0	382.0	553.0	1743.0	896.0	1361.0	1987.0	785.0	1550.0	1442.0	1901.0	2275.0	1417.0	1766.0	1587.0	727.0	169.0	334.0	1522.0	272.0	621.0	1408.0	1561.0	273.0	213.0	866.0	1710.0	1204.0	1407.0	2111.0	744.0	347.0	898.0	1192.0	727.0	296.0	1696.0	1023.0	2160.0	117.0	1831.0	837.0	631.0	339.0	537.0	1452.0	228.0	399.0	769.0	1441.0	749.0	1982.0	1132.0	919.0	452.0	741.0	910.0	3928.0	321.0	84213.8
6909/	621.0	1062.0	962.0	1149.0	433.0	1537.0	977.0	930.0	326.0	107.0	1265.0	1099.0	298.0	817.0	3453.0	4213.0	291.0	475.0	1176.0	1038.0	1294.0	2000.0	854.0	1881.0	1299.0	1717.0	1823.0	1393.0	1425.0	1784.0	668.0	299.0	540.0	1445.0	280.0	592.0	1818.0	1944.0	265.0	190.0	962.0	1315.0	934.0	1573.0	1785.0	660.0	372.0	1078.0	1309.0	488.0	249.0	2017.0	905.0	1872.0	82.0	1961.0	583.0	798.0	762.0	868.0	1531.0	343.0	337.0	932.0	1316.0	711.0	1820.0	939.0	859.0	443.0	711.0	658.0	3618.0	295.0	80825.6
6955/	924.0	1235.0	956.0	972.0	483.0	1840.0	941.0	961.0	337.0	286.0	1579.0	1073.0	247.0	906.0	4029.0	4850.0	299.0	426.0	1896.0	1358.0	1124.0	2684.0	1095.0	1531.0	2063.0	1777.0	1980.0	1574.0	1680.0	1738.0	777.0	341.0	369.0	1416.0	427.0	580.0	1941.0	2050.0	197.0	216.0	892.0	1763.0	1234.0	2209.0	2158.0	659.0	337.0	1133.0	1195.0	965.0	439.0	1787.0	1248.0	2108.0	179.0	2153.0	1010.0	799.0	711.0	685.0	1563.0	331.0	548.0	955.0	1543.0	607.0	1703.0	1044.0	843.0	626.0	807.0	967.0	4357.0	248.0	90959.3
6957/	562.0	894.0	723.0	833.0	397.0	1349.0	813.0	801.0	315.0	127.0	1108.0	749.0	171.0	486.0	2760.0	4153.0	268.0	375.0	1171.0	920.0	1285.0	2079.0	845.0	1439.0	1709.0	1643.0	1400.0	1266.0	1536.0	1427.0	593.0	127.0	315.0	1211.0	317.0	563.0	1853.0	1546.0	168.0	144.0	726.0	1132.0	1056.0	1335.0	1937.0	620.0	283.0	951.0	907.0	781.0	303.0	1241.0	1036.0	1597.0	417.0	1615.0	332.0	1075.0	477.0	711.0	1365.0	251.0	416.0	832.0	1083.0	381.0	1696.0	1201.0	732.0	427.0	695.0	996.0	3653.0	166.0	72865.4
6958/	664.0	1327.0	912.0	944.0	492.0	1520.0	827.0	703.0	295.0	165.0	1252.0	1019.0	208.0	704.0	2914.0	5137.0	276.0	368.0	1641.0	1161.0	1000.0	1799.0	725.0	1632.0	1611.0	1851.0	1619.0	1808.0	1539.0	1511.0	595.0	227.0	320.0	1506.0	317.0	616.0	1769.0	1975.0	186.0	139.0	828.0	1425.0	1335.0	1635.0	2185.0	618.0	237.0	1022.0	1163.0	853.0	338.0	1867.0	902.0	2291.0	42.0	1725.0	1010.0	596.0	697.0	543.0	1391.0	231.0	493.0	745.0	1209.0	549.0	1998.0	1163.0	603.0	400.0	681.0	756.0	3426.0	276.0	80509.1
6964/	783.0	814.0	783.0	773.0	448.0	1141.0	616.0	739.0	257.0	163.0	1081.0	1086.0	131.0	685.0	2845.0	4714.0	297.0	471.0	1488.0	984.0	1061.0	1922.0	716.0	1714.0	1552.0	1815.0	1510.0	1353.0	1452.0	1572.0	590.0	414.0	316.0	1442.0	426.0	784.0	1990.0	1861.0	221.0	114.0	690.0	1165.0	1019.0	1165.0	1824.0	559.0	299.0	970.0	1220.0	439.0	180.0	1411.0	912.0	1978.0	191.0	1738.0	447.0	977.0	607.0	593.0	1555.0	154.0	541.0	973.0	1051.0	632.0	2076.0	892.0	534.0	292.0	667.0	832.0	4052.0	264.0	76025.2
6965/	839.0	1015.0	993.0	1313.0	585.0	1847.0	1204.0	1168.0	586.0	290.0	1175.0	1030.0	248.0	1111.0	3997.0	6077.0	410.0	643.0	1923.0	958.0	1547.0	2102.0	822.0	1968.0	2362.0	2701.0	2312.0	1769.0	1874.0	1918.0	725.0	55.0	468.0	1759.0	568.0	959.0	2365.0	2399.0	228.0	240.0	887.0	1533.0	1488.0	1381.0	2209.0	922.0	447.0	1101.0	1444.0	746.0	348.0	1815.0	965.0	2274.0	375.0	2018.0	962.0	800.0	488.0	710.0	1793.0	285.0	499.0	1015.0	1290.0	847.0	2257.0	1001.0	674.0	502.0	895.0	972.0	5240.0	316.0	97053.2
6983/	908.0	1051.0	800.0	1090.0	574.0	1559.0	835.0	1113.0	311.0	219.0	1418.0	1018.0	222.0	902.0	2879.0	4679.0	336.0	520.0	1458.0	1100.0	1261.0	2507.0	757.0	1715.0	1375.0	1846.0	2155.0	1825.0	1871.0	1838.0	634.0	150.0	318.0	1421.0	344.0	750.0	2047.0	1836.0	283.0	167.0	854.0	1435.0	1455.0	2452.0	2685.0	720.0	326.0	1169.0	1205.0	693.0	283.0	1572.0	1144.0	1903.0	353.0	2478.0	1040.0	531.0	577.0	761.0	1707.0	298.0	700.0	1061.0	1612.0	730.0	2409.0	1058.0	1063.0	451.0	587.0	819.0	4130.0	221.0	88572.8
6985/	759.0	914.0	872.0	922.0	536.0	1390.0	906.0	919.0	422.0	172.0	1025.0	980.0	172.0	650.0	2712.0	4595.0	263.0	434.0	1089.0	1060.0	925.0	1939.0	881.0	1520.0	1667.0	2031.0	1948.0	1286.0	1581.0	1792.0	652.0	354.0	390.0	1222.0	457.0	593.0	1719.0	1934.0	243.0	187.0	874.0	1203.0	1192.0	1729.0	1986.0	753.0	401.0	908.0	1266.0	515.0	232.0	1513.0	910.0	1881.0	199.0	2063.0	686.0	876.0	298.0	586.0	1440.0	339.0	482.0	871.0	896.0	672.0	1774.0	1022.0	1003.0	344.0	726.0	881.0	3835.0	287.0	78760.2
7041/	27.0	74.0	74.0	111.0	47.0	0.0	0.0	0.0	0.0	0.0	46.0	45.0	40.0	63.0	202.0	222.0	13.0	44.0	100.0	65.0	50.0	26.0	15.0	112.0	132.0	178.0	164.0	173.0	178.0	81.0	27.0	0.0	23.0	71.0	0.0	45.0	50.0	62.0	10.0	17.0	96.0	65.0	3.0	32.0	190.0	18.0	23.0	76.0	118.0	86.0	3.0	107.0	36.0	125.0	18.0	169.0	23.0	39.0	17.0	64.0	42.0	0.0	0.0	38.0	54.0	0.0	147.0	54.0	51.0	4.0	2.0	81.0	262.0	13.0	4642.02
7055/	48.0	354.0	373.0	0.0	77.0	554.0	496.0	502.0	67.0	0.0	164.0	0.0	0.0	0.0	43.0	1347.0	0.0	0.0	529.0	233.0	317.0	112.0	2.0	0.0	482.0	107.0	390.0	471.0	252.0	640.0	0.0	4.0	0.0	0.0	0.0	0.0	643.0	236.0	0.0	0.0	0.0	247.0	74.0	17.0	362.0	638.0	0.0	0.0	0.0	143.0	31.0	0.0	72.0	188.0	5.0	1119.0	208.0	411.0	127.0	115.0	49.0	0.0	0.0	0.0	120.0	235.0	539.0	0.0	121.0	37.0	293.0	108.0	433.0	0.0	14135.7
7105/	740.0	1005.0	810.0	803.0	428.0	1279.0	853.0	722.0	281.0	201.0	1441.0	860.0	189.0	707.0	2577.0	4326.0	267.0	436.0	1471.0	1056.0	1400.0	2081.0	626.0	1410.0	1285.0	1707.0	1565.0	1250.0	1733.0	1299.0	558.0	63.0	357.0	1149.0	231.0	441.0	1340.0	1582.0	230.0	137.0	732.0	1225.0	1091.0	1657.0	2080.0	583.0	300.0	1058.0	1200.0	538.0	270.0	1286.0	842.0	1697.0	111.0	1864.0	642.0	903.0	616.0	568.0	1451.0	307.0	296.0	641.0	1195.0	582.0	1744.0	941.0	877.0	313.0	399.0	678.0	3453.0	209.0	73241.7
7106/	827.0	1129.0	911.0	817.0	414.0	1401.0	775.0	888.0	314.0	142.0	1089.0	925.0	262.0	758.0	2606.0	4669.0	307.0	336.0	1093.0	962.0	975.0	1585.0	706.0	1628.0	1504.0	1829.0	1921.0	1264.0	1960.0	1482.0	702.0	282.0	339.0	1370.0	295.0	845.0	1468.0	1906.0	292.0	264.0	792.0	1244.0	1051.0	1381.0	1983.0	678.0	309.0	961.0	1300.0	377.0	196.0	1267.0	990.0	1687.0	373.0	2061.0	516.0	742.0	484.0	348.0	1449.0	226.0	435.0	760.0	1055.0	691.0	1468.0	799.0	856.0	359.0	552.0	950.0	3318.0	226.0	75125.0
7108/	811.0	978.0	1162.0	1033.0	604.0	1371.0	824.0	785.0	261.0	158.0	1747.0	836.0	207.0	556.0	2775.0	4679.0	208.0	414.0	1286.0	1068.0	1448.0	2660.0	713.0	1441.0	1460.0	1791.0	2015.0	1601.0	1987.0	1501.0	656.0	128.0	370.0	1426.0	545.0	545.0	1445.0	1762.0	191.0	200.0	757.0	1474.0	1231.0	1716.0	2278.0	812.0	306.0	834.0	1164.0	462.0	266.0	1328.0	959.0	1608.0	124.0	2023.0	845.0	752.0	662.0	646.0	1392.0	274.0	294.0	713.0	1171.0	451.0	1941.0	1095.0	960.0	462.0	554.0	632.0	3569.0	233.0	79637.9
7118/	109.0	103.0	0.0	343.0	0.0	0.0	0.0	0.0	0.0	0.0	0.0	174.0	84.0	216.0	575.0	102.0	194.0	283.0	473.0	3.0	0.0	0.0	219.0	328.0	467.0	502.0	0.0	189.0	488.0	0.0	34.0	42.0	160.0	443.0	167.0	362.0	326.0	505.0	98.0	89.0	286.0	257.0	221.0	0.0	349.0	0.0	213.0	414.0	643.0	24.0	0.0	801.0	31.0	105.0	51.0	0.0	107.0	82.0	78.0	10.0	0.0	75.0	140.0	148.0	0.0	0.0	101.0	445.0	257.0	0.0	0.0	221.0	2058.0	100.0	14296.4
7148/	47.0	0.0	92.0	105.0	34.0	129.0	48.0	34.0	0.0	0.0	0.0	52.0	19.0	52.0	103.0	359.0	9.0	43.0	30.0	0.0	0.0	0.0	118.0	165.0	196.0	230.0	173.0	348.0	180.0	0.0	88.0	32.0	43.0	155.0	12.0	75.0	8.0	55.0	11.0	0.0	133.0	0.0	141.0	0.0	276.0	17.0	34.0	110.0	124.0	57.0	0.0	139.0	59.0	126.0	0.0	180.0	0.0	1.0	2.0	0.0	0.0	4.0	22.0	42.0	0.0	2.0	144.0	88.0	65.0	2.0	0.0	0.0	274.0	8.0	5091.11
7151/	842.0	1066.0	806.0	1048.0	506.0	1773.0	812.0	752.0	369.0	245.0	1477.0	1186.0	286.0	913.0	3157.0	5535.0	255.0	487.0	1633.0	1415.0	1170.0	2208.0	768.0	1915.0	1836.0	2065.0	2158.0	1320.0	1952.0	2110.0	762.0	166.0	322.0	1495.0	434.0	589.0	1430.0	2485.0	224.0	258.0	701.0	1522.0	1451.0	2087.0	2294.0	759.0	403.0	1023.0	1259.0	506.0	349.0	1680.0	1356.0	1775.0	410.0	2396.0	1066.0	907.0	563.0	720.0	1401.0	298.0	650.0	1136.0	1164.0	712.0	2064.0	1274.0	785.0	462.0	715.0	1076.0	4424.0	224.0	89845.6
7152/	762.0	959.0	980.0	1068.0	482.0	1380.0	674.0	775.0	336.0	128.0	1248.0	925.0	205.0	439.0	2346.0	4522.0	274.0	370.0	1052.0	851.0	1085.0	2003.0	589.0	1479.0	1287.0	1567.0	1938.0	1223.0	1368.0	1308.0	675.0	301.0	313.0	1308.0	316.0	586.0	1506.0	1436.0	194.0	127.0	764.0	1378.0	1159.0	1550.0	2094.0	763.0	380.0	910.0	1144.0	647.0	270.0	1055.0	1056.0	1466.0	265.0	2015.0	749.0	733.0	458.0	584.0	1272.0	182.0	480.0	802.0	1139.0	515.0	1852.0	831.0	633.0	397.0	560.0	738.0	3383.0	232.0	72842.9
7163/	844.0	1351.0	1146.0	1113.0	655.0	1785.0	1049.0	1017.0	398.0	273.0	1900.0	1188.0	189.0	843.0	3385.0	4520.0	390.0	468.0	1634.0	1579.0	1186.0	2381.0	924.0	1666.0	2190.0	1569.0	1730.0	1652.0	1894.0	1682.0	615.0	188.0	349.0	1671.0	359.0	541.0	1930.0	2257.0	310.0	197.0	756.0	1496.0	1415.0	1710.0	2437.0	718.0	353.0	1067.0	1141.0	472.0	330.0	2588.0	1234.0	1712.0	238.0	1810.0	763.0	1287.0	476.0	785.0	1780.0	335.0	625.0	889.0	1461.0	810.0	1919.0	1302.0	932.0	555.0	780.0	1012.0	4666.0	297.0	91167.6
7168/	751.0	1345.0	1249.0	1187.0	520.0	1832.0	1227.0	913.0	514.0	251.0	1163.0	1287.0	222.0	768.0	4134.0	6782.0	332.0	432.0	1795.0	1218.0	1318.0	1754.0	966.0	2196.0	1919.0	2648.0	1933.0	1562.0	2000.0	1888.0	733.0	261.0	295.0	1848.0	665.0	1094.0	2215.0	2575.0	240.0	264.0	1048.0	1775.0	1576.0	1552.0	2098.0	914.0	319.0	922.0	1412.0	845.0	284.0	1850.0	1203.0	2437.0	181.0	2251.0	926.0	817.0	600.0	804.0	1553.0	284.0	627.0	1004.0	1056.0	843.0	2049.0	1245.0	1168.0	421.0	813.0	838.0	5225.0	245.0	97481.3
7170/	960.0	1296.0	1212.0	1071.0	517.0	1751.0	1183.0	1104.0	482.0	256.0	1313.0	1198.0	253.0	988.0	3755.0	6024.0	277.0	384.0	1628.0	1251.0	1300.0	2096.0	751.0	1847.0	1843.0	2251.0	1980.0	1471.0	2040.0	1929.0	641.0	258.0	413.0	1511.0	551.0	744.0	2417.0	2310.0	273.0	154.0	1090.0	1527.0	1189.0	1677.0	2201.0	967.0	451.0	995.0	1281.0	705.0	272.0	1609.0	1357.0	2646.0	146.0	2159.0	948.0	956.0	519.0	1003.0	1645.0	314.0	452.0	1132.0	1411.0	741.0	1828.0	1303.0	1065.0	499.0	941.0	1096.0	4592.0	308.0	94709.4
7206/	672.0	853.0	877.0	1033.0	505.0	1494.0	840.0	892.0	353.0	185.0	1095.0	825.0	198.0	656.0	2684.0	4113.0	250.0	376.0	1184.0	852.0	1437.0	2060.0	921.0	1528.0	1487.0	2081.0	1829.0	1131.0	1632.0	1494.0	585.0	180.0	332.0	1348.0	464.0	659.0	1776.0	1614.0	221.0	130.0	749.0	971.0	1108.0	1742.0	1785.0	754.0	289.0	835.0	1060.0	770.0	187.0	1280.0	988.0	1805.0	242.0	2198.0	490.0	852.0	512.0	711.0	1319.0	269.0	564.0	821.0	1098.0	760.0	2034.0	1158.0	688.0	409.0	679.0	833.0	3603.0	309.0	76717.2
7207/	831.0	1029.0	851.0	875.0	441.0	1516.0	850.0	817.0	342.0	123.0	1228.0	1057.0	191.0	653.0	2878.0	4808.0	219.0	416.0	1252.0	948.0	1212.0	1993.0	766.0	1794.0	1774.0	2335.0	2263.0	1017.0	1537.0	2106.0	701.0	235.0	369.0	1457.0	369.0	794.0	1314.0	1785.0	132.0	166.0	878.0	1240.0	1028.0	1512.0	1655.0	796.0	404.0	972.0	1122.0	681.0	264.0	1220.0	1021.0	1803.0	444.0	2241.0	691.0	882.0	612.0	654.0	1772.0	258.0	473.0	919.0	1232.0	505.0	1415.0	939.0	691.0	318.0	712.0	774.0	3639.0	297.0	79509.2
7229/	696.0	1183.0	1118.0	974.0	432.0	1657.0	1039.0	854.0	430.0	139.0	1041.0	1038.0	230.0	716.0	2503.0	5280.0	247.0	366.0	1504.0	927.0	1290.0	1697.0	839.0	1644.0	2018.0	2051.0	1988.0	1598.0	1775.0	1676.0	674.0	175.0	346.0	1580.0	394.0	709.0	1559.0	1905.0	235.0	177.0	778.0	1343.0	1007.0	1575.0	1928.0	660.0	362.0	950.0	1274.0	831.0	243.0	1421.0	1096.0	1914.0	202.0	1726.0	635.0	783.0	548.0	656.0	1260.0	178.0	465.0	878.0	1335.0	672.0	2219.0	907.0	908.0	458.0	720.0	738.0	4147.0	255.0	81777.1
7230/	743.0	921.0	1302.0	1092.0	461.0	2096.0	996.0	849.0	298.0	306.0	1512.0	1364.0	283.0	747.0	3369.0	5521.0	373.0	395.0	1712.0	1190.0	1221.0	2397.0	830.0	1696.0	2086.0	2185.0	2330.0	1721.0	2026.0	1993.0	674.0	98.0	528.0	1687.0	274.0	488.0	2268.0	1975.0	279.0	185.0	726.0	1337.0	949.0	2511.0	2295.0	697.0	460.0	1089.0	1301.0	901.0	194.0	1318.0	1023.0	2347.0	361.0	2644.0	1073.0	1133.0	271.0	742.0	1381.0	268.0	479.0	800.0	1367.0	664.0	1980.0	1067.0	935.0	542.0	767.0	884.0	4395.0	269.0	91638.6
7286/	809.0	1152.0	996.0	1103.0	368.0	1807.0	804.0	911.0	360.0	251.0	1462.0	895.0	244.0	839.0	3190.0	4759.0	259.0	392.0	1107.0	1081.0	1285.0	2250.0	933.0	1745.0	1469.0	2355.0	2674.0	1450.0	1787.0	1872.0	751.0	191.0	305.0	1663.0	405.0	957.0	1854.0	1746.0	264.0	182.0	899.0	1405.0	1326.0	1750.0	2081.0	856.0	336.0	996.0	1247.0	864.0	390.0	1472.0	1064.0	2237.0	102.0	2569.0	630.0	942.0	270.0	610.0	1232.0	256.0	564.0	998.0	1537.0	700.0	2282.0	964.0	1124.0	471.0	529.0	820.0	3346.0	387.0	86182.8
7287/	974.0	1020.0	1022.0	1358.0	488.0	2114.0	1183.0	1115.0	396.0	371.0	1598.0	1112.0	198.0	742.0	3235.0	5570.0	343.0	614.0	1361.0	1201.0	1290.0	2099.0	1112.0	1947.0	1637.0	2850.0	2428.0	1661.0	1904.0	1979.0	712.0	137.0	572.0	1724.0	407.0	944.0	2192.0	1762.0	285.0	293.0	1179.0	1728.0	1410.0	1870.0	2224.0	698.0	470.0	1249.0	1566.0	1017.0	364.0	1636.0	1221.0	2470.0	206.0	2254.0	838.0	1073.0	683.0	848.0	1476.0	298.0	518.0	976.0	1567.0	956.0	2194.0	1168.0	993.0	349.0	878.0	1040.0	3613.0	359.0	95339.0
7289/	719.0	1095.0	936.0	1146.0	474.0	1921.0	1045.0	1141.0	330.0	217.0	1333.0	971.0	236.0	825.0	3317.0	4642.0	344.0	473.0	1260.0	1239.0	1433.0	2353.0	872.0	1801.0	1633.0	2047.0	2215.0	1710.0	1814.0	2055.0	705.0	214.0	363.0	1468.0	484.0	775.0	1535.0	1744.0	217.0	278.0	908.0	1532.0	1305.0	1620.0	2212.0	784.0	317.0	1045.0	1228.0	572.0	292.0	1502.0	840.0	2193.0	210.0	2099.0	670.0	975.0	441.0	550.0	1908.0	310.0	651.0	958.0	1677.0	754.0	2039.0	1276.0	644.0	327.0	694.0	1318.0	2880.0	328.0	86443.6
7290/	668.0	1004.0	815.0	839.0	476.0	1399.0	808.0	846.0	324.0	145.0	1188.0	1077.0	225.0	870.0	2622.0	4759.0	418.0	500.0	1043.0	887.0	953.0	1379.0	881.0	1380.0	1394.0	1756.0	1970.0	1127.0	1523.0	1512.0	731.0	295.0	272.0	1257.0	334.0	673.0	1796.0	1332.0	231.0	180.0	744.0	1305.0	1210.0	1670.0	1858.0	659.0	338.0	969.0	1142.0	742.0	239.0	1329.0	805.0	1781.0	302.0	1715.0	502.0	680.0	546.0	510.0	1108.0	310.0	562.0	713.0	994.0	568.0	1793.0	780.0	1035.0	444.0	659.0	630.0	2985.0	229.0	73746.5
7293/	763.0	824.0	952.0	900.0	507.0	1439.0	802.0	881.0	307.0	224.0	1366.0	979.0	134.0	857.0	2953.0	4330.0	289.0	366.0	1069.0	981.0	1342.0	1790.0	680.0	1640.0	1427.0	1867.0	2013.0	1658.0	1805.0	1708.0	560.0	59.0	275.0	1191.0	409.0	576.0	2048.0	1423.0	242.0	256.0	738.0	1243.0	1107.0	1639.0	1861.0	809.0	334.0	891.0	1144.0	704.0	222.0	1549.0	1005.0	1557.0	325.0	1680.0	513.0	838.0	339.0	561.0	1237.0	198.0	406.0	890.0	1382.0	742.0	2305.0	937.0	868.0	339.0	550.0	870.0	3336.0	247.0	77254.0
7321/	812.0	754.0	947.0	843.0	476.0	1805.0	1072.0	937.0	317.0	153.0	1112.0	1098.0	267.0	782.0	2459.0	4917.0	300.0	402.0	1344.0	954.0	1301.0	2282.0	838.0	1700.0	1767.0	2006.0	2228.0	1323.0	1750.0	1957.0	614.0	95.0	289.0	1389.0	451.0	490.0	1824.0	2069.0	245.0	237.0	649.0	1431.0	1138.0	1643.0	1859.0	784.0	504.0	1009.0	1178.0	780.0	338.0	1682.0	1159.0	1935.0	203.0	2084.0	749.0	773.0	554.0	371.0	1349.0	260.0	282.0	1052.0	1218.0	580.0	2289.0	1124.0	879.0	476.0	801.0	1217.0	3859.0	131.0	82937.9
7341/	803.0	1159.0	1045.0	921.0	383.0	1617.0	866.0	748.0	276.0	179.0	1142.0	1017.0	228.0	926.0	2821.0	4779.0	259.0	438.0	1314.0	1250.0	1128.0	1980.0	787.0	1488.0	1787.0	1892.0	1917.0	1317.0	1401.0	1576.0	566.0	166.0	344.0	1431.0	351.0	560.0	1714.0	2030.0	250.0	273.0	727.0	1476.0	1255.0	1919.0	2045.0	753.0	377.0	926.0	1153.0	557.0	296.0	1665.0	1034.0	1789.0	179.0	2197.0	347.0	1224.0	528.0	546.0	1443.0	206.0	527.0	862.0	1222.0	566.0	1547.0	917.0	733.0	525.0	606.0	608.0	3794.0	259.0	79937.8
7359/	151.0	0.0	146.0	271.0	212.0	139.0	0.0	0.0	0.0	0.0	228.0	306.0	31.0	185.0	477.0	809.0	0.0	0.0	0.0	139.0	0.0	0.0	0.0	128.0	57.0	434.0	767.0	614.0	639.0	422.0	205.0	102.0	3.0	0.0	0.0	0.0	0.0	0.0	24.0	31.0	154.0	0.0	0.0	38.0	1088.0	138.0	10.0	0.0	108.0	0.0	0.0	627.0	145.0	863.0	0.0	493.0	0.0	0.0	0.0	0.0	0.0	28.0	67.0	5.0	247.0	0.0	1518.0	404.0	369.0	110.0	177.0	0.0	0.0	3.0	13111.4
7366/	802.0	1288.0	922.0	1175.0	451.0	1707.0	910.0	874.0	382.0	174.0	1593.0	860.0	199.0	913.0	3009.0	5318.0	320.0	408.0	1539.0	1106.0	1693.0	1968.0	1032.0	1698.0	1301.0	2067.0	2527.0	1620.0	1763.0	1652.0	662.0	175.0	409.0	1558.0	419.0	742.0	1940.0	1955.0	193.0	181.0	1109.0	1403.0	1503.0	2023.0	2144.0	643.0	347.0	995.0	1332.0	852.0	260.0	1922.0	1461.0	1952.0	82.0	2245.0	479.0	933.0	669.0	699.0	1613.0	244.0	514.0	886.0	1644.0	584.0	2554.0	774.0	993.0	445.0	521.0	452.0	4230.0	262.0	88272.9
7367/	969.0	1386.0	1161.0	1474.0	564.0	1935.0	892.0	1231.0	481.0	267.0	1559.0	1226.0	177.0	867.0	3183.0	6512.0	387.0	537.0	1863.0	1224.0	1688.0	2697.0	1038.0	1904.0	2289.0	3834.0	1959.0	1874.0	2810.0	1692.0	776.0	516.0	302.0	1758.0	654.0	965.0	2149.0	2751.0	240.0	194.0	1132.0	1449.0	1413.0	2030.0	3178.0	701.0	459.0	1080.0	1555.0	531.0	321.0	2068.0	1370.0	2124.0	182.0	2045.0	866.0	972.0	461.0	797.0	2218.0	288.0	654.0	1057.0	1546.0	967.0	2189.0	1306.0	890.0	352.0	768.0	784.0	5080.0	268.0	103087.0
7368/	846.0	1010.0	932.0	1110.0	487.0	1660.0	942.0	954.0	395.0	196.0	1602.0	1132.0	213.0	796.0	3235.0	4594.0	367.0	465.0	1469.0	1109.0	1699.0	2143.0	872.0	1797.0	1621.0	2505.0	2784.0	1617.0	1959.0	1868.0	693.0	250.0	375.0	1769.0	483.0	757.0	2025.0	2250.0	244.0	163.0	922.0	1178.0	1447.0	1970.0	2403.0	810.0	361.0	1133.0	1182.0	424.0	284.0	1759.0	903.0	1918.0	131.0	2426.0	498.0	1125.0	673.0	756.0	1811.0	261.0	669.0	1046.0	1370.0	682.0	1974.0	1356.0	673.0	572.0	601.0	851.0	4808.0	283.0	90649.6
7515/	84.0	175.0	85.0	259.0	55.0	237.0	175.0	10.0	0.0	0.0	179.0	155.0	12.0	137.0	331.0	829.0	124.0	156.0	231.0	64.0	64.0	105.0	748.0	459.0	440.0	633.0	177.0	393.0	378.0	10.0	132.0	32.0	102.0	350.0	153.0	108.0	752.0	373.0	62.0	0.0	313.0	118.0	404.0	66.0	578.0	0.0	87.0	297.0	465.0	108.0	0.0	204.0	73.0	275.0	1.0	423.0	74.0	140.0	62.0	43.0	241.0	16.0	151.0	88.0	68.0	141.0	573.0	267.0	201.0	21.0	0.0	162.0	960.0	70.0	15457.2
7516/	923.0	1092.0	1303.0	1358.0	467.0	1615.0	1031.0	1107.0	363.0	160.0	1519.0	1264.0	210.0	704.0	2557.0	5856.0	343.0	443.0	1309.0	937.0	1313.0	2148.0	661.0	1745.0	1940.0	2005.0	2038.0	1567.0	1672.0	1525.0	829.0	187.0	375.0	1303.0	380.0	844.0	1859.0	1587.0	155.0	246.0	841.0	1628.0	1323.0	1933.0	2047.0	944.0	333.0	989.0	1276.0	760.0	282.0	1689.0	1040.0	2002.0	574.0	2466.0	854.0	668.0	211.0	707.0	1542.0	326.0	512.0	1100.0	1572.0	781.0	2004.0	1109.0	780.0	357.0	527.0	770.0	3082.0	246.0	86216.9
7576/	90.0	77.0	0.0	124.0	62.0	230.0	172.0	134.0	80.0	146.0	105.0	153.0	43.0	85.0	310.0	472.0	65.0	61.0	168.0	139.0	125.0	219.0	650.0	222.0	359.0	302.0	214.0	190.0	211.0	162.0	101.0	35.0	119.0	203.0	22.0	95.0	188.0	224.0	12.0	10.0	174.0	93.0	207.0	213.0	279.0	51.0	63.0	125.0	207.0	28.0	0.0	186.0	37.0	148.0	2.0	372.0	45.0	67.0	28.0	99.0	133.0	0.0	62.0	51.0	115.0	215.0	305.0	128.0	40.0	1.0	81.0	12.0	486.0	0.0	10430.8
7581/	315.0	529.0	472.0	450.0	259.0	76.0	192.0	334.0	230.0	239.0	334.0	510.0	197.0	386.0	1123.0	1818.0	198.0	167.0	408.0	389.0	279.0	1021.0	593.0	838.0	720.0	1191.0	867.0	706.0	803.0	826.0	514.0	0.0	101.0	691.0	309.0	205.0	682.0	646.0	108.0	76.0	488.0	774.0	551.0	868.0	877.0	280.0	209.0	309.0	736.0	318.0	57.0	607.0	291.0	827.0	44.0	846.0	196.0	295.0	174.0	275.0	347.0	53.0	138.0	246.0	548.0	474.0	573.0	347.0	358.0	116.0	304.0	301.0	1264.0	75.0	33969.1
7620/	431.0	403.0	597.0	402.0	224.0	312.0	69.0	105.0	54.0	0.0	493.0	476.0	82.0	138.0	1383.0	3273.0	159.0	267.0	516.0	315.0	255.0	492.0	502.0	802.0	689.0	985.0	1025.0	1025.0	985.0	733.0	260.0	184.0	227.0	434.0	129.0	164.0	388.0	573.0	62.0	29.0	510.0	472.0	249.0	679.0	1012.0	242.0	219.0	236.0	393.0	115.0	137.0	383.0	152.0	978.0	96.0	589.0	157.0	201.0	236.0	173.0	348.0	121.0	210.0	241.0	424.0	33.0	692.0	331.0	319.0	39.0	191.0	235.0	1392.0	0.0	31447.8
7636/	42.0	153.0	144.0	98.0	37.0	71.0	81.0	154.0	8.0	0.0	105.0	69.0	0.0	88.0	226.0	429.0	89.0	27.0	225.0	84.0	184.0	154.0	18.0	228.0	345.0	322.0	294.0	213.0	229.0	231.0	37.0	0.0	0.0	8.0	35.0	99.0	250.0	275.0	43.0	26.0	106.0	194.0	7.0	92.0	235.0	73.0	61.0	80.0	158.0	3.0	0.0	186.0	20.0	167.0	25.0	520.0	21.0	135.0	104.0	37.0	167.0	11.0	3.0	12.0	100.0	0.0	306.0	65.0	89.0	0.0	43.0	22.0	464.0	0.0	8625.69
7690/	661.0	1302.0	859.0	1003.0	364.0	1353.0	887.0	859.0	384.0	239.0	1247.0	973.0	172.0	917.0	3414.0	4910.0	361.0	452.0	1291.0	1099.0	1100.0	2214.0	832.0	1530.0	1271.0	2452.0	2366.0	1163.0	1722.0	2025.0	734.0	196.0	383.0	1337.0	320.0	893.0	1707.0	1801.0	219.0	263.0	1123.0	1610.0	1196.0	1846.0	2032.0	673.0	252.0	1018.0	1089.0	820.0	270.0	1752.0	957.0	1857.0	40.0	1738.0	833.0	813.0	399.0	529.0	1603.0	330.0	591.0	804.0	1175.0	602.0	2019.0	1255.0	641.0	394.0	792.0	885.0	3299.0	284.0	82800.9
7802/	763.0	942.0	1068.0	1074.0	491.0	1497.0	1032.0	823.0	353.0	184.0	1346.0	933.0	201.0	864.0	3373.0	5208.0	379.0	533.0	1519.0	883.0	1185.0	2456.0	1049.0	1796.0	1876.0	2520.0	2383.0	1721.0	1950.0	1802.0	744.0	397.0	431.0	1485.0	446.0	824.0	1966.0	1917.0	259.0	153.0	1001.0	1403.0	1375.0	1574.0	2294.0	686.0	361.0	1143.0	1367.0	763.0	321.0	1399.0	1416.0	2310.0	447.0	2478.0	795.0	668.0	452.0	812.0	1577.0	315.0	737.0	1000.0	1270.0	605.0	1758.0	1258.0	913.0	359.0	768.0	1138.0	2960.0	196.0	88741.2
7803/	729.0	1245.0	1070.0	929.0	525.0	1620.0	1126.0	976.0	431.0	155.0	1271.0	1132.0	318.0	1032.0	3531.0	5165.0	291.0	557.0	1758.0	1204.0	1380.0	2090.0	778.0	2016.0	1461.0	2156.0	2584.0	1652.0	1594.0	1471.0	629.0	117.0	444.0	1425.0	419.0	815.0	1620.0	1805.0	252.0	336.0	1001.0	1399.0	1233.0	1613.0	2118.0	665.0	533.0	1056.0	1313.0	478.0	356.0	1797.0	1240.0	2601.0	102.0	2490.0	776.0	656.0	700.0	659.0	1597.0	222.0	452.0	808.0	1483.0	712.0	1878.0	797.0	887.0	412.0	721.0	724.0	3630.0	268.0	87486.2
7831/	184.0	275.0	267.0	237.0	74.0	354.0	124.0	82.0	0.0	0.0	219.0	191.0	38.0	130.0	544.0	1321.0	107.0	139.0	312.0	189.0	206.0	383.0	268.0	323.0	373.0	460.0	476.0	363.0	397.0	281.0	127.0	67.0	60.0	333.0	112.0	164.0	421.0	377.0	78.0	26.0	197.0	501.0	199.0	198.0	889.0	106.0	88.0	208.0	188.0	123.0	33.0	356.0	176.0	565.0	59.0	465.0	127.0	139.0	96.0	64.0	313.0	37.0	104.0	109.0	140.0	727.0	552.0	232.0	377.0	19.0	0.0	74.0	948.0	40.0	18532.2
7895/	686.0	876.0	657.0	814.0	419.0	1095.0	641.0	630.0	229.0	129.0	1005.0	681.0	187.0	536.0	2174.0	3727.0	198.0	349.0	1084.0	992.0	861.0	1865.0	862.0	1234.0	1191.0	1439.0	1685.0	1302.0	1337.0	1578.0	588.0	2.0	274.0	1301.0	252.0	671.0	1659.0	1394.0	149.0	154.0	780.0	1163.0	1160.0	1289.0	2048.0	537.0	272.0	821.0	911.0	674.0	206.0	1087.0	876.0	1980.0	320.0	1626.0	595.0	551.0	564.0	523.0	1352.0	160.0	273.0	676.0	883.0	465.0	1557.0	675.0	862.0	260.0	375.0	576.0	3010.0	214.0	66228.4
7904/	659.0	946.0	1133.0	979.0	430.0	1525.0	1011.0	717.0	344.0	343.0	1447.0	863.0	233.0	763.0	2690.0	4350.0	308.0	320.0	1711.0	855.0	1354.0	2154.0	2269.0	1570.0	1319.0	2108.0	2287.0	1373.0	1792.0	1950.0	603.0	113.0	254.0	1263.0	196.0	611.0	1391.0	1854.0	208.0	136.0	747.0	1478.0	1316.0	2000.0	1696.0	831.0	311.0	803.0	1191.0	379.0	208.0	1552.0	941.0	1650.0	150.0	2544.0	796.0	626.0	858.0	638.0	1658.0	158.0	195.0	685.0	984.0	505.0	1829.0	885.0	900.0	303.0	776.0	284.0	3441.0	243.0	79994.1
7906/	596.0	863.0	766.0	891.0	431.0	1392.0	750.0	796.0	384.0	135.0	1105.0	846.0	216.0	743.0	3033.0	4387.0	296.0	333.0	1480.0	905.0	1114.0	1637.0	755.0	1642.0	1574.0	1605.0	1706.0	1597.0	1570.0	1704.0	671.0	71.0	351.0	1299.0	391.0	580.0	1563.0	1651.0	182.0	224.0	697.0	1181.0	999.0	1435.0	1830.0	699.0	273.0	803.0	1174.0	626.0	248.0	1720.0	579.0	1561.0	211.0	2013.0	570.0	823.0	424.0	535.0	1456.0	265.0	276.0	777.0	776.0	500.0	1741.0	996.0	611.0	365.0	865.0	747.0	3253.0	220.0	73483.0
7953/	716.0	1133.0	1162.0	1021.0	448.0	1740.0	765.0	834.0	255.0	178.0	1050.0	976.0	224.0	742.0	2861.0	4605.0	273.0	387.0	1133.0	1182.0	1200.0	2072.0	778.0	1659.0	1329.0	1896.0	1976.0	1321.0	1881.0	1592.0	650.0	189.0	426.0	1414.0	389.0	732.0	1413.0	1525.0	164.0	254.0	832.0	1346.0	1031.0	1320.0	2310.0	748.0	350.0	964.0	958.0	768.0	227.0	1684.0	1382.0	2062.0	219.0	1826.0	737.0	534.0	527.0	393.0	1250.0	286.0	410.0	1006.0	1194.0	632.0	1605.0	1485.0	807.0	293.0	459.0	867.0	3542.0	241.0	78839.1
7954/	1085.0	1233.0	1199.0	1074.0	502.0	1684.0	891.0	1183.0	293.0	243.0	1606.0	1059.0	215.0	663.0	3625.0	4690.0	319.0	398.0	1628.0	1343.0	1197.0	2774.0	839.0	1669.0	1599.0	1900.0	2296.0	1543.0	2136.0	1886.0	793.0	52.0	354.0	1503.0	400.0	584.0	1922.0	1968.0	214.0	175.0	862.0	1465.0	1229.0	1968.0	2500.0	747.0	335.0	971.0	1219.0	873.0	351.0	2268.0	1109.0	2107.0	313.0	2070.0	752.0	1096.0	745.0	539.0	1529.0	306.0	237.0	917.0	1653.0	832.0	1867.0	1345.0	1100.0	473.0	615.0	871.0	4071.0	274.0	90345.2
7965/	71.0	100.0	242.0	237.0	41.0	0.0	0.0	21.0	0.0	0.0	160.0	156.0	57.0	143.0	375.0	259.0	48.0	143.0	161.0	125.0	191.0	82.0	519.0	229.0	211.0	466.0	478.0	340.0	452.0	305.0	0.0	0.0	86.0	226.0	102.0	77.0	280.0	190.0	30.0	0.0	143.0	205.0	152.0	197.0	395.0	153.0	102.0	210.0	234.0	45.0	0.0	229.0	45.0	73.0	23.0	446.0	65.0	157.0	94.0	59.0	170.0	33.0	11.0	89.0	218.0	0.0	460.0	133.0	232.0	0.0	66.0	3.0	709.0	63.0	11815.7
8155/	857.0	1052.0	980.0	1004.0	445.0	1787.0	823.0	880.0	311.0	114.0	1372.0	1060.0	252.0	999.0	2805.0	5146.0	365.0	444.0	1127.0	1060.0	1306.0	2041.0	766.0	1662.0	1631.0	1968.0	1715.0	1674.0	1735.0	1556.0	684.0	60.0	518.0	1331.0	359.0	712.0	1699.0	1816.0	226.0	230.0	849.0	1317.0	1129.0	1434.0	2335.0	783.0	330.0	1068.0	1167.0	824.0	303.0	1826.0	788.0	1785.0	399.0	2109.0	699.0	799.0	337.0	549.0	1280.0	271.0	268.0	783.0	1492.0	449.0	1874.0	988.0	796.0	495.0	679.0	1110.0	3269.0	222.0	81376.2
8231/	864.0	1028.0	796.0	1026.0	454.0	1634.0	990.0	925.0	447.0	193.0	1292.0	927.0	208.0	918.0	2968.0	5668.0	268.0	473.0	1498.0	1166.0	1388.0	2179.0	928.0	1784.0	1809.0	2102.0	1856.0	1573.0	1880.0	1698.0	695.0	84.0	419.0	1799.0	374.0	587.0	2394.0	2352.0	193.0	237.0	815.0	1271.0	1213.0	1436.0	2119.0	716.0	406.0	1179.0	1161.0	941.0	336.0	1493.0	1165.0	1976.0	11.0	2554.0	708.0	883.0	639.0	784.0	1606.0	275.0	644.0	984.0	1361.0	799.0	2202.0	1107.0	895.0	364.0	840.0	1017.0	4575.0	231.0	88777.1
8307/	147.0	255.0	271.0	176.0	114.0	423.0	186.0	122.0	0.0	0.0	238.0	79.0	33.0	165.0	510.0	1263.0	82.0	113.0	368.0	330.0	115.0	231.0	546.0	384.0	360.0	538.0	771.0	344.0	520.0	431.0	191.0	79.0	97.0	291.0	97.0	164.0	405.0	464.0	59.0	16.0	174.0	333.0	146.0	238.0	550.0	52.0	88.0	196.0	189.0	84.0	0.0	242.0	172.0	417.0	27.0	679.0	122.0	126.0	202.0	46.0	182.0	53.0	76.0	85.0	210.0	16.0	352.0	149.0	148.0	99.0	18.0	112.0	880.0	28.0	17466.2
8350/	342.0	362.0	754.0	469.0	120.0	1479.0	209.0	236.0	17.0	0.0	569.0	465.0	94.0	364.0	1000.0	2752.0	70.0	173.0	476.0	534.0	774.0	1674.0	721.0	1025.0	1279.0	1484.0	1171.0	766.0	835.0	1035.0	315.0	208.0	523.0	833.0	148.0	315.0	918.0	763.0	91.0	61.0	532.0	553.0	602.0	500.0	868.0	376.0	140.0	306.0	582.0	379.0	38.0	698.0	339.0	709.0	130.0	660.0	234.0	248.0	118.0	625.0	750.0	116.0	117.0	358.0	523.0	768.0	844.0	321.0	325.0	103.0	248.0	476.0	1570.0	45.0	40627.2
