lh.aparc.a2009s.meancurv	lh_G_and_S_frontomargin_meancurv	lh_G_and_S_occipital_inf_meancurv	lh_G_and_S_paracentral_meancurv	lh_G_and_S_subcentral_meancurv	lh_G_and_S_transv_frontopol_meancurv	lh_G_and_S_cingul-Ant_meancurv	lh_G_and_S_cingul-Mid-Ant_meancurv	lh_G_and_S_cingul-Mid-Post_meancurv	lh_G_cingul-Post-dorsal_meancurv	lh_G_cingul-Post-ventral_meancurv	lh_G_cuneus_meancurv	lh_G_front_inf-Opercular_meancurv	lh_G_front_inf-Orbital_meancurv	lh_G_front_inf-Triangul_meancurv	lh_G_front_middle_meancurv	lh_G_front_sup_meancurv	lh_G_Ins_lg_and_S_cent_ins_meancurv	lh_G_insular_short_meancurv	lh_G_occipital_middle_meancurv	lh_G_occipital_sup_meancurv	lh_G_oc-temp_lat-fusifor_meancurv	lh_G_oc-temp_med-Lingual_meancurv	lh_G_oc-temp_med-Parahip_meancurv	lh_G_orbital_meancurv	lh_G_pariet_inf-Angular_meancurv	lh_G_pariet_inf-Supramar_meancurv	lh_G_parietal_sup_meancurv	lh_G_postcentral_meancurv	lh_G_precentral_meancurv	lh_G_precuneus_meancurv	lh_G_rectus_meancurv	lh_G_subcallosal_meancurv	lh_G_temp_sup-G_T_transv_meancurv	lh_G_temp_sup-Lateral_meancurv	lh_G_temp_sup-Plan_polar_meancurv	lh_G_temp_sup-Plan_tempo_meancurv	lh_G_temporal_inf_meancurv	lh_G_temporal_middle_meancurv	lh_Lat_Fis-ant-Horizont_meancurv	lh_Lat_Fis-ant-Vertical_meancurv	lh_Lat_Fis-post_meancurv	lh_Pole_occipital_meancurv	lh_Pole_temporal_meancurv	lh_S_calcarine_meancurv	lh_S_central_meancurv	lh_S_cingul-Marginalis_meancurv	lh_S_circular_insula_ant_meancurv	lh_S_circular_insula_inf_meancurv	lh_S_circular_insula_sup_meancurv	lh_S_collat_transv_ant_meancurv	lh_S_collat_transv_post_meancurv	lh_S_front_inf_meancurv	lh_S_front_middle_meancurv	lh_S_front_sup_meancurv	lh_S_interm_prim-Jensen_meancurv	lh_S_intrapariet_and_P_trans_meancurv	lh_S_oc_middle_and_Lunatus_meancurv	lh_S_oc_sup_and_transversal_meancurv	lh_S_occipital_ant_meancurv	lh_S_oc-temp_lat_meancurv	lh_S_oc-temp_med_and_Lingual_meancurv	lh_S_orbital_lateral_meancurv	lh_S_orbital_med-olfact_meancurv	lh_S_orbital-H_Shaped_meancurv	lh_S_parieto_occipital_meancurv	lh_S_pericallosal_meancurv	lh_S_postcentral_meancurv	lh_S_precentral-inf-part_meancurv	lh_S_precentral-sup-part_meancurv	lh_S_suborbital_meancurv	lh_S_subparietal_meancurv	lh_S_temporal_inf_meancurv	lh_S_temporal_sup_meancurv	lh_S_temporal_transverse_meancurv
10398/	0.166	0.155	0.131	0.141	0.184	0.143	0.131	0.135	0.192	0.139	0.155	0.166	0.177	0.182	0.177	0.161	0.134	0.155	0.155	0.156	0.17	0.156	0.134	0.182	0.156	0.154	0.141	0.136	0.138	0.165	0.18	0.19	0.134	0.156	0.11	0.109	0.176	0.171	0.113	0.11	0.126	0.145	0.172	0.137	0.112	0.106	0.135	0.099	0.113	0.159	0.161	0.139	0.132	0.122	0.165	0.121	0.125	0.147	0.124	0.133	0.131	0.127	0.115	0.143	0.122	0.157	0.125	0.117	0.112	0.115	0.136	0.133	0.121	0.127
10423/	0.158	0.148	0.166	0.165	0.168	0.153	0.152	0.149	0.176	0.17	0.18	0.162	0.221	0.188	0.174	0.169	0.149	0.161	0.159	0.148	0.156	0.173	0.161	0.223	0.149	0.159	0.135	0.163	0.171	0.174	0.197	0.099	0.145	0.191	0.168	0.128	0.166	0.174	0.128	0.134	0.124	0.173	0.208	0.147	0.144	0.114	0.152	0.13	0.117	0.143	0.154	0.124	0.136	0.125	0.089	0.128	0.121	0.15	0.123	0.12	0.127	0.222	0.151	0.157	0.142	0.163	0.131	0.128	0.117	0.156	0.157	0.128	0.13	0.139
10524/	0.166	0.157	0.16	0.168	0.19	0.136	0.16	0.156	0.194	0.17	0.181	0.153	0.181	0.161	0.176	0.155	0.151	0.165	0.162	0.157	0.163	0.188	0.158	0.189	0.152	0.164	0.156	0.161	0.16	0.18	0.209	0.078	0.133	0.179	0.134	0.147	0.188	0.163	0.114	0.143	0.146	0.155	0.188	0.149	0.144	0.133	0.131	0.111	0.125	0.137	0.158	0.142	0.153	0.137	0.129	0.13	0.136	0.135	0.112	0.113	0.151	0.132	0.151	0.155	0.151	0.145	0.131	0.114	0.13	0.158	0.132	0.123	0.131	0.132
10536/	0.168	0.157	0.141	0.141	0.17	0.147	0.144	0.131	0.195	0.172	0.16	0.162	0.161	0.167	0.173	0.154	0.127	0.153	0.155	0.141	0.163	0.168	0.109	0.173	0.16	0.151	0.146	0.126	0.146	0.167	0.207	0.13	0.13	0.165	0.101	0.109	0.17	0.164	0.117	0.139	0.115	0.163	0.166	0.137	0.122	0.126	0.11	0.098	0.118	0.15	0.147	0.139	0.145	0.128	0.111	0.114	0.115	0.133	0.122	0.142	0.115	0.127	0.128	0.151	0.131	0.174	0.126	0.119	0.125	0.147	0.123	0.13	0.117	0.121
10547/	0.153	0.131	0.132	0.149	0.152	0.135	0.135	0.154	0.183	0.154	0.176	0.16	0.178	0.158	0.161	0.151	0.175	0.153	0.15	0.139	0.158	0.171	0.151	0.166	0.144	0.157	0.136	0.144	0.158	0.152	0.183	0.147	0.145	0.148	0.141	0.11	0.17	0.146	0.117	0.111	0.123	0.146	0.174	0.143	0.14	0.11	0.135	0.099	0.116	0.283	0.127	0.12	0.118	0.116	0.134	0.115	0.143	0.127	0.118	0.107	0.127	0.131	0.124	0.15	0.131	0.156	0.127	0.109	0.134	0.16	0.141	0.122	0.119	0.13
10563/	0.139	0.156	0.175	0.151	0.197	0.14	0.131	0.147	0.158	0.123	0.171	0.154	0.173	0.156	0.163	0.156	0.129	0.141	0.16	0.146	0.164	0.169	0.129	0.175	0.172	0.158	0.152	0.132	0.145	0.172	0.191	0.126	0.113	0.172	0.176	0.12	0.163	0.153	0.105	0.098	0.127	0.151	0.163	0.143	0.124	0.12	0.112	0.093	0.118	0.117	0.169	0.138	0.116	0.119	0.111	0.13	0.149	0.128	0.145	0.134	0.125	0.133	0.122	0.138	0.131	0.14	0.124	0.103	0.111	0.168	0.123	0.127	0.119	0.128
10566/	0.166	0.14	0.163	0.145	0.183	0.131	0.141	0.152	0.163	0.145	0.156	0.147	0.159	0.174	0.167	0.16	0.118	0.138	0.161	0.147	0.15	0.155	0.115	0.166	0.163	0.157	0.155	0.135	0.152	0.16	0.199	0.121	0.165	0.159	0.127	0.111	0.176	0.156	0.133	0.138	0.117	0.153	0.167	0.14	0.131	0.108	0.106	0.103	0.111	0.117	0.142	0.126	0.141	0.133	0.142	0.132	0.157	0.12	0.14	0.142	0.113	0.141	0.124	0.152	0.129	0.17	0.122	0.129	0.113	0.138	0.119	0.139	0.124	0.14
10606/	0.171	0.164	0.165	0.158	0.193	0.166	0.141	0.141	0.214	0.17	0.18	0.156	0.22	0.192	0.193	0.176	0.13	0.16	0.168	0.186	0.197	0.185	0.138	0.187	0.185	0.181	0.156	0.146	0.185	0.18	0.195	0.245	0.179	0.201	0.151	0.136	0.166	0.174	0.143	0.155	0.177	0.176	0.203	0.152	0.149	0.136	0.119	0.122	0.126	0.165	0.171	0.151	0.174	0.142	0.18	0.127	0.156	0.151	0.13	0.158	0.153	0.143	0.122	0.17	0.144	0.179	0.13	0.124	0.123	0.155	0.164	0.148	0.146	0.154
10620/	0.165	0.146	0.159	0.142	0.164	0.137	0.146	0.157	0.19	0.128	0.165	0.151	0.196	0.169	0.168	0.156	0.121	0.18	0.161	0.146	0.157	0.172	0.119	0.178	0.157	0.151	0.143	0.141	0.157	0.165	0.205	0.161	0.132	0.168	0.11	0.124	0.172	0.162	0.111	0.121	0.123	0.163	0.19	0.137	0.125	0.118	0.128	0.101	0.111	0.143	0.153	0.127	0.126	0.118	0.119	0.119	0.137	0.113	0.13	0.101	0.112	0.132	0.12	0.147	0.136	0.136	0.131	0.111	0.117	0.098	0.131	0.12	0.117	0.119
10621/	0.168	0.156	0.159	0.156	0.182	0.135	0.141	0.15	0.178	0.163	0.172	0.157	0.173	0.177	0.165	0.165	0.138	0.181	0.158	0.159	0.169	0.171	0.16	0.17	0.163	0.161	0.149	0.153	0.164	0.167	0.202	0.137	0.15	0.162	0.148	0.117	0.177	0.171	0.115	0.121	0.126	0.161	0.207	0.147	0.133	0.141	0.133	0.105	0.119	0.144	0.14	0.141	0.125	0.129	0.145	0.132	0.136	0.131	0.134	0.124	0.121	0.132	0.142	0.145	0.141	0.139	0.137	0.121	0.13	0.136	0.144	0.123	0.128	0.146
10667/	0.164	0.151	0.155	0.157	0.184	0.133	0.138	0.147	0.169	0.151	0.166	0.152	0.162	0.161	0.171	0.157	0.121	0.157	0.151	0.143	0.164	0.161	0.124	0.181	0.151	0.156	0.138	0.143	0.143	0.17	0.183	0.081	0.162	0.192	0.129	0.11	0.171	0.154	0.093	0.104	0.113	0.154	0.163	0.151	0.127	0.142	0.137	0.103	0.113	0.141	0.143	0.121	0.127	0.133	0.095	0.121	0.137	0.135	0.113	0.13	0.138	0.142	0.13	0.133	0.127	0.165	0.12	0.112	0.105	0.133	0.121	0.108	0.129	0.153
10813/	0.172	0.156	0.172	0.16	0.201	0.133	0.139	0.144	0.196	0.179	0.178	0.185	0.164	0.181	0.184	0.17	0.165	0.158	0.165	0.168	0.176	0.194	0.183	0.174	0.174	0.182	0.172	0.165	0.17	0.182	0.24	0.09	0.165	0.185	0.149	0.119	0.176	0.176	0.105	0.14	0.132	0.146	0.19	0.15	0.126	0.138	0.135	0.111	0.119	0.124	0.148	0.15	0.152	0.125	0.145	0.124	0.146	0.134	0.118	0.121	0.126	0.141	0.126	0.152	0.146	0.154	0.136	0.125	0.134	0.131	0.137	0.14	0.132	0.195
10903/	0.159	0.153	0.159	0.151	0.173	0.133	0.124	0.135	0.178	0.171	0.177	0.173	0.166	0.17	0.18	0.154	0.162	0.132	0.161	0.153	0.164	0.174	0.133	0.16	0.154	0.155	0.155	0.159	0.149	0.168	0.214	0.163	0.159	0.165	0.133	0.125	0.166	0.169	0.128	0.134	0.13	0.162	0.179	0.175	0.135	0.121	0.118	0.102	0.121	0.129	0.14	0.134	0.155	0.125	0.119	0.139	0.127	0.136	0.127	0.109	0.127	0.133	0.144	0.141	0.137	0.144	0.137	0.126	0.121	0.152	0.138	0.125	0.127	0.144
10943/	0.167	0.18	0.162	0.155	0.196	0.151	0.138	0.163	0.209	0.177	0.18	0.166	0.198	0.161	0.186	0.163	0.144	0.142	0.176	0.147	0.176	0.189	0.138	0.167	0.178	0.16	0.164	0.157	0.173	0.18	0.199	0.085	0.189	0.187	0.131	0.109	0.188	0.173	0.146	0.146	0.134	0.181	0.2	0.157	0.142	0.122	0.127	0.14	0.116	0.124	0.138	0.133	0.128	0.142	0.126	0.127	0.14	0.132	0.125	0.143	0.135	0.111	0.144	0.148	0.145	0.15	0.138	0.139	0.128	0.138	0.136	0.119	0.127	0.132
5202/	0.165	0.199	0.14	0.156	0.183	0.14	0.14	0.142	0.175	0.153	0.166	0.157	0.173	0.167	0.174	0.168	0.144	0.172	0.166	0.159	0.18	0.188	0.139	0.187	0.174	0.173	0.15	0.156	0.159	0.169	0.184	0.185	0.182	0.172	0.113	0.127	0.17	0.174	0.113	0.104	0.14	0.178	0.186	0.152	0.122	0.12	0.137	0.1	0.122	0.152	0.164	0.135	0.124	0.129	0.185	0.137	0.129	0.151	0.16	0.145	0.142	0.125	0.119	0.133	0.133	0.17	0.126	0.112	0.113	0.118	0.139	0.134	0.131	0.152
5302/	0.169	0.193	0.188	0.211	0.193	0.139	0.155	0.149	0.211	0.224	0.194	0.187	0.183	0.184	0.194	0.165	0.148	0.191	0.182	0.152	0.216	0.211	0.158	0.173	0.163	0.192	0.172	0.182	0.201	0.184	0.213	0.162	0.22	0.187	0.124	0.17	0.2	0.22	0.114	0.114	0.173	0.179	0.186	0.18	0.16	0.143	0.133	0.135	0.132	0.143	0.197	0.142	0.134	0.153	0.153	0.15	0.148	0.16	0.143	0.156	0.186	0.142	0.114	0.153	0.156	0.158	0.155	0.16	0.157	0.16	0.147	0.146	0.152	0.191
5305/	0.145	0.158	0.179	0.167	0.184	0.148	0.134	0.158	0.192	0.17	0.173	0.161	0.153	0.164	0.179	0.164	0.129	0.191	0.169	0.152	0.188	0.182	0.132	0.174	0.174	0.171	0.163	0.16	0.146	0.18	0.184	0.081	0.185	0.165	0.098	0.152	0.192	0.18	0.103	0.124	0.149	0.153	0.154	0.155	0.13	0.129	0.104	0.127	0.127	0.158	0.151	0.146	0.142	0.131	0.123	0.143	0.139	0.127	0.14	0.15	0.14	0.14	0.138	0.161	0.136	0.169	0.145	0.125	0.117	0.152	0.149	0.142	0.133	0.171
5306/	0.154	0.178	0.179	0.167	0.215	0.16	0.146	0.152	0.22	0.201	0.165	0.167	0.205	0.2	0.18	0.175	0.178	0.208	0.193	0.174	0.203	0.194	0.176	0.206	0.181	0.174	0.16	0.169	0.185	0.187	0.187	0.092	0.206	0.216	0.279	0.172	0.2	0.201	0.107	0.122	0.149	0.181	0.207	0.167	0.144	0.127	0.148	0.117	0.133	0.168	0.167	0.152	0.122	0.139	0.138	0.135	0.143	0.137	0.173	0.187	0.186	0.152	0.133	0.153	0.159	0.165	0.141	0.136	0.146	0.145	0.157	0.158	0.149	0.184
5464/	0.171	0.176	0.216	0.204	0.187	0.177	0.181	0.177	0.196	0.185	0.184	0.181	0.182	0.194	0.178	0.2	0.197	0.289	0.177	0.169	0.194	0.183	0.166	0.195	0.213	0.204	0.205	0.207	0.23	0.211	0.275	0.119	0.178	0.199	0.169	0.157	0.2	0.207	0.13	0.133	0.162	0.187	0.222	0.168	0.199	0.162	0.183	0.135	0.15	0.163	0.174	0.154	0.157	0.147	0.17	0.153	0.145	0.176	0.165	0.16	0.171	0.162	0.143	0.152	0.162	0.184	0.175	0.145	0.179	0.198	0.151	0.163	0.15	0.149
5505/	0.175	0.154	0.159	0.152	0.182	0.141	0.141	0.155	0.183	0.136	0.177	0.165	0.176	0.183	0.174	0.164	0.136	0.181	0.167	0.16	0.158	0.171	0.113	0.193	0.176	0.156	0.173	0.16	0.163	0.198	0.214	0.136	0.135	0.178	0.133	0.149	0.171	0.179	0.119	0.12	0.132	0.154	0.182	0.162	0.133	0.122	0.146	0.101	0.115	0.132	0.127	0.144	0.141	0.121	0.128	0.142	0.146	0.138	0.142	0.113	0.148	0.167	0.133	0.163	0.138	0.152	0.123	0.131	0.127	0.164	0.147	0.132	0.132	0.139
5506/	0.145	0.169	0.162	0.158	0.189	0.127	0.134	0.155	0.177	0.148	0.165	0.173	0.159	0.153	0.166	0.168	0.125	0.185	0.169	0.157	0.169	0.172	0.137	0.164	0.176	0.166	0.153	0.158	0.173	0.179	0.183	0.116	0.158	0.166	0.118	0.138	0.195	0.171	0.113	0.117	0.126	0.157	0.185	0.141	0.131	0.111	0.11	0.102	0.135	0.146	0.172	0.152	0.152	0.128	0.145	0.134	0.156	0.133	0.147	0.157	0.134	0.176	0.125	0.136	0.138	0.16	0.141	0.123	0.114	0.157	0.138	0.138	0.133	0.137
5514/	0.165	0.153	0.172	0.146	0.185	0.138	0.142	0.16	0.183	0.175	0.174	0.149	0.193	0.171	0.156	0.159	0.126	0.152	0.173	0.133	0.182	0.177	0.181	0.17	0.157	0.165	0.155	0.148	0.156	0.165	0.19	0.092	0.142	0.154	0.13	0.091	0.181	0.167	0.123	0.128	0.127	0.172	0.179	0.153	0.125	0.121	0.107	0.102	0.111	0.127	0.133	0.129	0.121	0.117	0.148	0.119	0.148	0.107	0.143	0.124	0.132	0.12	0.117	0.138	0.125	0.167	0.128	0.105	0.108	0.142	0.126	0.121	0.122	0.122
5515/	0.16	0.164	0.168	0.159	0.185	0.159	0.163	0.143	0.196	0.159	0.168	0.176	0.221	0.197	0.19	0.171	0.124	0.167	0.166	0.149	0.173	0.179	0.165	0.197	0.153	0.157	0.141	0.15	0.185	0.16	0.204	0.188	0.154	0.172	0.14	0.117	0.174	0.185	0.135	0.164	0.131	0.169	0.192	0.158	0.16	0.12	0.15	0.11	0.133	0.153	0.16	0.134	0.139	0.144	0.132	0.113	0.122	0.13	0.132	0.15	0.136	0.136	0.115	0.146	0.134	0.165	0.127	0.125	0.137	0.139	0.144	0.13	0.13	0.147
5516/	0.165	0.157	0.154	0.161	0.181	0.155	0.137	0.148	0.181	0.149	0.17	0.156	0.168	0.165	0.169	0.162	0.165	0.219	0.173	0.161	0.179	0.18	0.156	0.18	0.159	0.165	0.146	0.151	0.163	0.168	0.196	0.221	0.153	0.157	0.142	0.14	0.183	0.173	0.156	0.115	0.134	0.173	0.191	0.143	0.137	0.12	0.144	0.102	0.129	0.137	0.177	0.126	0.147	0.134	0.14	0.137	0.14	0.137	0.135	0.128	0.129	0.137	0.144	0.167	0.143	0.169	0.136	0.126	0.149	0.146	0.149	0.133	0.131	0.148
5518/	0.156	0.152	0.162	0.152	0.178	0.133	0.122	0.147	0.2	0.189	0.174	0.145	0.164	0.159	0.162	0.157	0.154	0.138	0.156	0.16	0.166	0.172	0.148	0.169	0.175	0.159	0.154	0.167	0.152	0.166	0.213	0.062	0.132	0.164	0.128	0.124	0.157	0.174	0.108	0.099	0.127	0.155	0.214	0.136	0.139	0.132	0.115	0.082	0.113	0.137	0.172	0.13	0.124	0.121	0.14	0.125	0.142	0.13	0.133	0.127	0.133	0.105	0.094	0.138	0.123	0.159	0.12	0.125	0.131	0.137	0.152	0.114	0.115	0.134
5640/	0.187	0.167	0.206	0.148	0.154	0.161	0.173	0.169	0.2	0.154	0.198	0.167	0.17	0.174	0.172	0.172	0.16	0.208	0.171	0.164	0.183	0.193	0.184	0.183	0.168	0.16	0.158	0.164	0.196	0.182	0.182	0.16	0.146	0.187	0.175	0.106	0.183	0.184	0.115	0.128	0.141	0.177	0.219	0.162	0.161	0.123	0.148	0.128	0.152	0.162	0.141	0.158	0.145	0.14	0.175	0.142	0.156	0.137	0.124	0.152	0.152	0.14	0.123	0.152	0.136	0.156	0.134	0.133	0.146	0.151	0.165	0.136	0.133	0.143
5649/	0.179	0.175	0.219	0.19	0.162	0.149	0.165	0.154	0.19	0.167	0.165	0.207	0.221	0.184	0.18	0.175	0.159	0.14	0.167	0.176	0.223	0.184	0.227	0.208	0.179	0.18	0.177	0.173	0.197	0.186	0.23	0.151	0.167	0.213	0.241	0.152	0.176	0.19	0.17	0.144	0.139	0.163	0.185	0.155	0.159	0.154	0.168	0.143	0.144	0.146	0.195	0.134	0.142	0.129	0.14	0.147	0.158	0.138	0.14	0.156	0.154	0.139	0.165	0.153	0.159	0.17	0.157	0.154	0.127	0.153	0.153	0.151	0.144	0.156
5754/	0.146	0.164	0.177	0.19	0.171	0.148	0.139	0.171	0.2	0.166	0.185	0.167	0.177	0.18	0.19	0.182	0.157	0.159	0.153	0.165	0.182	0.199	0.171	0.188	0.174	0.175	0.15	0.175	0.19	0.184	0.211	0.188	0.188	0.205	0.163	0.152	0.181	0.177	0.13	0.125	0.164	0.178	0.205	0.158	0.129	0.118	0.128	0.111	0.121	0.143	0.153	0.134	0.139	0.15	0.129	0.14	0.135	0.14	0.162	0.136	0.149	0.126	0.139	0.149	0.142	0.148	0.13	0.116	0.136	0.169	0.129	0.133	0.131	0.165
5755/	0.173	0.157	0.164	0.176	0.182	0.154	0.15	0.158	0.214	0.182	0.177	0.179	0.201	0.174	0.194	0.18	0.14	0.143	0.157	0.177	0.188	0.169	0.181	0.183	0.192	0.191	0.16	0.175	0.19	0.19	0.194	0.076	0.183	0.21	0.22	0.147	0.242	0.192	0.133	0.143	0.151	0.169	0.209	0.149	0.145	0.138	0.125	0.135	0.125	0.132	0.167	0.156	0.143	0.156	0.193	0.148	0.168	0.149	0.139	0.156	0.147	0.164	0.161	0.149	0.144	0.194	0.143	0.145	0.143	0.191	0.151	0.152	0.138	0.159
5771/	0.145	0.16	0.16	0.165	0.181	0.145	0.143	0.144	0.173	0.143	0.182	0.142	0.172	0.153	0.168	0.169	0.161	0.125	0.148	0.145	0.166	0.181	0.153	0.186	0.153	0.159	0.151	0.148	0.152	0.175	0.201	0.243	0.131	0.165	0.134	0.121	0.169	0.176	0.117	0.1	0.139	0.139	0.197	0.159	0.14	0.121	0.13	0.114	0.107	0.123	0.161	0.115	0.122	0.125	0.124	0.147	0.126	0.121	0.125	0.122	0.128	0.127	0.141	0.141	0.141	0.155	0.133	0.123	0.127	0.153	0.122	0.132	0.129	0.142
5798/	0.184	0.166	0.124	0.18	0.173	0.278	0.274	0.321	0.155	0.555	0.46	0.495	0.14	0.94	0.399	0.277	0.646	0.376	0.21	0.317	0.161	0.357	0.41	0.709	0.272	0.18	0.29	0.192	0.218	0.294	0.485	0.51	0.243	0.353	0.632	0.213	0.156	0.17	0.763	0.0	0.25	0.255	0.222	0.447	0.166	0.228	1.064	0.678	0.398	0.3	0.222	0.398	0.124	0.372	0.172	0.214	0.202	0.179	0.151	0.161	0.2	0.131	0.528	0.42	0.417	0.232	0.162	0.172	0.359	0.153	0.441	0.183	0.206	0.0
5825/	0.17	0.158	0.163	0.194	0.199	0.156	0.144	0.165	0.212	0.168	0.17	0.178	0.192	0.182	0.173	0.172	0.163	0.217	0.185	0.167	0.196	0.182	0.173	0.187	0.187	0.185	0.18	0.182	0.178	0.202	0.231	0.116	0.165	0.185	0.267	0.132	0.181	0.176	0.149	0.136	0.136	0.162	0.217	0.132	0.144	0.151	0.151	0.167	0.143	0.144	0.142	0.132	0.143	0.14	0.205	0.144	0.16	0.152	0.134	0.144	0.151	0.144	0.143	0.174	0.151	0.162	0.155	0.121	0.144	0.178	0.163	0.136	0.137	0.13
5843/	0.186	0.139	0.159	0.15	0.171	0.151	0.154	0.134	0.202	0.163	0.166	0.152	0.176	0.175	0.165	0.166	0.144	0.171	0.154	0.168	0.158	0.164	0.131	0.173	0.176	0.162	0.13	0.153	0.15	0.155	0.193	0.114	0.139	0.16	0.174	0.143	0.173	0.179	0.13	0.139	0.119	0.159	0.191	0.147	0.138	0.127	0.119	0.108	0.126	0.146	0.134	0.145	0.158	0.13	0.123	0.133	0.149	0.132	0.117	0.129	0.133	0.173	0.135	0.128	0.137	0.157	0.135	0.112	0.108	0.146	0.146	0.13	0.12	0.139
5844/	0.176	0.155	0.149	0.155	0.212	0.143	0.133	0.15	0.173	0.194	0.156	0.167	0.17	0.158	0.171	0.165	0.128	0.177	0.151	0.148	0.157	0.157	0.148	0.171	0.16	0.155	0.149	0.155	0.152	0.173	0.196	0.084	0.123	0.162	0.139	0.12	0.175	0.168	0.133	0.127	0.141	0.154	0.197	0.145	0.131	0.138	0.113	0.11	0.126	0.111	0.159	0.128	0.145	0.13	0.104	0.128	0.117	0.146	0.13	0.133	0.147	0.112	0.135	0.149	0.133	0.153	0.135	0.109	0.147	0.172	0.136	0.133	0.127	0.137
5899/	0.179	0.168	0.158	0.166	0.182	0.162	0.135	0.128	0.194	0.143	0.176	0.156	0.163	0.154	0.161	0.144	0.133	0.171	0.151	0.16	0.15	0.179	0.139	0.188	0.162	0.165	0.148	0.158	0.139	0.161	0.191	0.095	0.135	0.152	0.146	0.141	0.152	0.159	0.111	0.126	0.123	0.155	0.175	0.138	0.14	0.146	0.109	0.107	0.115	0.132	0.138	0.125	0.134	0.117	0.15	0.128	0.129	0.13	0.1	0.104	0.152	0.132	0.156	0.147	0.127	0.172	0.142	0.127	0.121	0.164	0.135	0.118	0.118	0.111
5900/	0.169	0.159	0.165	0.157	0.193	0.147	0.136	0.158	0.185	0.196	0.173	0.168	0.16	0.163	0.165	0.156	0.161	0.183	0.157	0.156	0.179	0.19	0.135	0.178	0.164	0.166	0.156	0.137	0.16	0.175	0.201	0.162	0.15	0.166	0.153	0.136	0.171	0.163	0.105	0.135	0.131	0.182	0.185	0.157	0.137	0.138	0.132	0.101	0.121	0.139	0.158	0.135	0.142	0.132	0.144	0.141	0.126	0.125	0.161	0.135	0.134	0.131	0.17	0.145	0.141	0.154	0.138	0.137	0.136	0.147	0.152	0.138	0.135	0.132
5902/	0.169	0.197	0.21	0.186	0.17	0.144	0.155	0.181	0.232	0.202	0.196	0.179	0.196	0.178	0.192	0.182	0.167	0.151	0.188	0.184	0.235	0.203	0.206	0.213	0.211	0.217	0.181	0.224	0.213	0.194	0.234	0.13	0.242	0.213	0.186	0.175	0.241	0.208	0.123	0.128	0.187	0.207	0.201	0.206	0.183	0.153	0.148	0.133	0.13	0.192	0.158	0.15	0.128	0.14	0.17	0.15	0.138	0.145	0.145	0.157	0.197	0.144	0.134	0.168	0.164	0.16	0.167	0.139	0.159	0.123	0.169	0.157	0.153	0.174
5953/	0.163	0.166	0.202	0.171	0.194	0.167	0.131	0.165	0.193	0.192	0.175	0.171	0.161	0.163	0.17	0.163	0.141	0.19	0.174	0.166	0.182	0.183	0.138	0.184	0.181	0.182	0.172	0.18	0.194	0.183	0.21	0.158	0.155	0.179	0.136	0.151	0.189	0.182	0.119	0.162	0.146	0.161	0.193	0.173	0.151	0.129	0.132	0.109	0.135	0.146	0.143	0.137	0.143	0.133	0.138	0.137	0.139	0.155	0.117	0.158	0.138	0.138	0.128	0.156	0.15	0.156	0.144	0.127	0.155	0.16	0.16	0.14	0.131	0.133
5955/	0.15	0.147	0.157	0.157	0.17	0.151	0.141	0.144	0.195	0.151	0.153	0.165	0.148	0.141	0.166	0.152	0.123	0.138	0.172	0.132	0.151	0.166	0.137	0.167	0.157	0.167	0.155	0.145	0.159	0.173	0.193	0.11	0.124	0.14	0.131	0.092	0.172	0.151	0.111	0.105	0.133	0.166	0.185	0.14	0.126	0.113	0.105	0.109	0.112	0.111	0.15	0.116	0.129	0.125	0.114	0.128	0.139	0.135	0.129	0.137	0.116	0.092	0.147	0.142	0.127	0.136	0.129	0.107	0.125	0.151	0.149	0.119	0.115	0.085
5977/	0.152	0.157	0.171	0.147	0.171	0.129	0.134	0.151	0.192	0.168	0.163	0.154	0.174	0.16	0.173	0.159	0.164	0.153	0.151	0.142	0.148	0.156	0.15	0.172	0.153	0.153	0.151	0.15	0.159	0.178	0.181	0.147	0.122	0.157	0.127	0.129	0.177	0.168	0.122	0.129	0.13	0.152	0.177	0.142	0.134	0.136	0.133	0.1	0.128	0.134	0.149	0.126	0.139	0.137	0.095	0.126	0.131	0.115	0.134	0.129	0.116	0.123	0.109	0.158	0.136	0.149	0.129	0.131	0.116	0.134	0.128	0.145	0.129	0.141
6010/	0.171	0.192	0.271	0.205	0.209	0.17	0.177	0.173	0.248	0.223	0.208	0.211	0.19	0.201	0.2	0.214	0.18	0.144	0.207	0.214	0.223	0.229	0.202	0.186	0.212	0.225	0.215	0.251	0.23	0.209	0.19	0.14	0.27	0.238	0.27	0.162	0.234	0.215	0.15	0.138	0.187	0.214	0.239	0.179	0.195	0.199	0.143	0.143	0.163	0.189	0.186	0.154	0.142	0.173	0.193	0.162	0.163	0.166	0.158	0.166	0.188	0.148	0.153	0.186	0.163	0.165	0.197	0.189	0.163	0.162	0.18	0.166	0.17	0.167
6026/	0.182	0.15	0.143	0.15	0.186	0.139	0.142	0.16	0.239	0.117	0.169	0.166	0.208	0.165	0.164	0.158	0.13	0.174	0.159	0.146	0.167	0.171	0.145	0.181	0.143	0.145	0.132	0.131	0.156	0.172	0.22	0.229	0.173	0.155	0.106	0.114	0.164	0.167	0.181	0.132	0.125	0.157	0.177	0.147	0.129	0.106	0.144	0.106	0.117	0.138	0.188	0.131	0.146	0.133	0.129	0.121	0.129	0.13	0.13	0.123	0.147	0.139	0.126	0.135	0.114	0.153	0.125	0.121	0.138	0.142	0.128	0.123	0.118	0.163
6028/	0.176	0.148	0.177	0.152	0.19	0.141	0.146	0.125	0.188	0.158	0.173	0.16	0.249	0.177	0.179	0.163	0.151	0.123	0.158	0.154	0.153	0.186	0.131	0.189	0.169	0.163	0.152	0.149	0.151	0.165	0.191	0.109	0.145	0.167	0.14	0.13	0.175	0.164	0.161	0.129	0.136	0.155	0.216	0.146	0.123	0.132	0.119	0.105	0.11	0.153	0.153	0.132	0.134	0.128	0.14	0.128	0.139	0.139	0.152	0.143	0.115	0.19	0.133	0.153	0.142	0.185	0.128	0.118	0.126	0.144	0.156	0.152	0.131	0.142
6033/	0.162	0.153	0.162	0.155	0.207	0.141	0.153	0.16	0.201	0.148	0.183	0.166	0.181	0.154	0.175	0.161	0.122	0.124	0.178	0.18	0.165	0.172	0.121	0.18	0.166	0.17	0.149	0.166	0.163	0.176	0.218	0.078	0.132	0.179	0.106	0.131	0.186	0.158	0.134	0.107	0.133	0.157	0.194	0.134	0.128	0.124	0.121	0.096	0.107	0.133	0.166	0.122	0.158	0.127	0.129	0.133	0.13	0.14	0.133	0.132	0.14	0.15	0.146	0.147	0.141	0.153	0.14	0.107	0.111	0.174	0.116	0.128	0.127	0.124
6034/	0.181	0.149	0.168	0.173	0.191	0.162	0.158	0.16	0.208	0.136	0.175	0.165	0.183	0.181	0.186	0.165	0.159	0.127	0.168	0.159	0.175	0.168	0.156	0.184	0.158	0.169	0.156	0.148	0.153	0.185	0.201	0.108	0.144	0.199	0.13	0.141	0.187	0.187	0.143	0.142	0.152	0.173	0.208	0.143	0.135	0.156	0.121	0.109	0.129	0.146	0.157	0.139	0.145	0.13	0.135	0.118	0.129	0.149	0.148	0.136	0.137	0.148	0.123	0.16	0.148	0.175	0.149	0.136	0.128	0.166	0.144	0.134	0.135	0.141
6035/	0.16	0.17	0.239	0.175	0.2	0.154	0.165	0.198	0.206	0.236	0.19	0.174	0.166	0.16	0.189	0.174	0.15	0.185	0.19	0.175	0.18	0.211	0.201	0.184	0.167	0.186	0.196	0.225	0.21	0.239	0.185	0.11	0.147	0.181	0.216	0.143	0.198	0.192	0.142	0.151	0.143	0.19	0.199	0.177	0.21	0.208	0.148	0.13	0.126	0.14	0.182	0.138	0.151	0.156	0.13	0.146	0.153	0.139	0.148	0.128	0.163	0.138	0.114	0.166	0.139	0.168	0.193	0.141	0.184	0.161	0.132	0.147	0.144	0.139
6040/	0.161	0.157	0.158	0.157	0.176	0.147	0.153	0.165	0.191	0.18	0.19	0.165	0.19	0.166	0.171	0.149	0.11	0.149	0.169	0.166	0.152	0.192	0.15	0.187	0.166	0.169	0.158	0.159	0.169	0.171	0.184	0.118	0.135	0.153	0.164	0.118	0.175	0.168	0.111	0.122	0.137	0.171	0.207	0.148	0.127	0.13	0.113	0.102	0.131	0.144	0.143	0.132	0.122	0.128	0.106	0.135	0.126	0.13	0.151	0.136	0.123	0.136	0.11	0.16	0.15	0.148	0.128	0.131	0.136	0.137	0.146	0.12	0.12	0.143
6044/	0.165	0.173	0.169	0.192	0.175	0.159	0.15	0.177	0.199	0.177	0.168	0.176	0.178	0.165	0.186	0.186	0.196	0.194	0.165	0.148	0.189	0.189	0.194	0.196	0.158	0.17	0.146	0.165	0.197	0.185	0.214	0.271	0.157	0.165	0.159	0.136	0.19	0.176	0.132	0.152	0.143	0.175	0.203	0.163	0.169	0.12	0.146	0.115	0.138	0.155	0.182	0.137	0.153	0.147	0.136	0.139	0.129	0.136	0.151	0.161	0.141	0.145	0.163	0.169	0.141	0.161	0.136	0.153	0.168	0.191	0.139	0.148	0.131	0.152
6045/	0.162	0.143	0.164	0.152	0.187	0.142	0.132	0.15	0.19	0.16	0.162	0.154	0.165	0.159	0.169	0.167	0.14	0.153	0.143	0.156	0.159	0.172	0.133	0.176	0.145	0.159	0.146	0.13	0.163	0.155	0.184	0.162	0.15	0.157	0.156	0.091	0.157	0.168	0.114	0.124	0.119	0.157	0.186	0.137	0.135	0.121	0.123	0.115	0.119	0.152	0.146	0.133	0.138	0.119	0.124	0.117	0.133	0.14	0.122	0.129	0.118	0.137	0.125	0.147	0.128	0.178	0.117	0.102	0.118	0.149	0.125	0.128	0.116	0.119
6050/	0.235	0.23	0.248	0.456	0.405	0.337	0.338	0.185	0.238	0.358	0.243	0.468	0.296	0.263	0.384	0.452	0.266	0.182	0.238	0.291	0.386	0.404	0.23	0.205	0.24	0.304	0.358	0.264	0.309	0.313	0.249	0.248	0.211	0.243	0.292	0.166	0.243	0.25	0.244	0.16	0.195	0.218	0.298	0.349	0.308	0.203	0.256	0.517	0.377	0.324	0.364	0.382	0.347	0.393	0.252	0.267	0.249	0.437	0.221	0.183	0.442	0.225	0.211	0.162	0.297	0.271	0.434	0.507	0.348	0.201	0.29	0.196	0.242	0.168
6057/	0.151	0.14	0.171	0.176	0.199	0.175	0.136	0.147	0.184	0.128	0.195	0.182	0.175	0.169	0.19	0.167	0.139	0.148	0.161	0.157	0.164	0.17	0.165	0.188	0.166	0.167	0.154	0.154	0.17	0.184	0.219	0.0	0.171	0.182	0.138	0.125	0.187	0.173	0.152	0.133	0.122	0.141	0.182	0.128	0.128	0.129	0.148	0.109	0.121	0.114	0.165	0.134	0.15	0.139	0.131	0.131	0.139	0.129	0.14	0.144	0.127	0.115	0.143	0.144	0.135	0.156	0.123	0.123	0.119	0.127	0.129	0.159	0.125	0.143
6058/	0.145	0.166	0.185	0.147	0.168	0.145	0.145	0.144	0.181	0.13	0.176	0.178	0.168	0.177	0.182	0.163	0.147	0.199	0.178	0.174	0.173	0.168	0.157	0.176	0.177	0.162	0.164	0.181	0.186	0.181	0.193	0.102	0.15	0.173	0.12	0.119	0.177	0.172	0.121	0.125	0.146	0.151	0.18	0.139	0.147	0.118	0.146	0.108	0.12	0.124	0.149	0.134	0.139	0.129	0.119	0.128	0.138	0.129	0.149	0.129	0.136	0.14	0.151	0.143	0.135	0.184	0.133	0.134	0.121	0.125	0.153	0.134	0.131	0.105
6060/	0.147	0.143	0.162	0.142	0.175	0.137	0.151	0.143	0.153	0.158	0.154	0.151	0.161	0.171	0.171	0.154	0.141	0.177	0.152	0.143	0.172	0.168	0.14	0.185	0.163	0.157	0.142	0.146	0.171	0.171	0.181	0.109	0.282	0.174	0.142	0.122	0.164	0.151	0.109	0.113	0.139	0.137	0.184	0.14	0.132	0.111	0.132	0.102	0.118	0.114	0.134	0.133	0.131	0.116	0.141	0.134	0.116	0.126	0.109	0.121	0.128	0.147	0.119	0.133	0.132	0.171	0.125	0.118	0.134	0.134	0.131	0.137	0.117	0.145
6102/	0.156	0.15	0.154	0.14	0.168	0.136	0.119	0.14	0.188	0.17	0.155	0.148	0.177	0.164	0.165	0.154	0.172	0.18	0.169	0.155	0.157	0.161	0.128	0.184	0.145	0.139	0.144	0.137	0.152	0.16	0.207	0.165	0.133	0.156	0.132	0.131	0.153	0.15	0.103	0.11	0.124	0.157	0.176	0.137	0.129	0.114	0.099	0.101	0.122	0.108	0.144	0.128	0.131	0.134	0.146	0.132	0.117	0.147	0.119	0.115	0.11	0.136	0.137	0.151	0.131	0.139	0.12	0.125	0.133	0.127	0.162	0.132	0.123	0.144
6103/	0.16	0.158	0.159	0.158	0.158	0.144	0.146	0.132	0.184	0.156	0.164	0.172	0.172	0.17	0.163	0.169	0.151	0.164	0.158	0.156	0.155	0.166	0.16	0.172	0.163	0.164	0.143	0.16	0.169	0.162	0.183	0.142	0.146	0.173	0.139	0.135	0.165	0.172	0.108	0.107	0.123	0.168	0.171	0.143	0.138	0.099	0.133	0.106	0.122	0.126	0.142	0.119	0.135	0.146	0.152	0.116	0.133	0.144	0.137	0.122	0.114	0.12	0.134	0.162	0.135	0.155	0.137	0.128	0.145	0.168	0.118	0.118	0.126	0.139
6105/	0.165	0.148	0.163	0.159	0.16	0.155	0.138	0.137	0.183	0.133	0.171	0.172	0.173	0.167	0.179	0.161	0.123	0.192	0.173	0.163	0.161	0.178	0.12	0.182	0.162	0.161	0.15	0.153	0.161	0.166	0.202	0.167	0.166	0.155	0.114	0.132	0.177	0.163	0.123	0.104	0.122	0.159	0.201	0.142	0.131	0.112	0.112	0.099	0.111	0.145	0.151	0.126	0.131	0.131	0.139	0.12	0.145	0.133	0.123	0.11	0.131	0.152	0.14	0.151	0.132	0.15	0.129	0.122	0.12	0.128	0.134	0.13	0.12	0.132
6138/	0.18	0.15	0.171	0.164	0.193	0.153	0.147	0.166	0.194	0.179	0.199	0.17	0.17	0.148	0.157	0.171	0.129	0.164	0.174	0.164	0.168	0.192	0.155	0.187	0.176	0.167	0.166	0.146	0.172	0.173	0.196	0.096	0.14	0.173	0.158	0.134	0.172	0.169	0.099	0.106	0.143	0.17	0.191	0.152	0.141	0.142	0.112	0.11	0.133	0.159	0.143	0.16	0.165	0.125	0.175	0.137	0.141	0.136	0.126	0.148	0.129	0.14	0.138	0.156	0.137	0.169	0.131	0.138	0.123	0.156	0.156	0.134	0.127	0.13
6149/	0.153	0.162	0.17	0.152	0.174	0.151	0.147	0.171	0.201	0.147	0.18	0.143	0.187	0.143	0.174	0.164	0.116	0.158	0.165	0.149	0.155	0.183	0.164	0.188	0.169	0.159	0.161	0.15	0.169	0.176	0.196	0.161	0.145	0.176	0.153	0.116	0.177	0.167	0.119	0.109	0.133	0.173	0.209	0.143	0.136	0.123	0.114	0.091	0.108	0.116	0.146	0.141	0.138	0.137	0.134	0.119	0.14	0.125	0.111	0.122	0.122	0.128	0.11	0.157	0.119	0.159	0.13	0.137	0.11	0.145	0.128	0.112	0.121	0.113
6162/	0.178	0.166	0.164	0.173	0.201	0.15	0.159	0.152	0.179	0.148	0.145	0.166	0.169	0.192	0.165	0.158	0.122	0.159	0.151	0.167	0.17	0.164	0.132	0.17	0.156	0.147	0.15	0.162	0.154	0.169	0.177	0.127	0.145	0.163	0.139	0.108	0.188	0.176	0.112	0.138	0.131	0.166	0.174	0.158	0.145	0.121	0.134	0.113	0.122	0.155	0.155	0.122	0.126	0.131	0.137	0.128	0.142	0.14	0.144	0.136	0.143	0.126	0.134	0.15	0.131	0.159	0.133	0.122	0.128	0.157	0.154	0.143	0.125	0.147
6163/	0.16	0.155	0.157	0.17	0.173	0.143	0.139	0.145	0.189	0.209	0.164	0.154	0.241	0.175	0.173	0.167	0.113	0.146	0.174	0.158	0.154	0.17	0.13	0.212	0.176	0.176	0.177	0.159	0.163	0.178	0.194	0.112	0.188	0.163	0.124	0.103	0.171	0.171	0.126	0.098	0.128	0.18	0.197	0.156	0.123	0.129	0.113	0.1	0.105	0.113	0.153	0.125	0.149	0.131	0.134	0.123	0.15	0.125	0.135	0.123	0.126	0.127	0.114	0.137	0.127	0.133	0.126	0.111	0.119	0.138	0.136	0.116	0.129	0.141
6165/	0.163	0.168	0.173	0.166	0.201	0.149	0.121	0.146	0.182	0.149	0.178	0.167	0.173	0.17	0.182	0.166	0.14	0.138	0.155	0.165	0.17	0.162	0.133	0.2	0.158	0.155	0.153	0.162	0.165	0.168	0.224	0.164	0.152	0.161	0.126	0.113	0.192	0.165	0.133	0.124	0.146	0.165	0.197	0.142	0.139	0.126	0.134	0.096	0.117	0.142	0.15	0.153	0.135	0.129	0.122	0.13	0.153	0.142	0.127	0.114	0.135	0.138	0.149	0.157	0.154	0.142	0.143	0.137	0.133	0.111	0.14	0.147	0.128	0.14
6167/	0.179	0.174	0.154	0.157	0.205	0.17	0.136	0.152	0.175	0.145	0.185	0.163	0.175	0.171	0.179	0.17	0.129	0.12	0.166	0.152	0.187	0.186	0.146	0.197	0.177	0.172	0.166	0.154	0.149	0.194	0.217	0.163	0.138	0.159	0.107	0.116	0.181	0.18	0.102	0.132	0.112	0.169	0.213	0.163	0.126	0.118	0.114	0.097	0.108	0.135	0.154	0.134	0.139	0.131	0.139	0.126	0.14	0.116	0.135	0.123	0.143	0.166	0.113	0.149	0.121	0.156	0.135	0.132	0.112	0.135	0.145	0.129	0.127	0.143
6199/	0.187	0.21	0.256	0.201	0.203	0.177	0.16	0.18	0.211	0.176	0.213	0.2	0.255	0.225	0.223	0.219	0.162	0.182	0.224	0.184	0.202	0.225	0.232	0.248	0.226	0.19	0.181	0.229	0.229	0.219	0.234	0.115	0.213	0.218	0.226	0.163	0.234	0.188	0.167	0.136	0.155	0.229	0.267	0.192	0.203	0.184	0.18	0.143	0.146	0.17	0.146	0.174	0.145	0.184	0.177	0.152	0.193	0.158	0.162	0.162	0.171	0.155	0.163	0.205	0.164	0.183	0.2	0.161	0.17	0.173	0.189	0.161	0.164	0.194
6226/	0.14	0.148	0.162	0.144	0.167	0.164	0.143	0.151	0.208	0.158	0.165	0.16	0.143	0.147	0.162	0.159	0.138	0.167	0.15	0.152	0.165	0.177	0.149	0.19	0.166	0.154	0.15	0.163	0.152	0.169	0.185	0.139	0.164	0.192	0.167	0.119	0.176	0.167	0.114	0.143	0.116	0.158	0.171	0.156	0.123	0.119	0.138	0.113	0.127	0.154	0.146	0.133	0.131	0.124	0.132	0.123	0.123	0.124	0.116	0.131	0.16	0.109	0.133	0.15	0.124	0.165	0.128	0.112	0.128	0.126	0.13	0.158	0.123	0.125
6227/	0.165	0.15	0.139	0.146	0.175	0.139	0.133	0.135	0.173	0.168	0.158	0.159	0.153	0.16	0.17	0.149	0.135	0.175	0.156	0.148	0.165	0.175	0.127	0.167	0.156	0.149	0.15	0.146	0.16	0.167	0.186	0.108	0.14	0.151	0.15	0.113	0.173	0.151	0.103	0.095	0.118	0.148	0.202	0.144	0.122	0.136	0.101	0.106	0.115	0.137	0.152	0.121	0.13	0.112	0.099	0.109	0.126	0.135	0.131	0.123	0.123	0.166	0.117	0.141	0.134	0.153	0.129	0.114	0.126	0.151	0.133	0.128	0.117	0.118
6228/	0.146	0.159	0.162	0.171	0.179	0.136	0.137	0.145	0.182	0.155	0.178	0.173	0.2	0.168	0.173	0.161	0.181	0.14	0.169	0.155	0.166	0.175	0.15	0.177	0.15	0.158	0.155	0.154	0.17	0.154	0.205	0.186	0.156	0.173	0.17	0.13	0.17	0.153	0.145	0.104	0.145	0.161	0.178	0.143	0.136	0.148	0.113	0.093	0.127	0.138	0.137	0.139	0.144	0.136	0.143	0.129	0.134	0.136	0.163	0.123	0.143	0.143	0.136	0.159	0.135	0.157	0.132	0.136	0.138	0.126	0.145	0.128	0.126	0.111
6229/	0.152	0.163	0.16	0.181	0.192	0.135	0.134	0.137	0.183	0.174	0.157	0.179	0.16	0.171	0.175	0.157	0.148	0.166	0.145	0.158	0.175	0.181	0.156	0.185	0.149	0.146	0.151	0.148	0.171	0.169	0.221	0.185	0.177	0.179	0.145	0.139	0.175	0.166	0.127	0.136	0.136	0.148	0.208	0.152	0.137	0.136	0.128	0.106	0.139	0.18	0.155	0.155	0.133	0.132	0.106	0.12	0.121	0.14	0.137	0.146	0.139	0.157	0.137	0.168	0.125	0.158	0.125	0.129	0.138	0.149	0.138	0.138	0.127	0.139
6291/	0.207	0.18	0.159	0.164	0.218	0.154	0.132	0.149	0.199	0.181	0.188	0.176	0.187	0.198	0.186	0.179	0.126	0.2	0.183	0.174	0.172	0.189	0.145	0.204	0.168	0.191	0.153	0.152	0.174	0.157	0.24	0.149	0.138	0.167	0.113	0.113	0.205	0.167	0.098	0.123	0.152	0.201	0.191	0.167	0.126	0.118	0.152	0.115	0.132	0.133	0.139	0.145	0.158	0.138	0.137	0.143	0.115	0.139	0.134	0.119	0.165	0.177	0.18	0.166	0.144	0.151	0.136	0.135	0.123	0.143	0.168	0.143	0.141	0.139
6347/	0.149	0.165	0.169	0.15	0.17	0.149	0.14	0.135	0.201	0.168	0.17	0.186	0.177	0.195	0.179	0.155	0.143	0.198	0.163	0.15	0.181	0.181	0.164	0.182	0.152	0.168	0.149	0.139	0.146	0.154	0.222	0.137	0.147	0.164	0.128	0.118	0.183	0.169	0.124	0.139	0.128	0.16	0.18	0.142	0.131	0.129	0.127	0.103	0.131	0.13	0.181	0.144	0.128	0.133	0.117	0.135	0.142	0.136	0.14	0.152	0.136	0.154	0.148	0.14	0.134	0.159	0.134	0.12	0.129	0.141	0.139	0.141	0.127	0.125
6348/	0.156	0.162	0.173	0.143	0.149	0.149	0.155	0.152	0.187	0.151	0.162	0.156	0.17	0.173	0.18	0.17	0.164	0.172	0.15	0.137	0.163	0.172	0.123	0.169	0.14	0.158	0.134	0.155	0.169	0.154	0.19	0.117	0.152	0.169	0.141	0.101	0.167	0.172	0.105	0.116	0.121	0.142	0.178	0.158	0.146	0.127	0.135	0.131	0.117	0.136	0.153	0.144	0.137	0.14	0.103	0.123	0.135	0.122	0.114	0.134	0.127	0.135	0.15	0.156	0.137	0.172	0.142	0.139	0.141	0.133	0.143	0.134	0.128	0.164
6503/	0.186	0.15	0.173	0.184	0.158	0.145	0.138	0.148	0.181	0.184	0.167	0.165	0.17	0.163	0.175	0.163	0.157	0.201	0.152	0.142	0.161	0.164	0.182	0.182	0.15	0.166	0.154	0.179	0.2	0.172	0.204	0.134	0.19	0.184	0.15	0.13	0.184	0.174	0.113	0.151	0.154	0.17	0.221	0.15	0.164	0.118	0.152	0.104	0.126	0.143	0.167	0.126	0.114	0.129	0.152	0.125	0.151	0.138	0.133	0.119	0.125	0.153	0.145	0.156	0.132	0.172	0.138	0.133	0.145	0.158	0.137	0.149	0.131	0.129
6512/	0.169	0.158	0.218	0.172	0.204	0.167	0.166	0.155	0.189	0.198	0.194	0.178	0.237	0.171	0.207	0.211	0.138	0.158	0.18	0.175	0.178	0.213	0.173	0.228	0.211	0.181	0.179	0.187	0.194	0.198	0.223	0.283	0.199	0.216	0.144	0.167	0.188	0.199	0.141	0.134	0.15	0.173	0.215	0.157	0.156	0.148	0.171	0.127	0.132	0.135	0.167	0.15	0.173	0.176	0.181	0.167	0.158	0.151	0.144	0.181	0.15	0.146	0.152	0.157	0.165	0.182	0.142	0.139	0.155	0.122	0.163	0.148	0.144	0.178
6613/	0.151	0.161	0.182	0.156	0.178	0.152	0.13	0.146	0.18	0.179	0.179	0.176	0.174	0.168	0.167	0.156	0.172	0.155	0.163	0.155	0.163	0.163	0.179	0.168	0.169	0.164	0.15	0.166	0.174	0.169	0.192	0.199	0.173	0.175	0.143	0.136	0.196	0.18	0.117	0.114	0.136	0.163	0.197	0.161	0.152	0.126	0.123	0.107	0.124	0.132	0.133	0.137	0.129	0.135	0.133	0.137	0.126	0.139	0.133	0.142	0.138	0.127	0.146	0.147	0.134	0.16	0.15	0.124	0.136	0.162	0.138	0.128	0.125	0.143
6636/	0.287	0.221	0.271	0.162	0.259	0.092	0.0	0.32	0.19	0.223	0.314	0.151	0.137	0.187	0.251	0.278	0.523	0.509	0.201	0.418	0.287	0.296	0.297	0.29	0.282	0.403	0.294	0.333	0.209	0.248	0.585	0.0	0.668	0.312	0.322	0.486	0.183	0.307	0.144	0.0	0.529	0.176	0.337	0.206	0.261	0.292	0.204	0.271	0.143	0.194	0.201	0.35	0.306	0.261	0.152	0.247	0.159	0.253	0.163	0.225	0.363	0.345	0.403	0.188	0.27	0.279	0.357	0.272	0.171	0.806	0.227	0.171	0.254	0.231
6685/	0.258	0.447	0.208	0.23	0.171	0.145	0.197	0.26	0.194	0.0	0.226	0.239	0.502	0.292	0.247	0.238	0.229	0.39	0.265	0.266	0.195	0.246	0.35	0.368	0.221	0.221	0.281	0.202	0.22	0.243	0.315	0.227	0.247	0.223	0.233	0.274	0.243	0.219	0.622	0.0	0.186	0.417	0.262	0.233	0.196	0.175	0.632	0.224	0.232	0.202	0.346	0.313	0.183	0.233	0.206	0.219	0.235	0.256	0.193	0.133	0.234	0.0	0.278	0.204	0.246	0.0	0.2	0.231	0.182	0.211	0.381	0.229	0.231	0.178
6712/	0.194	0.165	0.178	0.187	0.226	0.196	0.171	0.156	0.201	0.162	0.176	0.262	0.195	0.228	0.214	0.2	0.131	0.149	0.178	0.181	0.179	0.187	0.152	0.223	0.198	0.185	0.204	0.182	0.182	0.199	0.233	0.101	0.175	0.172	0.131	0.129	0.203	0.222	0.133	0.16	0.129	0.157	0.219	0.14	0.139	0.127	0.122	0.099	0.136	0.132	0.148	0.143	0.143	0.162	0.169	0.166	0.155	0.128	0.139	0.137	0.154	0.249	0.144	0.182	0.157	0.166	0.167	0.131	0.127	0.153	0.155	0.142	0.14	0.156
6730/	0.166	0.177	0.188	0.168	0.183	0.165	0.125	0.143	0.199	0.154	0.171	0.167	0.187	0.17	0.177	0.171	0.162	0.185	0.162	0.147	0.157	0.178	0.121	0.191	0.161	0.149	0.137	0.147	0.171	0.163	0.189	0.168	0.156	0.172	0.144	0.15	0.164	0.158	0.163	0.125	0.133	0.166	0.187	0.154	0.145	0.117	0.139	0.095	0.126	0.161	0.147	0.125	0.139	0.14	0.13	0.128	0.147	0.129	0.141	0.14	0.126	0.126	0.132	0.155	0.139	0.166	0.139	0.115	0.131	0.157	0.133	0.129	0.12	0.144
6731/	0.185	0.166	0.154	0.164	0.195	0.151	0.125	0.149	0.19	0.166	0.201	0.17	0.17	0.186	0.186	0.168	0.13	0.172	0.172	0.163	0.185	0.181	0.146	0.193	0.164	0.169	0.164	0.153	0.157	0.175	0.234	0.15	0.142	0.188	0.172	0.12	0.164	0.184	0.127	0.114	0.134	0.176	0.21	0.156	0.134	0.124	0.119	0.109	0.124	0.163	0.142	0.148	0.136	0.143	0.151	0.129	0.133	0.143	0.136	0.136	0.136	0.141	0.107	0.154	0.15	0.137	0.128	0.134	0.127	0.161	0.141	0.12	0.133	0.127
6732/	0.169	0.152	0.149	0.154	0.186	0.152	0.145	0.151	0.191	0.15	0.182	0.169	0.183	0.179	0.182	0.192	0.17	0.163	0.153	0.153	0.17	0.172	0.165	0.206	0.161	0.16	0.158	0.177	0.178	0.177	0.237	0.201	0.173	0.185	0.159	0.111	0.178	0.183	0.111	0.125	0.142	0.161	0.222	0.145	0.141	0.116	0.155	0.111	0.115	0.172	0.171	0.146	0.149	0.148	0.127	0.127	0.149	0.14	0.156	0.14	0.126	0.139	0.142	0.166	0.144	0.169	0.139	0.126	0.147	0.17	0.149	0.139	0.127	0.146
6738/	0.161	0.135	0.177	0.162	0.169	0.143	0.131	0.169	0.204	0.157	0.18	0.159	0.17	0.147	0.155	0.163	0.155	0.183	0.143	0.148	0.151	0.173	0.131	0.171	0.152	0.155	0.148	0.144	0.174	0.164	0.194	0.155	0.151	0.156	0.131	0.123	0.168	0.162	0.107	0.13	0.139	0.151	0.177	0.159	0.147	0.126	0.135	0.11	0.119	0.138	0.15	0.126	0.126	0.129	0.131	0.123	0.124	0.129	0.12	0.118	0.15	0.126	0.136	0.145	0.135	0.177	0.136	0.131	0.139	0.119	0.146	0.132	0.124	0.134
6741/	0.146	0.147	0.156	0.158	0.186	0.143	0.135	0.155	0.201	0.164	0.18	0.166	0.168	0.172	0.162	0.158	0.153	0.19	0.157	0.158	0.181	0.186	0.14	0.17	0.156	0.167	0.136	0.143	0.15	0.164	0.18	0.161	0.143	0.154	0.143	0.139	0.157	0.16	0.115	0.111	0.136	0.156	0.197	0.139	0.121	0.115	0.119	0.104	0.123	0.141	0.167	0.13	0.125	0.12	0.154	0.123	0.131	0.132	0.111	0.11	0.136	0.113	0.124	0.149	0.144	0.138	0.131	0.125	0.115	0.137	0.131	0.134	0.114	0.118
6752/	0.148	0.243	0.222	0.331	0.187	0.241	0.0	0.0	0.0	0.0	0.237	0.274	0.184	0.233	0.194	0.231	0.205	0.146	0.248	0.267	0.473	0.126	0.383	0.233	0.227	0.339	0.265	0.203	0.177	0.227	0.248	0.092	0.035	0.287	0.307	0.046	0.361	0.354	0.274	0.076	0.307	0.315	0.274	0.25	0.195	0.23	0.065	0.284	0.105	0.309	0.101	0.212	0.175	0.162	0.208	0.195	0.235	0.243	0.15	0.301	0.587	0.1	0.183	0.192	0.206	0.117	0.256	0.176	0.136	0.175	0.309	0.0	0.296	0.059
6802/	0.181	0.155	0.202	0.192	0.212	0.152	0.159	0.153	0.214	0.177	0.188	0.171	0.205	0.193	0.179	0.185	0.129	0.172	0.152	0.164	0.166	0.185	0.153	0.209	0.174	0.177	0.167	0.161	0.17	0.182	0.202	0.09	0.162	0.173	0.205	0.133	0.167	0.169	0.15	0.153	0.127	0.161	0.188	0.13	0.134	0.141	0.139	0.1	0.125	0.158	0.142	0.124	0.135	0.137	0.12	0.125	0.13	0.154	0.11	0.126	0.136	0.149	0.143	0.16	0.138	0.16	0.122	0.127	0.139	0.126	0.155	0.133	0.127	0.159
6863/	0.182	0.164	0.17	0.16	0.237	0.147	0.126	0.159	0.167	0.16	0.183	0.189	0.176	0.175	0.189	0.172	0.152	0.122	0.162	0.167	0.185	0.202	0.162	0.189	0.174	0.174	0.175	0.179	0.179	0.176	0.198	0.182	0.172	0.178	0.146	0.129	0.171	0.191	0.106	0.13	0.14	0.184	0.205	0.164	0.14	0.154	0.13	0.112	0.115	0.15	0.161	0.142	0.136	0.143	0.18	0.135	0.132	0.132	0.13	0.127	0.151	0.129	0.125	0.15	0.147	0.162	0.13	0.122	0.13	0.154	0.15	0.137	0.129	0.151
6888/	0.151	0.155	0.169	0.163	0.183	0.142	0.149	0.165	0.182	0.153	0.174	0.169	0.162	0.18	0.187	0.173	0.144	0.148	0.141	0.143	0.166	0.167	0.142	0.184	0.16	0.16	0.162	0.153	0.173	0.176	0.173	0.156	0.127	0.169	0.188	0.131	0.175	0.161	0.127	0.128	0.123	0.142	0.184	0.143	0.145	0.149	0.105	0.11	0.119	0.151	0.149	0.135	0.139	0.144	0.147	0.129	0.114	0.131	0.13	0.147	0.139	0.14	0.141	0.139	0.134	0.156	0.146	0.124	0.154	0.156	0.139	0.127	0.125	0.131
6908/	0.16	0.17	0.136	0.16	0.178	0.165	0.147	0.16	0.172	0.165	0.158	0.166	0.177	0.168	0.186	0.165	0.157	0.175	0.162	0.145	0.187	0.181	0.177	0.202	0.171	0.165	0.144	0.155	0.149	0.166	0.213	0.213	0.136	0.204	0.145	0.113	0.177	0.166	0.122	0.102	0.122	0.165	0.205	0.157	0.132	0.115	0.142	0.104	0.121	0.132	0.145	0.139	0.159	0.141	0.196	0.121	0.137	0.139	0.141	0.149	0.147	0.145	0.149	0.146	0.148	0.174	0.158	0.136	0.138	0.128	0.138	0.152	0.14	0.121
6909/	0.169	0.152	0.147	0.146	0.17	0.144	0.145	0.173	0.182	0.159	0.179	0.167	0.185	0.158	0.165	0.155	0.12	0.159	0.171	0.16	0.157	0.173	0.154	0.196	0.164	0.156	0.156	0.15	0.128	0.182	0.176	0.226	0.156	0.162	0.148	0.108	0.166	0.161	0.16	0.108	0.13	0.162	0.194	0.141	0.129	0.135	0.126	0.106	0.119	0.126	0.164	0.137	0.136	0.124	0.106	0.13	0.156	0.142	0.129	0.132	0.122	0.134	0.132	0.162	0.137	0.152	0.132	0.13	0.124	0.17	0.134	0.122	0.127	0.134
6955/	0.157	0.157	0.143	0.143	0.166	0.141	0.125	0.143	0.165	0.168	0.185	0.162	0.181	0.156	0.164	0.154	0.167	0.153	0.164	0.157	0.172	0.189	0.168	0.15	0.161	0.156	0.147	0.153	0.14	0.164	0.178	0.159	0.122	0.175	0.14	0.104	0.169	0.181	0.121	0.119	0.119	0.152	0.216	0.137	0.117	0.114	0.131	0.094	0.113	0.113	0.119	0.122	0.121	0.122	0.131	0.125	0.143	0.135	0.118	0.121	0.128	0.127	0.143	0.139	0.128	0.173	0.126	0.11	0.107	0.138	0.121	0.134	0.122	0.12
6957/	0.161	0.147	0.164	0.136	0.166	0.155	0.141	0.14	0.149	0.137	0.162	0.152	0.196	0.158	0.174	0.166	0.128	0.18	0.161	0.148	0.159	0.167	0.14	0.18	0.159	0.15	0.152	0.138	0.144	0.153	0.224	0.142	0.14	0.147	0.132	0.14	0.15	0.152	0.112	0.104	0.119	0.145	0.163	0.137	0.131	0.126	0.134	0.1	0.103	0.115	0.156	0.114	0.13	0.125	0.138	0.118	0.135	0.153	0.138	0.128	0.143	0.156	0.138	0.151	0.133	0.194	0.112	0.119	0.134	0.157	0.129	0.121	0.108	0.134
6958/	0.178	0.15	0.168	0.181	0.176	0.143	0.13	0.148	0.21	0.13	0.179	0.187	0.194	0.153	0.181	0.167	0.136	0.138	0.186	0.174	0.177	0.169	0.156	0.189	0.182	0.173	0.164	0.172	0.162	0.176	0.198	0.085	0.156	0.186	0.135	0.132	0.198	0.181	0.122	0.123	0.137	0.16	0.227	0.135	0.122	0.12	0.12	0.094	0.133	0.12	0.147	0.119	0.127	0.136	0.14	0.121	0.119	0.137	0.114	0.128	0.128	0.125	0.108	0.135	0.121	0.165	0.132	0.114	0.115	0.145	0.129	0.137	0.12	0.131
6964/	0.154	0.167	0.147	0.167	0.179	0.138	0.155	0.143	0.196	0.159	0.183	0.166	0.186	0.18	0.18	0.161	0.157	0.208	0.172	0.15	0.161	0.168	0.113	0.193	0.169	0.157	0.168	0.153	0.163	0.167	0.178	0.172	0.134	0.168	0.146	0.14	0.17	0.18	0.14	0.105	0.132	0.159	0.183	0.144	0.127	0.126	0.126	0.096	0.124	0.118	0.13	0.13	0.131	0.141	0.155	0.127	0.124	0.141	0.115	0.146	0.117	0.13	0.126	0.154	0.14	0.147	0.128	0.134	0.121	0.154	0.13	0.127	0.118	0.137
6965/	0.15	0.161	0.152	0.144	0.186	0.146	0.129	0.144	0.198	0.173	0.183	0.148	0.163	0.153	0.165	0.159	0.141	0.172	0.154	0.154	0.168	0.175	0.137	0.17	0.161	0.147	0.162	0.163	0.146	0.157	0.19	0.084	0.151	0.16	0.138	0.125	0.166	0.162	0.108	0.126	0.127	0.18	0.18	0.151	0.123	0.133	0.117	0.106	0.119	0.13	0.129	0.129	0.123	0.135	0.135	0.112	0.142	0.135	0.117	0.114	0.13	0.129	0.118	0.146	0.132	0.146	0.141	0.112	0.106	0.1	0.133	0.127	0.121	0.143
6983/	0.162	0.146	0.149	0.152	0.153	0.165	0.142	0.139	0.171	0.139	0.158	0.168	0.177	0.16	0.165	0.156	0.124	0.167	0.136	0.15	0.173	0.171	0.135	0.175	0.147	0.159	0.145	0.132	0.162	0.156	0.166	0.167	0.138	0.147	0.179	0.136	0.155	0.136	0.109	0.148	0.125	0.155	0.201	0.138	0.144	0.1	0.127	0.096	0.118	0.125	0.141	0.132	0.133	0.126	0.105	0.124	0.141	0.136	0.114	0.129	0.135	0.112	0.144	0.149	0.131	0.149	0.133	0.125	0.129	0.143	0.126	0.119	0.115	0.139
6985/	0.198	0.178	0.158	0.155	0.231	0.134	0.136	0.151	0.19	0.155	0.172	0.173	0.154	0.168	0.176	0.155	0.132	0.172	0.169	0.155	0.147	0.164	0.155	0.188	0.156	0.16	0.155	0.164	0.152	0.18	0.205	0.146	0.144	0.156	0.106	0.106	0.189	0.167	0.135	0.115	0.137	0.162	0.173	0.15	0.128	0.118	0.152	0.09	0.134	0.139	0.145	0.133	0.149	0.136	0.127	0.138	0.146	0.146	0.118	0.153	0.125	0.162	0.12	0.151	0.128	0.159	0.141	0.13	0.123	0.221	0.146	0.135	0.13	0.131
7041/	0.05	0.024	0.011	0.097	0.047	0.0	0.0	0.0	0.0	0.0	0.018	0.059	0.1	0.073	0.093	0.028	0.015	0.018	0.019	0.029	0.043	0.017	0.022	0.061	0.101	0.057	0.059	0.044	0.06	0.005	0.038	0.0	0.029	0.015	0.0	0.291	0.238	0.007	0.036	0.036	0.12	0.034	0.378	0.011	0.053	0.011	0.021	0.064	0.039	0.19	0.023	0.072	0.025	0.043	0.142	0.064	0.008	0.073	0.021	0.153	0.021	0.0	0.0	0.062	0.004	0.0	0.084	0.04	0.039	0.035	0.012	0.052	0.028	0.011
7055/	0.063	0.193	0.089	0.0	0.063	0.124	0.167	0.13	0.187	0.0	0.129	0.0	0.0	0.0	0.175	0.099	0.0	0.0	0.151	0.18	0.022	0.023	0.01	0.0	0.195	0.095	0.111	0.164	0.129	0.189	0.0	0.063	0.0	0.0	0.0	0.0	0.171	0.051	0.0	0.0	0.0	0.124	0.073	0.019	0.12	0.228	0.0	0.0	0.0	0.057	0.043	0.0	0.101	0.174	0.066	0.213	0.195	0.251	0.09	0.022	0.015	0.0	0.0	0.0	0.242	0.162	0.14	0.0	0.152	0.045	0.154	0.243	0.176	0.0
7105/	0.181	0.142	0.178	0.188	0.219	0.164	0.145	0.148	0.205	0.139	0.174	0.191	0.19	0.172	0.202	0.196	0.158	0.154	0.17	0.156	0.155	0.179	0.15	0.19	0.176	0.183	0.153	0.176	0.208	0.205	0.21	0.108	0.157	0.185	0.14	0.093	0.198	0.196	0.127	0.128	0.13	0.157	0.195	0.145	0.15	0.13	0.143	0.113	0.119	0.145	0.154	0.135	0.132	0.145	0.157	0.133	0.158	0.139	0.116	0.133	0.138	0.146	0.139	0.182	0.139	0.179	0.13	0.129	0.142	0.188	0.129	0.126	0.127	0.139
7106/	0.161	0.135	0.146	0.138	0.156	0.15	0.128	0.148	0.187	0.132	0.168	0.15	0.178	0.171	0.166	0.166	0.12	0.126	0.162	0.173	0.161	0.168	0.123	0.168	0.152	0.159	0.171	0.142	0.164	0.176	0.189	0.125	0.144	0.15	0.149	0.114	0.183	0.163	0.139	0.116	0.127	0.152	0.179	0.134	0.124	0.143	0.092	0.096	0.123	0.14	0.162	0.143	0.121	0.123	0.113	0.129	0.147	0.126	0.136	0.142	0.112	0.145	0.121	0.134	0.126	0.145	0.115	0.107	0.118	0.115	0.137	0.123	0.114	0.165
7108/	0.18	0.163	0.167	0.17	0.191	0.147	0.134	0.141	0.194	0.15	0.178	0.163	0.209	0.181	0.2	0.167	0.13	0.151	0.165	0.164	0.167	0.197	0.145	0.201	0.176	0.186	0.158	0.165	0.162	0.184	0.224	0.159	0.159	0.184	0.116	0.126	0.192	0.175	0.133	0.13	0.129	0.155	0.204	0.146	0.13	0.132	0.12	0.101	0.107	0.143	0.159	0.142	0.179	0.149	0.144	0.134	0.161	0.143	0.15	0.123	0.14	0.159	0.173	0.153	0.14	0.174	0.13	0.121	0.134	0.139	0.14	0.133	0.119	0.141
7118/	0.16	0.044	0.0	0.097	0.0	0.0	0.0	0.0	0.0	0.0	0.0	0.163	0.256	0.158	0.16	0.077	0.221	0.151	0.122	0.041	0.0	0.0	0.062	0.132	0.063	0.158	0.0	0.319	0.132	0.0	0.043	0.026	0.183	0.123	0.168	0.193	0.133	0.183	0.174	0.185	0.172	0.085	0.131	0.0	0.118	0.0	0.203	0.147	0.178	0.045	0.0	0.206	0.314	0.059	0.244	0.0	0.116	0.062	0.171	0.179	0.0	0.291	0.06	0.156	0.0	0.0	0.239	0.15	0.062	0.008	0.0	0.197	0.205	0.196
7148/	0.081	0.0	0.038	0.06	0.117	0.06	0.051	0.061	0.0	0.0	0.0	0.021	0.027	0.032	0.097	0.057	0.03	0.021	0.041	0.0	0.0	0.0	0.298	0.104	0.13	0.119	0.078	0.174	0.075	0.0	0.088	0.073	0.033	0.214	0.086	0.157	0.134	0.261	0.023	0.0	0.128	0.0	0.234	0.0	0.188	0.036	0.024	0.023	0.037	0.165	0.0	0.049	0.062	0.101	0.0	0.115	0.0	0.025	0.027	0.0	0.0	0.044	0.149	0.116	0.0	0.11	0.057	0.06	0.114	0.058	0.0	0.0	0.126	0.049
7151/	0.163	0.147	0.15	0.159	0.196	0.146	0.132	0.146	0.171	0.151	0.165	0.172	0.176	0.176	0.16	0.163	0.115	0.173	0.153	0.149	0.174	0.178	0.162	0.185	0.147	0.152	0.145	0.146	0.151	0.188	0.17	0.127	0.142	0.157	0.145	0.135	0.18	0.172	0.125	0.14	0.126	0.147	0.178	0.145	0.141	0.137	0.15	0.099	0.119	0.142	0.144	0.14	0.143	0.129	0.11	0.13	0.136	0.145	0.142	0.133	0.131	0.172	0.118	0.148	0.143	0.149	0.127	0.113	0.121	0.127	0.136	0.131	0.118	0.127
7152/	0.17	0.149	0.191	0.157	0.198	0.141	0.125	0.126	0.175	0.157	0.168	0.166	0.168	0.155	0.179	0.175	0.164	0.188	0.169	0.151	0.166	0.173	0.138	0.164	0.15	0.158	0.163	0.153	0.159	0.179	0.213	0.136	0.136	0.168	0.149	0.132	0.177	0.163	0.148	0.121	0.141	0.165	0.21	0.143	0.145	0.136	0.133	0.107	0.119	0.15	0.147	0.134	0.13	0.14	0.091	0.116	0.144	0.133	0.121	0.119	0.149	0.167	0.12	0.135	0.128	0.143	0.137	0.109	0.135	0.163	0.144	0.135	0.121	0.131
7163/	0.167	0.169	0.136	0.166	0.181	0.15	0.151	0.155	0.192	0.156	0.176	0.17	0.179	0.189	0.168	0.161	0.174	0.175	0.148	0.15	0.196	0.214	0.181	0.183	0.148	0.164	0.143	0.134	0.132	0.157	0.191	0.183	0.128	0.181	0.152	0.12	0.168	0.186	0.136	0.115	0.132	0.169	0.192	0.153	0.136	0.114	0.114	0.115	0.125	0.155	0.184	0.157	0.141	0.137	0.12	0.125	0.122	0.135	0.151	0.204	0.144	0.129	0.126	0.167	0.14	0.173	0.131	0.14	0.119	0.177	0.141	0.135	0.13	0.144
7168/	0.186	0.171	0.163	0.169	0.194	0.158	0.143	0.156	0.213	0.138	0.188	0.169	0.187	0.189	0.182	0.169	0.149	0.112	0.17	0.161	0.179	0.182	0.184	0.222	0.161	0.175	0.153	0.165	0.184	0.202	0.204	0.196	0.144	0.162	0.132	0.133	0.189	0.183	0.114	0.144	0.157	0.172	0.22	0.149	0.133	0.128	0.109	0.117	0.119	0.143	0.164	0.132	0.133	0.128	0.116	0.131	0.131	0.151	0.13	0.119	0.136	0.146	0.125	0.171	0.137	0.167	0.142	0.128	0.136	0.138	0.146	0.129	0.14	0.148
7170/	0.175	0.157	0.167	0.143	0.163	0.15	0.148	0.154	0.203	0.162	0.173	0.18	0.183	0.196	0.186	0.164	0.133	0.142	0.173	0.158	0.183	0.17	0.136	0.205	0.163	0.164	0.148	0.153	0.148	0.164	0.197	0.128	0.162	0.184	0.155	0.103	0.189	0.182	0.107	0.131	0.124	0.178	0.188	0.136	0.12	0.124	0.139	0.104	0.117	0.127	0.162	0.134	0.15	0.136	0.156	0.129	0.132	0.13	0.123	0.132	0.141	0.131	0.104	0.145	0.128	0.145	0.132	0.125	0.114	0.151	0.137	0.133	0.133	0.123
7206/	0.179	0.163	0.145	0.177	0.204	0.141	0.124	0.132	0.195	0.187	0.168	0.168	0.187	0.153	0.185	0.173	0.113	0.153	0.159	0.146	0.155	0.169	0.168	0.192	0.156	0.169	0.153	0.156	0.147	0.161	0.198	0.076	0.154	0.17	0.117	0.117	0.157	0.175	0.133	0.105	0.121	0.164	0.209	0.136	0.118	0.101	0.141	0.097	0.116	0.14	0.174	0.126	0.158	0.125	0.109	0.112	0.133	0.116	0.113	0.103	0.116	0.13	0.106	0.14	0.124	0.154	0.123	0.113	0.115	0.174	0.128	0.122	0.115	0.095
7207/	0.162	0.144	0.144	0.156	0.195	0.155	0.127	0.135	0.18	0.179	0.165	0.178	0.195	0.177	0.174	0.169	0.14	0.138	0.167	0.172	0.165	0.166	0.139	0.19	0.166	0.161	0.151	0.157	0.155	0.182	0.208	0.087	0.148	0.167	0.121	0.137	0.166	0.169	0.143	0.131	0.13	0.169	0.185	0.146	0.116	0.119	0.119	0.091	0.109	0.117	0.144	0.142	0.134	0.122	0.092	0.13	0.143	0.125	0.148	0.123	0.135	0.134	0.101	0.152	0.127	0.148	0.127	0.105	0.118	0.151	0.134	0.126	0.121	0.123
7229/	0.155	0.15	0.163	0.185	0.174	0.133	0.132	0.154	0.197	0.188	0.18	0.167	0.156	0.17	0.183	0.159	0.125	0.119	0.162	0.169	0.16	0.173	0.152	0.177	0.182	0.173	0.157	0.161	0.167	0.164	0.213	0.057	0.165	0.179	0.168	0.126	0.176	0.191	0.109	0.142	0.142	0.166	0.205	0.134	0.133	0.148	0.114	0.106	0.125	0.133	0.122	0.146	0.151	0.148	0.129	0.131	0.121	0.13	0.137	0.153	0.113	0.123	0.117	0.155	0.136	0.146	0.131	0.12	0.138	0.129	0.152	0.131	0.129	0.148
7230/	0.187	0.154	0.191	0.172	0.191	0.153	0.123	0.141	0.187	0.165	0.183	0.183	0.227	0.176	0.189	0.186	0.184	0.146	0.169	0.164	0.165	0.197	0.174	0.219	0.182	0.174	0.176	0.174	0.186	0.204	0.214	0.101	0.194	0.175	0.173	0.124	0.189	0.174	0.129	0.127	0.137	0.181	0.222	0.167	0.159	0.137	0.159	0.115	0.126	0.117	0.132	0.127	0.115	0.15	0.153	0.135	0.156	0.129	0.135	0.14	0.133	0.116	0.116	0.151	0.138	0.178	0.14	0.128	0.154	0.143	0.155	0.141	0.131	0.142
7286/	0.181	0.152	0.161	0.158	0.165	0.141	0.139	0.133	0.177	0.165	0.178	0.158	0.16	0.163	0.182	0.167	0.168	0.131	0.166	0.166	0.168	0.183	0.169	0.173	0.159	0.167	0.153	0.161	0.161	0.167	0.215	0.095	0.158	0.183	0.166	0.136	0.185	0.179	0.107	0.105	0.131	0.163	0.186	0.147	0.124	0.102	0.113	0.11	0.121	0.11	0.121	0.12	0.137	0.13	0.141	0.122	0.131	0.152	0.131	0.121	0.131	0.119	0.141	0.146	0.133	0.165	0.12	0.116	0.109	0.133	0.118	0.128	0.127	0.112
7287/	0.133	0.15	0.165	0.146	0.193	0.137	0.135	0.135	0.177	0.198	0.172	0.146	0.15	0.165	0.166	0.153	0.124	0.181	0.161	0.155	0.172	0.173	0.198	0.183	0.15	0.151	0.138	0.158	0.143	0.166	0.193	0.094	0.152	0.16	0.167	0.101	0.146	0.15	0.135	0.108	0.123	0.169	0.165	0.146	0.114	0.106	0.115	0.113	0.115	0.114	0.128	0.132	0.12	0.123	0.113	0.109	0.131	0.129	0.113	0.122	0.137	0.114	0.121	0.143	0.136	0.159	0.116	0.103	0.114	0.13	0.128	0.123	0.117	0.111
7289/	0.153	0.162	0.16	0.146	0.221	0.152	0.149	0.156	0.178	0.147	0.165	0.177	0.168	0.179	0.186	0.171	0.162	0.19	0.151	0.138	0.167	0.174	0.144	0.184	0.149	0.152	0.125	0.155	0.167	0.162	0.175	0.106	0.167	0.166	0.134	0.109	0.163	0.175	0.126	0.136	0.125	0.157	0.178	0.154	0.135	0.135	0.156	0.117	0.13	0.14	0.159	0.142	0.148	0.14	0.124	0.117	0.129	0.121	0.131	0.147	0.134	0.132	0.12	0.149	0.134	0.16	0.127	0.127	0.127	0.134	0.126	0.123	0.112	0.135
7290/	0.169	0.168	0.143	0.185	0.175	0.16	0.142	0.137	0.194	0.154	0.167	0.189	0.179	0.182	0.181	0.167	0.195	0.182	0.15	0.144	0.17	0.174	0.164	0.166	0.155	0.168	0.128	0.152	0.159	0.156	0.193	0.147	0.162	0.182	0.137	0.149	0.171	0.177	0.116	0.131	0.131	0.165	0.175	0.152	0.136	0.119	0.143	0.109	0.135	0.145	0.162	0.147	0.164	0.146	0.11	0.117	0.147	0.132	0.144	0.146	0.134	0.124	0.116	0.155	0.137	0.16	0.131	0.13	0.136	0.145	0.142	0.14	0.124	0.141
7293/	0.181	0.146	0.149	0.17	0.186	0.154	0.155	0.135	0.178	0.169	0.174	0.156	0.158	0.165	0.17	0.165	0.146	0.128	0.157	0.159	0.178	0.188	0.178	0.2	0.175	0.166	0.148	0.168	0.154	0.175	0.178	0.11	0.148	0.169	0.128	0.099	0.176	0.179	0.099	0.104	0.126	0.175	0.185	0.138	0.118	0.102	0.112	0.105	0.121	0.128	0.139	0.125	0.148	0.122	0.17	0.137	0.141	0.123	0.132	0.123	0.126	0.114	0.129	0.138	0.118	0.148	0.128	0.116	0.117	0.129	0.121	0.127	0.122	0.11
7321/	0.158	0.16	0.152	0.157	0.16	0.138	0.123	0.134	0.18	0.16	0.183	0.157	0.176	0.152	0.159	0.148	0.153	0.173	0.165	0.143	0.161	0.182	0.14	0.184	0.165	0.157	0.157	0.153	0.166	0.161	0.188	0.161	0.153	0.154	0.127	0.095	0.165	0.165	0.132	0.145	0.121	0.178	0.203	0.15	0.13	0.117	0.114	0.1	0.109	0.095	0.132	0.138	0.133	0.122	0.122	0.126	0.142	0.114	0.154	0.132	0.133	0.118	0.12	0.151	0.14	0.153	0.13	0.112	0.133	0.131	0.141	0.123	0.116	0.142
7341/	0.16	0.156	0.14	0.161	0.191	0.148	0.12	0.133	0.189	0.163	0.163	0.175	0.185	0.166	0.188	0.157	0.122	0.166	0.165	0.156	0.162	0.177	0.136	0.178	0.171	0.167	0.159	0.139	0.139	0.177	0.204	0.059	0.126	0.172	0.12	0.11	0.189	0.173	0.112	0.114	0.126	0.16	0.198	0.143	0.12	0.131	0.108	0.101	0.125	0.162	0.139	0.147	0.146	0.138	0.141	0.122	0.144	0.142	0.155	0.172	0.117	0.145	0.124	0.155	0.134	0.155	0.143	0.128	0.128	0.159	0.167	0.134	0.124	0.124
7359/	0.093	0.0	0.078	0.101	0.174	0.038	0.0	0.0	0.0	0.0	0.081	0.105	0.019	0.196	0.117	0.108	0.0	0.0	0.0	0.102	0.0	0.0	0.0	0.029	0.084	0.176	0.112	0.171	0.17	0.016	0.069	0.105	0.096	0.0	0.0	0.0	0.0	0.0	0.03	0.065	0.229	0.0	0.0	0.032	0.203	0.028	0.054	0.0	0.161	0.0	0.0	0.16	0.308	0.136	0.0	0.171	0.0	0.0	0.0	0.0	0.0	0.071	0.036	0.071	0.057	0.0	0.216	0.112	0.158	0.023	0.024	0.0	0.0	0.159
7366/	0.19	0.154	0.149	0.159	0.172	0.142	0.13	0.154	0.21	0.146	0.177	0.171	0.177	0.159	0.172	0.16	0.168	0.129	0.164	0.181	0.151	0.183	0.169	0.202	0.162	0.159	0.163	0.157	0.159	0.17	0.19	0.083	0.144	0.174	0.121	0.101	0.191	0.167	0.121	0.127	0.141	0.158	0.197	0.129	0.131	0.123	0.112	0.096	0.125	0.133	0.143	0.129	0.135	0.127	0.142	0.137	0.133	0.134	0.126	0.128	0.125	0.149	0.121	0.153	0.132	0.148	0.146	0.114	0.128	0.156	0.126	0.118	0.122	0.128
7367/	0.156	0.141	0.169	0.168	0.19	0.14	0.132	0.14	0.182	0.16	0.181	0.166	0.165	0.185	0.176	0.152	0.157	0.153	0.146	0.158	0.158	0.182	0.159	0.175	0.153	0.152	0.148	0.156	0.15	0.18	0.21	0.175	0.162	0.173	0.158	0.113	0.172	0.17	0.138	0.114	0.145	0.16	0.179	0.148	0.124	0.168	0.103	0.103	0.111	0.147	0.125	0.133	0.137	0.129	0.109	0.129	0.109	0.124	0.131	0.12	0.12	0.124	0.11	0.149	0.131	0.145	0.125	0.124	0.113	0.106	0.132	0.14	0.129	0.175
7368/	0.173	0.156	0.163	0.149	0.181	0.156	0.152	0.141	0.182	0.16	0.171	0.151	0.176	0.17	0.185	0.174	0.165	0.167	0.161	0.161	0.155	0.175	0.142	0.178	0.152	0.146	0.145	0.147	0.161	0.163	0.198	0.114	0.128	0.158	0.151	0.138	0.168	0.182	0.134	0.121	0.141	0.164	0.177	0.165	0.135	0.121	0.148	0.115	0.12	0.184	0.127	0.119	0.146	0.142	0.17	0.127	0.143	0.137	0.134	0.135	0.12	0.147	0.132	0.161	0.137	0.158	0.134	0.129	0.135	0.16	0.129	0.144	0.135	0.134
7515/	0.149	0.46	0.28	0.456	0.021	0.354	0.192	0.136	0.0	0.0	0.399	0.479	0.248	0.545	0.205	0.454	0.298	0.43	0.359	0.211	0.804	0.215	0.37	0.35	0.174	0.31	0.165	0.282	0.553	0.106	0.611	0.404	0.455	0.547	0.289	0.159	0.518	0.317	0.707	0.0	0.467	0.175	0.481	0.336	0.497	0.0	0.265	0.326	1.13	0.535	0.0	0.376	0.075	0.565	0.028	0.201	0.373	0.157	0.381	0.834	0.498	0.013	0.53	0.164	0.243	0.201	0.355	0.656	0.358	0.718	0.0	0.507	0.389	0.601
7516/	0.157	0.152	0.167	0.154	0.205	0.148	0.149	0.145	0.171	0.134	0.178	0.167	0.194	0.158	0.174	0.184	0.134	0.149	0.153	0.146	0.162	0.16	0.134	0.189	0.158	0.142	0.146	0.155	0.163	0.179	0.202	0.138	0.145	0.168	0.159	0.112	0.172	0.181	0.142	0.123	0.141	0.168	0.213	0.142	0.134	0.122	0.149	0.109	0.123	0.126	0.163	0.15	0.159	0.156	0.125	0.123	0.137	0.13	0.131	0.146	0.138	0.144	0.117	0.187	0.143	0.162	0.125	0.128	0.147	0.147	0.131	0.128	0.122	0.143
7576/	0.166	0.25	0.0	0.136	0.26	0.265	0.221	0.257	0.304	0.283	0.17	0.201	0.198	0.27	0.276	0.338	0.168	0.226	0.189	0.209	0.279	0.244	0.245	0.192	0.234	0.234	0.278	0.338	0.188	0.293	0.246	0.262	0.61	0.26	0.119	0.27	0.222	0.292	0.153	0.193	0.21	0.156	0.245	0.28	0.228	0.431	0.22	0.176	0.166	0.182	0.0	0.268	0.414	0.197	0.111	0.251	0.132	0.186	0.177	0.226	0.237	0.0	0.189	0.161	0.231	0.226	0.321	0.184	0.154	0.134	0.23	0.167	0.214	0.0
7581/	0.227	0.248	0.203	0.225	0.203	0.22	0.135	0.195	0.269	0.333	0.268	0.216	0.232	0.245	0.216	0.192	0.202	0.126	0.208	0.235	0.257	0.354	0.35	0.218	0.234	0.248	0.217	0.246	0.167	0.221	0.217	0.0	0.153	0.253	0.244	0.157	0.228	0.219	0.217	0.202	0.184	0.258	0.248	0.321	0.181	0.151	0.162	0.129	0.304	0.316	0.27	0.183	0.247	0.185	0.232	0.181	0.235	0.169	0.178	0.213	0.428	0.122	0.289	0.205	0.238	0.398	0.206	0.166	0.185	0.113	0.214	0.191	0.186	0.257
7620/	0.356	0.251	0.225	0.282	0.174	0.216	0.178	0.172	0.123	0.095	0.407	0.2	0.231	0.209	0.236	0.305	0.137	0.166	0.238	0.267	0.181	0.236	0.313	0.346	0.222	0.271	0.265	0.473	0.239	0.268	0.399	0.444	0.257	0.263	0.245	0.163	0.183	0.225	0.186	0.445	0.234	0.223	0.173	0.401	0.404	0.333	0.459	0.093	0.221	0.178	0.312	0.169	0.087	0.256	0.149	0.209	0.212	0.168	0.167	0.2	0.28	0.276	0.225	0.316	0.246	0.141	0.514	0.172	0.159	0.17	0.286	0.164	0.24	0.0
7636/	0.092	0.232	0.102	0.104	0.172	0.254	0.193	0.166	0.146	0.0	0.122	0.098	0.0	0.255	0.09	0.167	0.145	0.061	0.13	0.11	0.106	0.145	0.4	0.137	0.244	0.131	0.101	0.111	0.11	0.11	0.167	0.0	0.0	0.026	0.152	0.098	0.136	0.184	0.168	0.067	0.107	0.231	0.035	0.06	0.094	0.035	0.08	0.086	0.115	0.142	0.0	0.167	0.078	0.125	0.117	0.154	0.15	0.124	0.125	0.114	0.159	0.028	0.057	0.05	0.104	0.0	0.113	0.071	0.11	0.0	0.041	0.259	0.165	0.0
7690/	0.18	0.152	0.144	0.169	0.196	0.156	0.14	0.156	0.185	0.159	0.17	0.18	0.172	0.191	0.175	0.168	0.139	0.178	0.162	0.156	0.169	0.168	0.152	0.182	0.156	0.159	0.155	0.164	0.157	0.177	0.234	0.148	0.135	0.167	0.128	0.125	0.178	0.154	0.115	0.127	0.136	0.178	0.193	0.149	0.14	0.118	0.114	0.102	0.124	0.13	0.136	0.138	0.135	0.126	0.107	0.129	0.132	0.142	0.143	0.155	0.134	0.126	0.125	0.147	0.123	0.16	0.143	0.117	0.117	0.157	0.15	0.133	0.125	0.111
7802/	0.158	0.147	0.173	0.16	0.192	0.166	0.173	0.167	0.195	0.155	0.175	0.162	0.17	0.187	0.182	0.172	0.134	0.18	0.155	0.164	0.181	0.183	0.158	0.172	0.163	0.163	0.151	0.166	0.165	0.176	0.174	0.14	0.141	0.153	0.156	0.122	0.192	0.176	0.113	0.105	0.14	0.169	0.174	0.148	0.146	0.121	0.134	0.109	0.129	0.149	0.17	0.139	0.153	0.143	0.131	0.132	0.146	0.13	0.137	0.136	0.143	0.123	0.123	0.155	0.145	0.169	0.141	0.137	0.123	0.159	0.14	0.135	0.134	0.134
7803/	0.149	0.169	0.171	0.156	0.176	0.148	0.155	0.164	0.232	0.112	0.184	0.171	0.196	0.168	0.183	0.166	0.148	0.168	0.181	0.161	0.167	0.186	0.136	0.189	0.154	0.166	0.158	0.16	0.159	0.182	0.211	0.25	0.161	0.163	0.196	0.138	0.177	0.167	0.108	0.13	0.131	0.178	0.183	0.137	0.141	0.148	0.129	0.098	0.115	0.128	0.133	0.129	0.149	0.142	0.131	0.137	0.146	0.126	0.129	0.111	0.129	0.113	0.144	0.145	0.139	0.144	0.126	0.124	0.131	0.152	0.149	0.139	0.124	0.137
7831/	0.183	0.105	0.147	0.122	0.158	0.079	0.101	0.088	0.0	0.0	0.164	0.097	0.147	0.071	0.112	0.13	0.149	0.134	0.108	0.125	0.07	0.242	0.101	0.087	0.114	0.144	0.137	0.138	0.133	0.13	0.044	0.056	0.092	0.136	0.112	0.11	0.082	0.076	0.181	0.024	0.1	0.145	0.098	0.224	0.181	0.209	0.136	0.103	0.064	0.053	0.144	0.099	0.12	0.18	0.112	0.141	0.068	0.139	0.107	0.083	0.116	0.102	0.058	0.077	0.114	0.087	0.187	0.165	0.156	0.031	0.0	0.128	0.104	0.087
7895/	0.181	0.148	0.153	0.15	0.187	0.161	0.164	0.15	0.185	0.195	0.16	0.148	0.175	0.172	0.162	0.157	0.136	0.182	0.161	0.145	0.154	0.162	0.141	0.179	0.155	0.154	0.161	0.16	0.154	0.155	0.196	0.023	0.151	0.169	0.17	0.132	0.154	0.162	0.109	0.122	0.129	0.147	0.185	0.14	0.13	0.132	0.136	0.12	0.121	0.116	0.16	0.135	0.176	0.131	0.112	0.133	0.129	0.131	0.113	0.119	0.127	0.133	0.142	0.143	0.123	0.167	0.123	0.119	0.136	0.158	0.152	0.138	0.126	0.161
7904/	0.193	0.151	0.145	0.19	0.211	0.154	0.137	0.14	0.177	0.142	0.186	0.201	0.209	0.209	0.192	0.184	0.146	0.12	0.19	0.166	0.2	0.176	0.229	0.2	0.188	0.172	0.17	0.188	0.168	0.199	0.234	0.165	0.179	0.163	0.101	0.105	0.187	0.199	0.115	0.142	0.123	0.181	0.198	0.135	0.116	0.111	0.14	0.102	0.111	0.131	0.15	0.131	0.149	0.129	0.157	0.133	0.131	0.124	0.146	0.106	0.161	0.121	0.133	0.146	0.132	0.173	0.121	0.109	0.116	0.116	0.139	0.137	0.132	0.118
7906/	0.17	0.171	0.156	0.16	0.157	0.145	0.131	0.148	0.169	0.141	0.18	0.16	0.175	0.164	0.184	0.184	0.127	0.13	0.171	0.169	0.178	0.167	0.119	0.201	0.182	0.166	0.161	0.157	0.165	0.177	0.212	0.249	0.188	0.158	0.105	0.153	0.163	0.167	0.117	0.142	0.13	0.182	0.196	0.142	0.123	0.127	0.131	0.108	0.125	0.155	0.149	0.147	0.152	0.138	0.108	0.134	0.139	0.135	0.135	0.121	0.132	0.177	0.152	0.16	0.145	0.164	0.143	0.126	0.132	0.146	0.135	0.118	0.123	0.16
7953/	0.163	0.15	0.16	0.144	0.197	0.135	0.127	0.132	0.168	0.13	0.161	0.144	0.146	0.166	0.162	0.157	0.111	0.151	0.153	0.151	0.164	0.166	0.149	0.182	0.154	0.156	0.145	0.134	0.153	0.174	0.159	0.226	0.148	0.159	0.127	0.121	0.168	0.162	0.118	0.108	0.116	0.161	0.169	0.16	0.125	0.119	0.11	0.097	0.116	0.135	0.123	0.131	0.158	0.126	0.138	0.125	0.13	0.12	0.132	0.126	0.128	0.145	0.115	0.142	0.133	0.152	0.112	0.117	0.118	0.147	0.132	0.134	0.127	0.145
7954/	0.156	0.157	0.169	0.145	0.177	0.141	0.138	0.132	0.175	0.163	0.166	0.163	0.187	0.151	0.178	0.164	0.121	0.134	0.154	0.137	0.17	0.183	0.141	0.178	0.159	0.151	0.134	0.136	0.145	0.164	0.212	0.099	0.153	0.154	0.13	0.114	0.177	0.156	0.139	0.109	0.114	0.145	0.189	0.146	0.121	0.108	0.123	0.099	0.116	0.12	0.16	0.123	0.13	0.122	0.12	0.124	0.109	0.125	0.135	0.135	0.123	0.134	0.166	0.127	0.127	0.136	0.124	0.114	0.119	0.157	0.138	0.131	0.119	0.146
7965/	0.186	0.232	0.186	0.231	0.389	0.0	0.0	0.136	0.0	0.0	0.216	0.221	0.276	0.283	0.22	0.134	0.169	0.227	0.216	0.174	0.29	0.138	0.202	0.221	0.216	0.224	0.179	0.17	0.209	0.161	0.0	0.0	0.222	0.236	0.252	0.204	0.211	0.217	0.276	0.0	0.218	0.258	0.264	0.328	0.149	0.151	0.167	0.19	0.268	0.203	0.0	0.194	0.19	0.201	0.106	0.159	0.143	0.16	0.154	0.15	0.234	0.202	0.151	0.201	0.198	0.0	0.194	0.199	0.2	0.0	0.105	0.087	0.214	0.138
8155/	0.155	0.162	0.167	0.158	0.182	0.128	0.124	0.139	0.186	0.166	0.168	0.172	0.164	0.172	0.162	0.151	0.16	0.155	0.154	0.15	0.179	0.182	0.154	0.167	0.16	0.154	0.144	0.158	0.17	0.171	0.185	0.101	0.199	0.17	0.145	0.131	0.166	0.167	0.112	0.141	0.131	0.164	0.167	0.157	0.137	0.137	0.118	0.131	0.113	0.126	0.151	0.142	0.133	0.119	0.12	0.129	0.128	0.121	0.142	0.143	0.146	0.126	0.117	0.136	0.133	0.174	0.133	0.118	0.117	0.162	0.157	0.129	0.133	0.154
8231/	0.149	0.163	0.154	0.154	0.186	0.147	0.136	0.14	0.191	0.176	0.174	0.18	0.198	0.193	0.182	0.171	0.127	0.198	0.172	0.156	0.174	0.178	0.175	0.193	0.159	0.15	0.17	0.18	0.16	0.174	0.202	0.081	0.158	0.167	0.111	0.138	0.17	0.163	0.12	0.132	0.121	0.187	0.185	0.146	0.127	0.138	0.128	0.104	0.128	0.125	0.154	0.14	0.139	0.139	0.108	0.136	0.154	0.13	0.13	0.123	0.133	0.156	0.151	0.155	0.138	0.158	0.126	0.129	0.12	0.151	0.141	0.133	0.123	0.143
8307/	0.243	0.284	0.251	0.357	0.315	0.313	0.328	0.308	0.0	0.0	0.295	0.383	0.458	0.338	0.347	0.335	0.291	0.323	0.207	0.449	0.231	0.22	0.204	0.221	0.202	0.458	0.395	0.393	0.324	0.379	0.24	0.241	0.151	0.201	0.221	0.213	0.188	0.209	0.207	0.374	0.323	0.368	0.172	0.36	0.454	0.617	0.314	0.234	0.364	0.196	0.0	0.304	0.21	0.437	0.286	0.378	0.127	0.4	0.203	0.229	0.201	0.379	0.258	0.184	0.324	0.156	0.358	0.288	0.235	0.333	0.482	0.182	0.209	0.199
8350/	0.202	0.284	0.204	0.251	0.239	0.382	0.139	0.176	0.219	0.0	0.204	0.455	0.189	0.269	0.213	0.277	0.076	0.14	0.186	0.233	0.414	0.472	0.39	0.413	0.219	0.228	0.259	0.177	0.27	0.316	0.307	0.352	0.418	0.294	0.206	0.191	0.277	0.246	0.148	0.197	0.207	0.331	0.324	0.425	0.184	0.265	0.124	0.156	0.317	0.474	0.182	0.237	0.227	0.176	0.351	0.171	0.18	0.16	0.192	0.332	0.491	0.136	0.154	0.195	0.347	0.325	0.188	0.157	0.137	0.261	0.331	0.232	0.198	0.154
