rh.aparc.a2009s.thickness	rh_G_and_S_frontomargin_thickness	rh_G_and_S_occipital_inf_thickness	rh_G_and_S_paracentral_thickness	rh_G_and_S_subcentral_thickness	rh_G_and_S_transv_frontopol_thickness	rh_G_and_S_cingul-Ant_thickness	rh_G_and_S_cingul-Mid-Ant_thickness	rh_G_and_S_cingul-Mid-Post_thickness	rh_G_cingul-Post-dorsal_thickness	rh_G_cingul-Post-ventral_thickness	rh_G_cuneus_thickness	rh_G_front_inf-Opercular_thickness	rh_G_front_inf-Orbital_thickness	rh_G_front_inf-Triangul_thickness	rh_G_front_middle_thickness	rh_G_front_sup_thickness	rh_G_Ins_lg_and_S_cent_ins_thickness	rh_G_insular_short_thickness	rh_G_occipital_middle_thickness	rh_G_occipital_sup_thickness	rh_G_oc-temp_lat-fusifor_thickness	rh_G_oc-temp_med-Lingual_thickness	rh_G_oc-temp_med-Parahip_thickness	rh_G_orbital_thickness	rh_G_pariet_inf-Angular_thickness	rh_G_pariet_inf-Supramar_thickness	rh_G_parietal_sup_thickness	rh_G_postcentral_thickness	rh_G_precentral_thickness	rh_G_precuneus_thickness	rh_G_rectus_thickness	rh_G_subcallosal_thickness	rh_G_temp_sup-G_T_transv_thickness	rh_G_temp_sup-Lateral_thickness	rh_G_temp_sup-Plan_polar_thickness	rh_G_temp_sup-Plan_tempo_thickness	rh_G_temporal_inf_thickness	rh_G_temporal_middle_thickness	rh_Lat_Fis-ant-Horizont_thickness	rh_Lat_Fis-ant-Vertical_thickness	rh_Lat_Fis-post_thickness	rh_Pole_occipital_thickness	rh_Pole_temporal_thickness	rh_S_calcarine_thickness	rh_S_central_thickness	rh_S_cingul-Marginalis_thickness	rh_S_circular_insula_ant_thickness	rh_S_circular_insula_inf_thickness	rh_S_circular_insula_sup_thickness	rh_S_collat_transv_ant_thickness	rh_S_collat_transv_post_thickness	rh_S_front_inf_thickness	rh_S_front_middle_thickness	rh_S_front_sup_thickness	rh_S_interm_prim-Jensen_thickness	rh_S_intrapariet_and_P_trans_thickness	rh_S_oc_middle_and_Lunatus_thickness	rh_S_oc_sup_and_transversal_thickness	rh_S_occipital_ant_thickness	rh_S_oc-temp_lat_thickness	rh_S_oc-temp_med_and_Lingual_thickness	rh_S_orbital_lateral_thickness	rh_S_orbital_med-olfact_thickness	rh_S_orbital-H_Shaped_thickness	rh_S_parieto_occipital_thickness	rh_S_pericallosal_thickness	rh_S_postcentral_thickness	rh_S_precentral-inf-part_thickness	rh_S_precentral-sup-part_thickness	rh_S_suborbital_thickness	rh_S_subparietal_thickness	rh_S_temporal_inf_thickness	rh_S_temporal_sup_thickness	rh_S_temporal_transverse_thickness	rh_MeanThickness_thickness
10398/	2.139	2.651	2.265	2.826	2.785	2.716	2.593	2.468	3.201	3.28	1.752	2.82	3.037	2.62	2.768	2.892	3.589	3.787	2.58	2.336	2.668	1.981	2.704	2.947	2.824	2.839	2.261	1.949	2.901	2.391	2.892	2.245	3.011	3.224	3.466	2.675	3.413	3.277	2.389	2.301	2.541	2.06	3.812	1.855	1.748	2.066	2.724	2.602	2.69	2.942	2.44	2.317	2.349	2.521	1.934	2.121	2.076	2.063	2.61	2.461	2.225	1.985	2.46	2.402	2.205	2.598	1.724	2.406	2.199	3.038	2.381	2.734	2.492	2.615	2.53093
10423/	2.317	2.189	2.258	2.826	2.632	2.807	2.613	2.492	2.874	2.477	1.803	2.702	2.599	2.903	2.696	2.883	3.222	3.393	2.398	2.419	2.649	1.985	2.456	2.459	2.438	2.626	2.287	2.088	2.559	2.565	3.231	2.338	2.205	2.858	3.25	2.172	2.737	2.824	2.736	3.467	2.161	2.177	2.833	1.877	1.847	1.942	2.671	2.531	2.584	2.944	1.955	2.053	2.284	2.281	1.896	1.886	1.959	2.123	1.956	2.308	2.059	2.336	2.81	2.158	2.183	1.968	1.772	2.228	2.068	4.129	2.237	2.353	2.175	2.058	2.37886
10524/	2.379	2.405	2.25	2.423	2.319	2.539	2.545	2.487	2.665	2.454	1.719	2.527	2.441	2.584	2.561	2.736	2.984	3.024	2.441	2.027	2.851	2.096	3.122	2.674	2.509	2.624	2.187	1.906	2.672	2.406	2.594	2.403	2.322	2.839	3.437	2.329	2.904	2.932	2.053	2.173	2.481	1.967	2.97	1.845	1.679	1.981	2.381	2.621	2.605	2.693	1.947	2.158	2.026	2.264	2.246	2.065	1.788	1.902	1.903	2.451	2.163	2.014	1.967	2.055	2.133	2.023	1.878	2.229	2.314	2.225	2.116	2.315	2.16	2.128	2.34858
10536/	2.306	2.73	2.165	2.691	2.503	2.484	2.566	2.532	2.75	3.146	1.814	2.748	2.769	2.899	2.673	2.757	3.474	3.355	2.641	2.213	2.751	2.123	3.155	2.832	2.778	2.781	2.36	2.176	2.898	2.421	2.568	2.609	2.541	3.324	3.033	2.468	2.963	3.288	2.506	2.662	2.308	2.071	3.245	1.886	1.938	2.016	2.736	2.487	2.467	3.465	2.21	2.078	2.161	2.299	2.019	1.946	2.181	2.093	2.368	2.497	2.443	2.066	1.987	2.241	2.186	1.95	1.983	2.318	2.13	2.033	1.98	2.606	2.531	2.479	2.46828
10547/	2.481	2.636	2.228	2.583	2.721	2.296	2.593	2.465	2.757	2.462	2.099	2.985	2.755	2.776	2.729	2.921	2.797	3.686	2.659	2.302	2.709	2.148	3.095	2.905	2.673	2.836	2.373	2.106	2.797	2.328	2.533	2.699	3.012	3.224	3.534	2.832	2.941	3.091	2.229	2.224	2.377	1.987	3.297	2.155	2.019	2.234	2.641	2.749	2.453	2.363	2.114	2.08	2.222	2.509	2.307	2.132	2.033	2.031	2.048	2.243	1.974	2.047	1.835	2.323	2.132	1.675	2.049	2.457	2.465	2.055	2.207	2.112	2.422	2.79	2.48106
10563/	2.104	2.495	2.345	3.064	2.582	2.951	3.147	3.038	3.024	3.041	1.783	2.845	2.916	2.906	2.847	3.122	3.729	3.703	2.819	2.345	2.942	2.073	3.093	2.817	2.773	2.916	2.487	2.105	3.1	2.576	3.211	2.315	2.659	3.295	3.153	2.741	3.387	3.422	2.352	2.413	2.669	2.076	3.366	1.904	2.162	2.501	3.132	3.171	2.541	3.011	2.259	2.33	2.044	2.552	2.399	2.173	1.918	2.212	2.299	2.618	2.483	2.189	2.298	2.354	2.283	2.072	1.934	2.709	2.568	2.884	2.799	2.889	2.775	3.22	2.6607
10566/	2.523	2.529	2.419	2.962	2.699	2.496	2.808	2.663	3.024	2.485	1.976	2.638	2.849	2.917	2.757	2.809	3.161	3.48	2.723	2.573	2.801	2.28	2.961	2.963	2.812	2.976	2.247	2.396	2.928	2.648	2.729	2.788	2.644	3.213	3.173	2.698	3.265	3.147	2.211	2.525	2.508	2.15	3.194	1.916	2.017	2.315	3.008	2.75	2.61	3.082	2.13	2.188	2.004	2.313	2.597	2.112	1.965	2.13	2.023	2.404	2.284	1.957	1.982	2.579	2.203	2.047	2.049	2.429	2.118	1.861	2.569	2.526	2.389	2.592	2.54149
10606/	2.443	2.475	2.095	2.821	2.909	2.809	2.499	2.631	3.118	3.047	1.8	2.93	2.477	2.744	2.598	2.751	3.17	3.451	2.665	2.268	2.863	1.751	3.069	2.731	2.661	2.775	2.256	1.993	2.539	2.411	2.866	2.622	2.177	3.139	3.627	2.411	3.044	3.178	2.311	2.452	2.38	1.967	3.249	1.713	1.683	2.252	3.054	2.974	2.726	2.815	2.24	2.354	2.425	2.523	1.946	1.922	2.136	1.93	2.148	2.474	2.166	2.314	2.523	2.351	2.027	2.484	2.036	2.343	2.166	2.957	2.418	2.808	2.543	2.848	2.4759
10620/	2.867	2.922	2.528	3.137	2.855	3.115	2.786	2.615	3.248	3.827	1.834	3.03	3.285	3.167	2.968	3.1	3.803	3.681	3.089	2.32	3.267	2.264	3.091	3.125	3.125	2.971	2.56	2.414	3.0	2.708	3.197	3.128	2.921	3.575	3.493	2.939	3.656	3.839	2.343	2.727	2.82	1.995	3.401	2.083	1.933	2.386	2.785	3.138	3.052	3.294	2.317	2.374	2.303	2.553	2.353	2.16	2.182	2.207	2.493	3.059	2.494	2.021	2.499	2.685	2.299	2.368	2.294	2.561	2.482	2.816	2.683	2.588	2.884	3.49	2.75658
10621/	2.394	2.852	2.279	2.642	2.586	2.563	2.431	2.526	2.638	2.936	1.933	2.67	2.732	2.598	2.584	2.67	2.929	3.417	2.499	2.333	2.583	2.023	3.261	2.558	2.693	2.625	2.348	2.265	2.75	2.396	2.773	3.635	2.447	3.109	3.091	2.54	3.162	3.118	1.857	2.725	2.275	2.052	3.257	1.707	1.963	1.992	2.511	2.661	2.621	2.971	2.206	2.116	2.091	2.405	1.975	2.016	2.234	1.845	2.213	2.642	2.282	2.212	2.19	2.084	2.197	1.933	2.088	2.475	2.341	2.09	2.387	2.56	2.404	3.1	2.44176
10667/	2.509	2.852	2.385	2.879	2.629	3.118	2.887	2.868	3.125	3.113	1.911	3.008	3.109	3.076	2.87	3.071	3.158	3.334	2.828	2.426	3.365	2.247	3.227	3.036	3.184	3.098	2.371	2.32	3.077	2.64	2.82	2.444	2.842	3.517	3.231	2.645	3.526	3.385	2.224	2.741	2.859	2.106	3.664	2.203	1.881	2.334	2.872	2.96	2.862	3.47	2.28	2.457	2.259	2.765	2.54	2.411	2.157	2.004	2.494	2.654	2.493	2.197	2.332	2.372	2.478	2.422	2.242	2.602	2.413	2.427	2.607	2.593	2.671	2.6	2.70871
10813/	2.304	2.791	2.211	3.09	3.047	2.977	2.913	2.879	3.021	3.228	2.145	3.081	3.001	2.699	2.801	3.1	3.39	3.609	2.881	2.388	2.959	2.597	3.282	3.17	2.836	3.082	2.446	2.286	2.907	2.651	3.193	3.183	2.668	3.105	3.18	2.528	3.318	3.346	2.618	2.801	2.465	1.952	3.067	2.334	1.844	2.495	3.662	2.754	2.847	2.76	2.068	2.426	2.427	2.536	2.325	2.086	2.107	2.316	2.816	2.619	2.698	2.532	2.411	2.551	2.39	2.504	2.05	2.626	2.384	2.213	2.541	2.734	2.631	2.39	2.67494
10903/	2.081	2.339	2.155	2.91	2.567	2.629	2.575	2.454	2.924	3.004	1.647	2.779	3.179	2.532	2.543	2.781	3.316	3.506	2.466	1.948	2.853	2.283	3.138	2.759	2.755	2.742	2.361	2.21	2.715	2.415	2.313	3.783	2.555	3.032	3.469	2.899	2.941	3.062	2.489	2.38	2.404	1.842	3.474	1.976	1.9	2.225	2.986	2.9	2.871	2.764	2.055	2.183	2.166	2.354	1.947	2.084	2.0	1.881	2.169	2.311	2.64	1.987	2.032	2.237	2.064	2.29	2.017	2.355	2.359	2.032	2.301	2.523	2.456	2.948	2.47784
10943/	2.664	2.49	2.365	2.921	3.288	3.009	3.055	2.93	3.102	3.431	1.923	3.067	2.932	3.049	2.945	3.203	3.835	3.812	2.693	2.439	2.814	2.14	3.324	3.331	2.755	3.074	2.543	2.445	2.787	2.632	2.747	3.328	2.718	3.388	2.999	2.892	3.017	3.457	2.209	2.559	2.933	2.124	3.465	2.13	1.92	2.451	2.736	3.445	2.817	2.729	2.356	2.67	2.499	2.543	2.434	2.147	2.172	2.379	2.461	2.289	2.321	2.584	2.46	3.306	2.348	2.644	2.172	2.666	2.399	2.827	2.553	2.736	2.576	2.684	2.70124
5202/	2.377	2.584	2.319	2.93	2.831	2.912	2.572	2.568	3.091	2.963	1.808	2.723	3.177	2.59	2.706	2.953	3.224	3.706	2.601	2.495	2.658	1.992	2.849	2.883	2.811	2.739	2.449	2.097	2.794	2.492	2.851	2.471	2.557	3.2	3.345	2.617	3.083	3.31	2.43	2.477	2.359	2.079	3.803	1.937	1.887	2.148	2.798	2.607	2.548	3.1	2.341	2.435	2.471	2.472	2.012	2.175	1.967	2.051	2.474	2.063	2.199	2.13	2.125	2.212	2.202	2.49	1.88	2.39	2.25	2.689	2.343	2.573	2.359	2.354	2.53038
5302/	2.565	2.267	2.071	2.797	3.023	2.897	2.906	2.603	2.936	2.801	1.858	2.869	3.092	2.616	2.906	3.125	3.266	3.143	2.769	2.297	2.669	2.13	3.008	3.343	2.626	2.756	2.37	2.14	2.836	2.398	2.736	2.731	2.382	3.096	3.302	2.586	2.892	3.272	2.67	2.693	2.428	2.079	3.646	2.096	1.921	2.122	3.001	2.71	2.655	2.918	1.518	2.61	2.535	2.816	1.969	2.01	1.783	1.929	2.429	1.853	2.22	2.257	2.618	3.006	2.221	2.38	1.938	2.396	2.465	2.912	2.355	2.124	2.361	2.556	2.55897
5305/	2.318	2.675	2.121	2.543	2.919	2.855	2.907	2.404	2.951	2.149	2.097	2.644	2.95	2.554	2.714	2.999	3.609	3.441	2.676	2.2	2.696	1.986	2.98	3.083	2.57	2.657	2.019	2.124	2.9	2.321	2.851	2.247	2.227	2.95	3.277	2.662	2.888	2.998	1.896	3.04	2.475	2.053	3.886	1.981	1.977	2.116	2.907	2.969	2.539	2.85	2.168	2.33	2.122	2.231	2.221	1.928	1.851	1.914	2.07	2.15	2.487	2.528	2.076	2.398	2.168	2.25	1.941	2.348	2.219	3.264	2.185	2.437	2.404	2.809	2.48873
5306/	2.222	2.931	2.147	2.644	2.883	2.756	3.132	2.82	2.979	2.731	1.662	2.787	2.845	2.478	2.887	3.005	3.584	3.678	2.658	2.051	2.679	2.043	2.983	3.097	2.688	2.851	2.297	2.18	2.689	2.608	3.045	2.565	2.546	3.114	2.507	2.538	3.027	3.183	2.053	2.074	2.501	2.001	3.028	2.009	1.795	2.218	3.058	2.517	2.768	2.881	2.285	2.268	2.225	2.218	2.393	2.087	2.255	2.017	2.316	2.493	2.048	2.575	2.272	2.685	2.094	2.712	2.279	2.407	2.282	2.075	2.283	2.65	2.336	3.322	2.51347
5464/	2.357	2.325	2.03	2.412	2.373	2.468	2.24	2.148	2.666	2.42	1.56	2.568	2.677	2.686	2.442	2.437	3.279	3.242	2.29	1.648	2.54	1.804	2.706	2.556	2.289	2.448	2.054	1.886	2.195	2.096	2.65	2.803	2.231	2.596	3.104	2.201	2.632	2.858	2.122	2.696	2.17	1.664	3.169	1.624	1.745	1.977	2.399	2.664	2.317	2.699	2.118	1.975	1.842	2.059	2.087	1.867	1.805	1.783	2.124	2.051	1.94	1.847	1.985	2.377	1.837	2.193	1.91	2.232	1.968	2.294	1.899	2.321	2.149	2.403	2.20179
5505/	2.555	2.502	2.302	3.041	2.762	3.076	3.053	2.598	2.942	2.827	1.75	3.173	2.992	2.814	2.898	3.14	3.524	3.761	2.539	2.178	2.902	2.291	2.952	3.077	2.674	2.714	2.39	2.158	2.786	2.384	2.969	3.159	2.607	3.178	3.564	2.595	2.657	3.26	2.214	3.468	2.632	2.084	3.025	1.941	1.795	2.151	3.3	3.027	2.691	2.942	2.264	2.331	2.455	2.663	1.922	2.143	2.169	2.051	2.417	2.402	2.359	2.219	2.154	2.661	2.087	2.205	1.965	2.476	2.269	2.476	2.294	2.229	2.323	2.57	2.56792
5506/	3.065	2.543	2.242	2.641	3.135	2.948	2.981	2.692	3.032	2.517	1.795	2.875	3.347	3.114	3.052	3.423	3.349	3.919	2.77	2.483	2.532	2.102	3.077	3.606	3.058	3.024	2.457	2.234	2.808	2.505	3.59	2.895	2.724	3.307	3.162	2.903	3.079	3.308	2.601	2.794	2.81	2.031	3.721	1.936	1.696	2.436	3.487	3.319	3.016	3.093	2.158	2.396	2.367	2.751	2.314	2.206	2.214	2.003	2.399	2.525	2.246	2.401	3.052	3.136	2.298	2.218	2.178	2.402	2.285	2.844	2.468	2.428	2.553	3.332	2.68345
5514/	2.762	3.119	2.594	3.199	3.142	3.091	3.143	2.911	3.248	3.122	2.027	3.152	3.315	3.2	3.035	3.471	3.975	3.966	2.9	2.584	2.863	2.159	3.159	3.38	3.061	3.276	2.629	2.484	3.23	2.706	3.032	2.582	2.707	3.502	3.402	2.934	3.473	3.505	2.579	2.413	2.923	2.223	3.907	2.12	1.985	2.379	3.07	2.897	2.931	3.0	2.486	2.486	2.354	2.772	2.439	2.506	2.377	2.438	2.47	3.046	2.57	2.392	2.689	2.881	2.495	2.551	2.411	3.015	2.61	3.506	2.784	2.663	2.592	2.881	2.83629
5515/	2.495	2.679	2.25	2.699	2.411	2.766	2.809	2.577	2.658	2.942	1.628	2.536	2.584	2.544	2.662	2.651	3.891	3.733	2.595	2.067	2.626	1.939	2.68	2.948	2.327	2.604	2.15	2.232	2.599	2.303	2.771	2.592	2.154	3.05	3.336	2.519	2.788	3.004	2.28	2.231	2.446	1.985	2.914	1.74	1.837	2.348	3.113	2.78	2.608	3.189	2.092	2.285	2.168	2.509	1.838	2.08	1.94	1.93	2.27	2.248	1.99	2.117	2.267	2.564	2.096	2.432	1.958	2.439	2.245	2.14	2.376	2.044	2.435	2.294	2.41341
5516/	2.189	2.654	2.08	2.653	2.401	2.524	2.637	2.456	2.702	3.039	1.748	2.391	2.595	2.282	2.517	2.738	2.799	3.404	2.555	2.179	2.721	2.147	3.287	2.628	2.591	2.781	2.084	2.042	2.428	2.203	2.356	2.328	2.172	2.91	3.169	2.351	2.98	3.067	1.813	2.019	2.215	2.071	3.412	1.751	1.809	2.094	2.587	2.314	2.202	2.98	2.255	2.147	1.974	2.179	2.166	1.782	2.023	1.932	2.04	2.346	2.478	2.481	2.037	2.473	2.077	2.542	1.818	2.276	2.166	2.324	2.119	2.702	2.279	2.21	2.37348
5518/	2.705	2.634	2.364	2.805	2.923	3.007	2.918	2.761	2.963	3.177	1.845	2.805	2.924	3.245	2.927	3.183	3.683	3.84	2.818	2.2	3.092	2.177	3.368	3.15	2.769	3.082	2.642	2.319	3.079	2.636	2.842	2.598	2.44	3.214	3.258	2.832	3.133	3.461	2.415	2.823	2.597	2.042	3.485	2.081	2.009	2.423	2.875	2.637	2.759	3.576	2.223	2.354	2.537	2.503	2.665	2.257	2.105	2.229	2.134	2.436	2.433	2.57	2.223	2.495	2.153	2.497	2.218	2.512	2.507	2.941	2.786	2.797	2.545	2.545	2.68006
5640/	2.388	2.286	2.326	2.525	2.28	2.631	2.727	2.527	2.3	3.215	1.999	2.836	3.073	2.792	2.631	2.832	3.519	3.281	2.826	2.425	2.911	2.022	2.798	2.679	2.913	2.803	2.532	2.522	2.966	2.452	2.651	2.712	2.314	3.302	3.097	2.679	2.998	2.988	2.648	2.315	2.487	2.119	2.919	1.999	2.086	2.032	2.541	2.832	2.432	2.389	1.857	2.174	2.009	2.438	2.323	2.206	2.019	2.08	2.286	2.102	1.975	2.242	2.023	2.368	2.217	2.287	2.102	2.542	2.299	2.223	2.44	2.049	2.323	2.495	2.49873
5649/	2.718	2.833	2.436	3.223	2.69	3.105	3.057	2.91	3.145	3.076	1.93	3.084	3.304	3.133	3.111	3.096	3.618	3.516	3.129	2.562	3.244	2.183	3.318	3.319	2.962	3.171	2.447	2.416	2.852	2.921	2.963	2.875	2.998	3.491	3.153	3.131	2.739	3.155	2.063	2.592	2.845	2.306	2.842	1.979	2.024	2.525	3.065	3.003	2.935	2.563	2.387	2.662	2.406	2.733	2.48	2.172	2.462	2.233	2.424	2.33	2.318	2.499	2.215	2.452	2.269	2.05	2.401	2.714	2.601	1.956	3.016	2.526	2.716	2.853	2.74393
5754/	3.095	2.642	2.129	3.043	3.049	2.871	2.868	2.458	3.091	3.226	1.827	2.924	3.232	2.985	2.863	3.094	3.268	3.715	2.599	2.23	2.891	2.148	2.853	3.048	2.835	2.85	2.284	2.061	2.628	2.608	2.932	2.534	2.412	3.218	3.337	2.695	3.054	3.139	2.595	2.661	2.586	2.008	2.758	1.835	1.767	2.345	3.466	2.757	2.782	2.878	1.979	2.424	2.437	2.499	2.399	2.089	2.077	2.031	2.393	2.464	2.251	2.75	2.497	2.488	2.243	2.127	1.927	2.598	2.352	2.939	2.506	2.369	2.486	3.352	2.56463
5755/	2.883	2.329	2.327	2.589	2.915	2.929	2.865	2.288	2.828	2.779	1.779	2.673	2.771	2.98	2.612	2.854	3.322	3.642	2.573	1.993	2.984	2.115	3.449	2.668	2.658	2.74	2.419	2.352	2.644	2.3	3.098	1.911	2.351	3.047	3.132	2.692	3.032	3.149	2.106	2.298	2.423	2.141	3.04	1.728	1.963	2.143	2.709	2.583	2.475	3.327	2.118	2.404	2.452	2.422	2.522	2.088	2.481	1.964	2.106	2.721	2.108	2.735	2.377	2.475	2.056	1.978	2.162	2.366	2.198	3.654	2.192	2.222	2.441	2.614	2.49217
5771/	2.571	2.806	2.309	2.923	2.641	2.912	2.758	2.634	2.78	3.055	2.003	3.006	2.954	2.971	2.958	3.015	3.971	3.652	2.87	2.635	2.842	2.237	3.339	3.198	3.029	2.908	2.489	2.453	3.037	2.61	3.06	3.083	2.711	3.189	3.164	2.722	3.39	3.135	2.506	2.295	2.683	2.183	2.99	2.027	2.071	2.449	3.217	2.974	2.848	2.565	2.289	2.585	2.313	2.658	2.11	2.2	2.389	2.349	2.517	2.44	2.382	2.598	2.726	2.505	2.411	2.07	2.206	2.684	2.406	2.1	2.377	2.479	2.582	2.563	2.66895
5798/	2.584	3.164	2.234	4.185	3.856	2.936	2.261	3.082	0.0	0.0	1.554	3.408	1.432	2.356	3.923	2.337	2.654	1.191	2.553	2.659	0.0	2.035	2.492	1.717	1.942	2.046	2.087	2.616	2.82	2.616	3.108	0.0	2.671	3.625	2.477	3.666	2.102	1.723	0.0	0.0	2.063	2.153	2.197	1.78	2.222	2.521	2.021	2.867	1.83	0.0	0.0	2.949	4.9	3.933	3.874	2.075	0.0	3.646	1.77	4.618	0.0	2.141	2.685	1.429	2.199	2.665	2.386	4.282	3.669	5.0	0.0	0.0	2.939	3.423	2.55434
5825/	2.525	2.903	2.354	2.73	2.362	2.367	2.534	2.262	2.648	2.731	2.388	2.817	2.421	2.267	2.457	2.819	3.275	3.436	2.738	2.503	2.586	2.247	2.626	2.667	2.714	2.724	2.518	2.231	2.589	2.396	2.632	2.571	2.623	3.089	2.594	2.572	2.915	3.113	2.078	2.247	2.362	2.275	2.544	1.895	1.892	2.281	2.37	2.753	2.466	2.226	2.0	1.959	2.039	2.223	2.213	1.993	2.017	1.923	1.993	2.213	2.22	2.138	1.844	2.498	2.046	2.141	2.142	2.406	2.081	1.926	2.108	2.346	2.278	2.612	2.42299
5843/	2.379	2.08	2.327	2.724	2.585	2.69	2.492	2.424	2.945	3.163	1.55	2.593	2.961	2.419	2.504	2.913	3.353	3.509	2.453	2.012	2.722	2.25	3.274	2.796	2.745	2.632	2.32	2.184	2.702	2.219	3.22	3.082	2.45	3.353	3.377	2.646	3.142	3.349	2.145	1.981	2.392	1.94	3.679	1.908	1.905	2.122	2.691	2.3	2.264	3.113	2.165	2.118	2.402	2.367	2.066	2.104	2.1	1.813	2.39	2.301	2.278	2.3	2.913	2.479	2.193	2.553	2.032	2.307	2.41	2.956	2.314	2.663	2.492	2.812	2.47829
5844/	2.751	2.799	2.342	2.818	2.834	2.91	2.989	2.639	3.21	2.566	1.769	2.812	2.926	3.125	2.837	2.99	3.298	3.38	2.499	2.088	3.033	2.223	3.54	2.964	2.676	2.856	2.361	2.462	2.674	2.565	2.97	2.658	2.689	3.426	3.578	2.923	3.211	3.289	2.263	2.785	2.568	2.081	3.455	1.872	1.943	2.373	2.868	3.125	2.792	2.654	2.108	2.368	2.504	2.384	2.241	2.182	1.956	1.933	2.093	2.565	2.578	2.353	2.561	2.489	2.139	2.459	2.229	2.641	2.357	2.928	2.298	2.593	2.471	2.966	2.60871
5899/	2.481	2.911	2.354	2.776	2.34	2.581	2.798	2.711	3.094	2.732	1.765	2.657	2.594	2.817	2.616	2.773	3.499	3.679	2.54	2.2	3.074	2.377	3.493	2.768	2.584	2.654	2.171	2.078	2.795	2.62	2.52	2.688	2.474	3.028	3.128	2.821	3.31	3.119	1.868	2.298	2.449	1.873	3.213	1.852	1.868	2.171	2.72	2.682	2.524	3.028	2.316	2.272	2.178	2.363	2.095	2.068	2.355	1.959	2.114	2.35	2.587	1.671	2.199	2.311	2.279	2.221	2.131	2.367	2.41	2.193	2.535	2.526	2.47	2.53	2.49728
5900/	2.462	2.432	2.354	2.841	2.628	2.651	2.743	2.624	2.908	1.934	2.246	2.62	3.021	2.684	2.877	2.893	3.396	3.523	2.604	2.329	1.825	2.31	2.597	2.585	2.43	2.68	2.351	2.395	2.938	2.425	2.68	2.849	2.568	3.145	3.497	2.634	3.124	3.011	2.526	2.58	2.413	2.239	2.471	2.238	1.982	2.409	2.939	2.789	2.585	2.393	2.3	2.35	2.372	2.442	2.213	2.192	1.818	2.042	2.525	1.724	1.807	2.206	1.919	2.493	2.355	1.825	2.116	2.329	2.376	2.329	2.25	2.647	2.376	2.986	2.5064
5902/	2.518	2.768	2.296	2.818	2.581	2.445	2.586	2.552	3.033	2.996	1.697	2.825	3.082	2.794	2.853	2.954	3.655	3.289	2.812	2.524	2.953	2.091	3.153	2.898	2.856	2.656	2.226	2.153	2.787	2.488	3.066	2.994	2.494	2.74	2.925	2.372	3.082	3.35	2.798	2.234	2.331	1.734	2.953	1.963	1.994	2.475	2.531	3.11	2.755	3.124	2.188	2.315	2.313	2.484	1.962	2.226	2.195	2.32	2.35	2.505	2.296	2.321	2.192	2.273	2.442	2.35	2.001	2.189	2.308	2.76	2.304	2.765	2.629	2.901	2.53328
5953/	2.722	2.745	2.263	2.388	2.587	2.765	2.605	2.573	2.927	2.66	1.749	2.629	3.049	2.638	2.758	2.991	3.331	3.617	2.593	2.335	2.615	2.166	2.776	2.407	2.629	2.542	2.352	2.069	2.757	2.328	3.063	2.662	2.474	3.127	2.768	3.073	2.876	3.309	1.844	1.957	2.264	2.092	2.654	1.823	1.862	2.14	2.451	2.681	2.408	2.188	1.998	2.231	2.094	2.402	1.927	1.999	1.807	1.963	2.146	2.282	2.205	1.892	2.574	2.066	2.135	2.123	1.942	2.337	2.586	2.628	2.174	2.421	2.311	2.68	2.42306
5955/	2.505	2.743	2.354	2.964	2.585	2.919	2.982	2.631	3.042	3.128	1.83	3.038	3.129	2.764	2.923	3.041	3.882	3.945	2.713	2.386	2.97	2.146	3.545	3.048	2.974	2.996	2.473	2.253	2.918	2.629	3.063	2.7	2.714	3.342	3.641	2.541	3.293	3.261	2.18	2.417	2.592	2.082	3.424	1.946	1.942	2.262	3.27	3.117	2.742	2.643	2.417	2.475	2.181	2.52	2.517	2.317	2.364	2.065	2.565	2.336	2.748	2.25	2.511	2.225	2.3	2.165	2.338	2.468	2.473	2.744	2.327	2.531	2.541	2.736	2.63784
5977/	2.548	2.78	2.213	2.617	2.957	2.831	2.727	2.56	2.853	2.464	1.791	2.802	2.939	2.776	2.901	2.906	3.188	3.527	2.586	2.516	3.098	2.182	3.432	2.97	2.648	2.778	2.583	2.183	2.801	2.604	2.963	2.799	2.393	3.313	3.238	2.519	3.303	3.249	2.448	2.382	2.315	1.959	3.479	1.838	1.989	2.202	3.151	2.893	2.596	3.078	2.294	2.373	2.381	2.595	1.972	2.22	1.931	1.966	2.1	2.439	2.481	2.811	2.505	2.519	2.352	2.017	2.168	2.344	2.383	2.386	2.145	2.384	2.371	2.313	2.57578
6010/	2.329	2.229	2.215	2.862	2.534	2.553	2.382	2.383	2.698	3.005	2.285	2.953	2.44	2.631	2.771	2.962	3.751	3.742	2.292	2.173	2.889	2.325	3.023	2.793	2.785	2.862	2.265	2.175	2.679	2.403	2.719	2.339	2.749	2.955	2.955	2.819	2.914	3.401	2.098	2.826	2.748	2.097	2.998	1.976	1.89	2.106	2.514	2.923	2.492	2.483	2.108	2.169	2.079	2.222	2.388	1.992	2.05	1.833	2.101	1.938	2.145	2.184	2.709	2.23	2.15	2.379	2.028	2.308	2.049	2.386	2.137	2.327	2.415	3.177	2.46667
6026/	2.517	2.332	2.072	2.645	2.572	2.579	2.552	2.251	2.952	2.97	1.895	2.867	2.426	2.784	2.545	2.745	3.829	3.921	2.626	2.386	2.754	2.148	3.416	2.902	2.523	2.743	2.197	2.203	2.663	2.325	2.656	2.747	2.416	3.069	3.471	2.445	2.932	2.811	1.961	3.494	2.362	1.946	3.302	1.963	1.834	2.109	2.787	2.672	2.551	2.497	1.785	2.333	2.332	2.318	2.07	2.026	1.859	1.962	2.293	2.23	2.318	2.252	2.336	2.443	2.129	2.111	1.989	2.493	2.089	2.112	2.221	2.192	2.263	2.543	2.43281
6028/	2.371	2.651	2.18	2.82	2.591	2.629	2.642	2.535	2.739	2.846	1.656	2.553	2.587	2.692	2.734	2.831	3.108	3.399	2.657	1.915	2.785	2.051	3.023	2.622	2.711	2.893	2.27	2.143	2.732	2.396	2.467	2.63	2.396	3.113	2.966	2.666	3.211	3.068	2.244	2.01	2.35	1.878	3.256	1.966	1.814	2.166	2.827	2.797	2.328	2.963	1.842	2.149	1.857	2.217	2.236	2.247	1.817	1.919	2.294	2.198	2.484	2.02	1.973	2.317	2.188	2.596	2.098	2.263	2.207	2.17	2.33	2.5	2.453	2.866	2.46948
6033/	2.23	2.35	2.122	2.616	2.416	2.456	2.76	2.475	2.868	3.33	2.06	2.741	2.72	2.818	2.724	2.706	3.647	3.867	2.498	2.188	2.713	2.214	3.096	2.761	2.569	2.555	2.338	2.205	2.696	2.341	2.731	2.399	2.453	3.094	2.95	2.386	3.013	3.198	2.094	2.611	2.373	1.914	3.432	2.037	1.817	2.441	2.301	2.783	2.507	2.676	2.074	1.997	1.84	2.169	2.16	1.999	1.677	1.965	2.477	2.347	2.525	1.981	2.452	2.126	2.261	2.126	1.828	2.235	2.0	2.889	2.232	2.159	2.417	2.241	2.42381
6034/	2.654	2.504	1.969	2.728	2.491	2.578	2.628	2.54	2.874	2.717	2.049	2.736	2.901	2.589	2.656	2.736	3.385	3.455	2.438	2.063	2.712	2.049	2.933	2.485	2.628	2.666	2.16	1.949	2.583	2.364	2.795	2.629	2.277	2.775	2.884	2.375	3.033	3.099	1.939	2.145	2.189	1.855	2.918	1.997	1.751	2.237	2.807	2.756	2.369	2.7	2.039	2.002	1.817	2.149	1.838	2.005	1.985	1.983	2.384	2.424	2.284	2.018	2.441	1.909	2.153	1.955	1.931	2.183	2.086	2.076	2.515	2.416	2.343	2.705	2.37387
6035/	2.412	2.721	2.276	2.802	2.899	2.932	2.726	2.481	2.801	2.893	2.174	3.046	3.105	2.834	2.721	2.803	2.061	3.036	2.554	2.223	2.777	2.396	3.004	2.805	2.609	2.695	2.32	2.151	2.613	2.234	2.583	2.456	2.464	3.092	3.274	2.531	3.014	2.997	2.268	2.277	2.511	1.759	3.096	1.933	1.84	2.139	2.844	2.653	2.711	2.458	2.127	2.077	2.31	2.297	2.451	2.029	1.91	2.019	2.343	2.324	2.482	2.132	2.399	2.251	2.335	1.914	2.028	2.372	2.151	2.726	2.52	2.481	2.53	2.776	2.49089
6040/	2.466	3.021	2.13	3.001	2.769	2.627	2.832	2.589	2.927	3.518	2.062	2.793	2.888	2.781	2.904	3.061	3.588	3.772	2.862	2.195	3.102	2.332	3.162	2.647	2.935	2.979	2.335	2.124	2.824	2.455	2.771	2.763	2.553	3.438	3.123	2.576	3.204	3.356	2.084	2.256	2.485	2.011	3.177	2.251	1.794	2.164	2.679	2.876	2.7	3.261	2.249	2.441	2.119	2.464	2.367	2.068	1.905	2.026	2.311	2.475	2.552	2.598	2.143	2.152	2.438	2.087	2.072	2.418	2.385	2.24	2.303	2.576	2.678	2.67	2.58898
6044/	2.731	2.618	2.126	2.65	2.737	2.551	2.587	2.401	3.009	2.634	1.837	2.621	2.721	2.484	2.475	2.852	3.198	3.363	2.42	2.135	2.811	2.05	2.698	2.763	2.412	2.688	2.268	2.268	2.611	2.553	2.678	2.99	2.561	2.772	2.424	2.544	3.352	2.852	2.138	2.21	2.302	1.9	2.819	1.576	1.894	2.137	2.571	2.752	2.435	2.127	2.048	2.035	2.078	2.275	2.453	1.994	2.106	1.881	2.165	2.265	2.117	1.858	2.357	2.35	1.952	2.726	2.115	2.344	2.285	2.53	2.421	2.53	2.19	2.207	2.38145
6045/	2.79	2.928	2.423	3.043	2.848	2.971	2.86	2.684	3.129	3.091	1.705	2.979	3.064	2.941	2.717	3.121	3.526	3.86	2.703	1.987	2.628	1.949	3.199	3.081	2.941	3.083	2.454	2.351	2.907	2.524	2.844	3.184	2.759	3.225	3.674	2.741	3.413	3.404	2.543	2.914	2.745	1.873	3.145	1.836	2.08	2.173	2.777	3.268	2.801	3.265	2.29	2.157	2.135	2.494	2.477	2.106	1.967	2.091	2.468	2.804	2.5	2.028	2.372	2.563	2.413	2.296	2.276	2.596	2.459	3.198	2.418	2.546	2.583	2.706	2.63574
6050/	3.26	2.451	1.794	1.609	2.676	2.088	1.748	1.62	1.517	1.984	2.311	2.139	2.133	2.152	1.994	1.893	1.373	1.774	1.907	2.183	2.207	2.459	1.769	2.027	2.082	1.847	2.032	1.853	1.775	1.983	1.983	1.068	1.594	1.852	1.687	1.772	2.04	2.429	2.328	1.779	1.803	1.732	1.831	1.958	1.609	2.029	2.237	1.919	2.1	1.849	2.252	1.933	2.792	2.05	1.972	1.97	2.016	2.047	2.696	2.474	2.584	2.778	2.024	2.345	2.37	1.714	1.947	2.355	1.677	2.125	2.123	2.328	2.074	1.61	2.00822
6057/	2.409	2.59	2.38	2.566	2.692	2.712	2.554	2.401	3.188	2.89	1.776	2.904	2.631	2.808	2.608	2.904	3.926	3.647	2.505	2.378	2.833	2.176	3.621	3.131	2.603	2.781	2.261	1.93	2.717	2.594	2.937	3.244	2.588	3.172	3.595	2.97	3.246	3.226	2.041	2.376	2.462	1.905	2.777	1.908	1.805	2.093	2.938	2.784	2.508	2.404	1.99	2.308	1.983	2.318	2.212	2.062	1.897	2.111	2.364	2.087	2.24	1.831	2.035	2.243	2.246	2.118	2.0	2.515	2.013	2.158	2.216	2.807	2.501	2.871	2.4894
6058/	2.893	2.621	2.36	3.005	2.862	2.725	2.643	2.65	2.862	3.016	1.747	2.875	3.111	3.007	2.869	2.889	3.992	3.754	2.747	2.28	2.91	2.163	3.363	2.867	2.736	2.866	2.396	2.403	2.933	2.471	2.68	2.967	2.518	3.053	3.757	2.803	3.21	2.99	2.342	2.458	2.559	2.03	2.785	1.685	2.06	2.313	3.108	2.915	2.605	2.178	2.03	2.345	2.477	2.523	2.059	2.083	1.988	2.05	2.571	2.501	2.381	2.549	2.072	2.523	2.353	2.325	2.115	2.474	2.239	2.137	2.434	2.163	2.531	2.456	2.55286
6060/	2.55	2.654	2.66	2.925	2.66	2.963	3.162	2.577	2.969	3.213	1.999	2.838	2.771	2.814	2.985	3.134	3.665	3.761	2.662	2.404	2.611	2.142	3.052	2.654	2.821	2.777	2.261	2.125	3.023	2.666	2.854	2.813	2.629	2.983	2.895	2.471	3.283	3.053	2.32	2.486	2.369	2.118	2.858	2.18	1.914	2.316	3.284	3.345	2.817	2.29	2.324	2.448	2.398	2.434	2.348	2.161	1.972	2.057	3.232	2.335	2.436	3.106	2.263	2.351	2.586	2.079	2.104	2.667	2.483	2.795	2.618	2.624	2.346	2.511	2.6024
6102/	2.073	2.726	2.355	2.755	2.739	2.507	2.622	2.361	2.932	2.332	1.782	2.486	2.917	2.487	2.584	2.806	3.66	3.317	2.588	2.186	2.894	1.987	3.039	2.651	2.767	2.95	2.377	2.149	2.762	2.5	2.404	2.72	2.576	3.0	3.106	2.737	2.981	3.006	2.234	2.169	2.396	1.865	2.983	1.961	2.011	2.29	2.403	2.602	2.385	2.852	2.112	2.063	2.031	2.179	2.237	2.151	1.962	2.203	2.355	2.335	2.244	1.853	2.518	2.058	2.291	2.496	2.17	2.11	2.221	2.124	2.504	2.397	2.446	2.414	2.44544
6103/	2.522	2.536	2.153	2.883	2.813	2.62	2.549	2.278	2.842	2.856	2.013	2.978	2.939	2.742	2.789	2.776	3.959	3.76	2.432	2.217	2.815	2.342	3.404	2.726	2.639	2.884	2.144	2.136	2.658	2.427	2.691	3.549	2.585	3.084	3.136	2.645	3.137	2.983	2.432	2.232	2.412	1.917	3.367	2.01	1.927	2.258	2.753	2.62	2.484	2.02	1.761	2.275	2.15	2.375	2.509	1.996	1.733	2.007	2.177	2.178	2.227	2.364	2.228	2.389	2.173	2.532	2.017	2.399	2.108	2.835	2.084	2.496	2.442	2.487	2.47417
6105/	2.967	2.868	2.426	2.906	3.017	2.809	2.74	2.74	2.806	3.387	2.055	3.043	3.019	3.084	2.9	3.073	3.718	3.545	2.646	2.339	3.002	2.368	2.94	3.187	2.884	2.856	2.457	2.387	2.856	2.741	3.184	2.562	2.518	3.165	3.303	3.073	3.575	3.435	2.46	2.647	2.656	2.265	3.385	2.233	2.08	2.583	2.906	3.14	2.735	3.03	2.361	2.416	2.475	2.594	2.565	2.159	1.982	2.196	2.358	2.689	2.327	2.663	2.524	2.474	2.529	2.336	2.251	2.526	2.459	2.719	2.645	2.672	2.583	2.758	2.69822
6138/	2.268	2.405	2.217	2.832	2.701	2.721	2.662	2.403	2.87	2.797	1.718	2.583	3.098	2.422	2.498	2.666	3.402	3.57	2.322	1.987	2.926	1.962	3.096	2.704	2.552	2.558	2.149	1.865	2.465	2.306	2.509	2.467	2.499	3.059	2.929	2.705	2.881	3.016	2.439	2.498	2.549	1.881	3.353	1.833	1.717	2.207	2.817	2.534	2.528	2.729	2.2	2.187	2.135	2.271	2.316	2.018	1.95	1.937	2.169	2.545	2.492	2.092	2.122	2.114	2.034	2.366	1.927	2.255	2.018	2.761	2.285	2.725	2.39	2.585	2.38527
6149/	2.549	2.394	2.25	2.65	3.127	2.929	2.943	2.566	3.062	2.787	2.008	2.906	3.022	3.109	2.834	3.102	3.459	3.421	2.706	2.245	2.621	2.199	3.731	2.67	2.848	2.99	2.459	2.187	2.918	2.71	2.57	2.854	2.531	3.358	3.313	2.799	3.058	3.106	2.474	2.317	2.508	2.056	3.149	1.824	1.92	2.177	2.73	2.684	2.633	2.254	2.11	2.332	2.277	2.49	2.647	1.991	2.085	2.255	2.407	2.065	2.157	2.043	2.173	2.221	2.341	2.081	2.178	2.426	2.591	2.013	2.399	2.095	2.678	2.447	2.5798
6162/	2.338	2.505	2.35	2.795	2.922	2.96	2.97	2.631	2.823	3.074	1.779	2.78	3.118	3.121	2.704	2.899	3.231	3.366	2.701	2.138	2.593	1.862	3.103	2.835	2.72	2.865	2.434	2.301	2.838	2.51	3.024	2.719	2.512	3.284	3.484	2.808	2.962	3.352	2.135	2.231	2.344	2.035	2.993	1.683	1.927	2.029	2.62	2.812	2.464	2.644	1.678	2.296	1.973	2.31	1.913	2.08	1.782	2.028	1.87	2.399	2.181	2.382	2.708	2.071	1.97	2.473	2.184	2.203	2.358	2.846	2.294	2.236	2.361	2.747	2.47852
6163/	2.783	2.682	2.439	3.302	2.814	2.979	3.034	2.962	3.447	3.092	1.884	3.084	3.031	3.352	2.926	3.257	3.781	3.792	2.711	2.269	3.135	2.228	3.486	3.14	2.612	3.164	2.377	2.489	3.033	2.648	3.393	3.391	2.878	3.413	3.376	2.866	3.434	3.349	2.923	2.892	2.504	2.125	3.058	2.138	1.989	2.352	3.013	2.831	2.768	2.885	2.266	2.371	2.259	2.487	2.009	2.001	2.178	1.964	2.439	2.701	2.481	2.573	2.304	2.436	2.236	2.4	2.197	2.468	2.342	3.717	2.735	2.708	2.557	3.05	2.69401
6165/	2.708	2.466	2.14	2.59	2.392	2.608	2.434	2.334	2.89	2.739	1.885	2.961	2.784	2.971	2.519	2.683	2.934	3.613	2.315	2.292	2.757	2.126	2.99	2.853	2.704	2.674	2.289	2.15	2.869	2.646	2.784	2.781	2.241	3.099	3.115	2.411	3.022	3.065	2.333	2.534	2.365	2.03	2.867	1.899	1.912	2.335	2.63	2.407	2.623	2.575	2.013	2.229	2.145	2.391	2.026	1.973	1.951	2.079	2.474	2.182	2.307	2.04	2.127	2.332	2.25	2.233	1.986	2.428	2.131	2.968	2.645	2.495	2.446	1.964	2.45356
6167/	2.61	2.747	2.306	3.164	2.636	2.906	2.95	2.61	3.002	2.484	1.764	2.671	3.189	2.997	2.729	2.934	3.642	3.521	2.507	2.198	2.877	2.349	3.119	3.04	2.719	2.864	2.278	1.967	2.897	2.578	2.997	3.189	2.551	3.291	3.198	2.581	3.088	3.268	2.38	2.926	2.426	2.093	3.59	2.065	1.972	2.469	2.926	2.587	2.554	2.658	2.585	2.106	2.277	2.381	2.267	2.175	1.886	2.075	2.352	2.153	2.538	2.145	2.15	2.533	2.177	2.608	1.986	2.435	2.254	3.874	2.389	2.521	2.432	2.421	2.57035
6199/	1.975	2.074	2.252	2.64	2.163	2.505	2.631	2.455	2.629	3.201	2.029	2.839	2.801	2.259	2.633	2.71	3.147	3.386	2.577	2.077	2.62	2.249	3.18	2.594	2.482	2.586	2.105	2.093	2.628	2.457	2.9	2.606	2.197	3.264	2.842	2.55	2.834	2.988	2.164	1.881	2.402	2.189	2.908	2.107	1.923	2.197	2.665	2.578	2.368	2.216	1.708	1.722	2.252	2.197	2.245	1.874	1.753	1.881	2.052	1.908	1.86	2.114	2.249	2.176	2.163	2.26	2.008	2.145	1.909	2.633	1.967	2.151	2.16	2.508	2.36033
6226/	2.221	2.518	2.352	2.766	2.585	2.268	2.721	2.567	2.887	3.004	1.817	2.906	3.057	3.021	2.623	2.772	3.041	3.545	2.586	2.132	2.566	2.05	2.624	2.699	2.805	2.8	2.363	2.071	2.627	2.451	2.451	2.743	2.942	3.16	3.019	2.994	2.995	3.125	2.426	2.596	2.547	1.931	2.82	2.033	1.719	2.431	2.895	2.881	2.511	2.957	1.991	2.229	2.085	2.356	2.512	2.013	2.304	2.097	2.085	2.292	2.018	2.063	1.912	2.121	2.208	2.106	2.069	2.531	2.07	2.105	2.372	2.369	2.339	2.684	2.45482
6227/	2.697	2.424	2.334	3.005	2.773	2.941	2.924	2.722	3.556	3.038	2.084	2.863	2.613	2.799	2.897	3.111	3.555	3.418	2.899	2.151	3.189	2.125	2.772	2.783	2.911	2.881	2.236	2.047	2.708	2.705	2.971	2.924	2.559	3.2	3.121	2.807	3.48	3.402	2.169	2.363	2.703	2.01	3.127	2.081	1.753	2.326	2.727	3.145	2.673	2.946	2.961	2.422	2.418	2.437	2.495	2.227	2.271	2.295	2.654	2.919	2.608	2.403	2.155	2.316	2.624	2.176	2.063	2.566	2.317	2.357	2.32	2.945	2.842	2.566	2.6432
6228/	2.029	2.43	2.193	2.451	2.462	2.414	2.619	2.295	2.795	2.726	1.699	2.659	2.556	2.378	2.556	2.632	3.68	3.14	2.516	2.066	2.951	2.008	3.363	2.525	2.528	2.474	2.153	1.924	2.654	2.255	2.492	2.701	2.187	2.801	3.112	2.335	3.296	2.848	1.745	2.528	2.253	1.945	3.152	1.892	1.873	2.274	2.265	2.421	2.305	2.588	1.969	2.242	1.974	2.189	2.062	1.982	2.062	2.077	2.371	2.4	2.475	1.792	2.266	2.171	2.114	2.238	1.946	2.22	1.978	1.954	2.245	2.485	2.43	2.316	2.36126
6229/	2.187	2.688	2.262	2.785	2.411	2.528	2.497	2.404	3.11	3.197	1.904	2.922	2.435	2.654	2.646	2.915	3.707	3.709	2.601	2.219	2.675	2.196	2.914	2.613	2.586	2.805	2.276	2.041	2.852	2.505	2.641	3.321	2.364	3.063	3.455	2.426	2.937	3.192	2.179	2.712	2.538	1.975	2.821	2.046	1.966	2.288	2.716	2.862	2.6	2.095	2.125	2.179	2.061	2.367	2.121	2.076	2.277	2.035	2.184	2.326	2.16	2.081	2.238	2.259	2.207	2.175	1.909	2.27	2.298	2.443	2.354	2.62	2.587	2.51	2.47069
6291/	2.51	2.167	2.175	2.663	2.469	2.834	2.639	2.506	3.136	2.969	1.869	2.642	3.13	2.563	2.608	2.661	3.611	3.514	2.335	2.257	2.919	1.977	3.077	3.078	2.551	2.536	2.185	1.984	2.619	2.281	3.19	2.793	2.461	2.695	3.304	2.433	3.12	2.877	2.205	2.827	2.187	2.047	3.112	1.861	1.747	2.042	2.513	2.782	2.493	3.065	2.102	2.263	2.239	2.268	2.237	1.837	1.448	1.702	1.989	2.058	2.399	2.149	3.648	2.435	2.049	2.325	1.747	2.113	2.051	2.08	2.199	2.486	2.188	2.878	2.3975
6347/	2.348	2.548	2.412	2.321	2.617	2.575	2.434	2.417	2.833	2.785	1.827	2.463	2.347	2.681	2.68	2.725	3.649	3.27	2.52	2.148	2.724	2.259	3.377	2.715	2.527	2.59	2.234	2.111	2.691	2.317	2.725	2.449	2.585	3.062	3.419	2.501	3.144	2.818	2.154	2.431	2.212	1.962	3.279	1.837	1.902	2.158	2.594	2.634	2.606	2.491	2.083	2.126	2.186	2.284	1.927	1.86	2.049	1.966	1.932	2.288	2.481	1.925	2.443	2.296	2.229	2.414	2.121	2.249	2.205	1.831	2.089	2.581	2.384	2.538	2.42884
6348/	2.326	2.483	2.215	2.431	2.561	2.363	2.234	2.349	2.71	3.02	1.622	2.67	2.66	2.486	2.596	2.572	3.361	3.501	2.349	1.911	2.473	2.029	2.923	2.775	2.407	2.686	2.186	2.303	2.709	2.224	2.375	2.024	2.662	3.071	2.903	2.437	2.736	2.822	2.51	2.341	2.324	1.76	3.39	1.889	1.957	2.192	2.698	2.307	2.618	2.435	1.707	2.243	2.142	2.209	2.047	1.958	1.74	1.828	2.091	2.211	1.917	1.943	2.261	2.502	1.925	2.184	2.074	2.32	2.085	2.144	1.89	2.302	2.18	2.525	2.32087
6503/	2.071	2.393	2.141	2.718	2.358	2.701	2.332	2.51	2.871	2.861	1.679	2.697	2.548	2.598	2.628	2.587	3.664	3.487	2.429	2.104	2.356	1.973	2.616	2.461	2.411	2.681	2.201	2.074	2.708	2.401	2.431	3.376	2.296	3.062	3.255	2.349	2.763	3.013	1.966	2.55	2.253	1.853	2.737	2.019	1.747	2.096	2.429	2.709	2.403	2.36	1.87	2.107	1.953	2.216	1.745	1.971	2.01	1.916	2.125	1.943	2.052	1.419	2.098	1.917	2.171	2.702	2.018	2.328	2.104	1.939	2.52	2.121	2.35	1.857	2.33703
6512/	2.356	2.683	2.31	2.563	2.657	2.578	2.581	2.25	2.703	2.492	1.881	2.776	2.632	2.443	2.533	2.898	3.528	3.643	2.565	2.265	2.591	2.156	3.204	2.961	2.59	2.841	2.412	2.334	2.721	2.315	2.788	3.066	2.401	2.999	2.951	2.52	3.097	3.046	2.507	1.829	2.332	2.016	2.685	1.927	2.092	2.133	2.386	2.896	2.616	2.557	1.953	2.034	2.128	2.148	1.928	1.954	1.971	2.083	2.161	2.551	2.294	2.076	2.405	2.302	2.086	2.455	2.07	2.423	1.983	1.657	2.16	2.233	2.435	2.729	2.45172
6613/	2.463	2.791	2.205	2.485	2.705	2.607	2.717	2.461	3.097	2.857	1.884	2.851	2.764	2.845	2.898	3.012	3.098	3.415	2.958	2.685	2.804	2.246	2.833	2.86	2.803	3.094	2.475	2.38	2.81	2.588	2.732	3.62	2.6	2.991	2.989	2.614	3.048	2.98	2.418	2.593	2.408	2.099	2.949	2.212	1.983	2.223	2.605	2.641	2.528	2.198	2.434	2.367	2.385	2.49	2.088	2.264	2.386	2.318	2.645	2.414	2.187	2.365	2.396	2.276	2.204	2.114	2.195	2.57	2.414	2.138	2.415	2.35	2.465	2.575	2.56847
6636/	1.707	1.816	1.418	1.633	1.529	1.357	1.201	1.786	1.527	1.274	1.947	1.749	1.255	1.651	1.943	1.178	1.128	1.013	2.08	2.338	1.984	2.01	1.634	1.354	2.025	1.739	1.988	1.755	1.869	1.919	1.395	0.0	1.441	1.827	1.481	1.622	1.974	1.916	1.963	0.0	1.767	1.93	1.785	1.866	1.755	1.65	1.352	1.426	1.604	1.809	1.607	1.981	1.783	1.875	2.184	2.08	1.922	2.285	1.798	2.038	1.894	1.753	0.9	1.782	2.224	1.46	1.685	1.916	1.88	0.0	2.156	2.089	1.903	1.715	1.78321
6685/	2.583	2.184	2.279	2.409	2.326	1.486	0.0	0.0	1.997	1.912	2.468	1.992	2.272	2.093	2.132	1.598	1.621	2.017	2.271	2.012	1.783	2.077	2.572	3.13	2.183	2.392	1.937	1.764	2.331	2.023	2.532	1.826	2.201	1.258	2.937	1.336	1.794	1.828	2.221	1.824	2.376	2.494	1.755	1.53	1.71	1.739	2.854	2.093	2.057	1.593	1.634	1.985	2.129	2.192	2.843	2.844	2.003	2.626	1.758	1.703	2.114	0.0	1.509	3.482	1.714	3.244	2.433	2.212	2.207	3.796	2.486	2.663	2.23	2.249	2.14492
6712/	2.606	2.614	2.108	2.681	2.808	2.859	2.697	2.67	2.8	3.362	1.806	2.784	2.5	2.352	2.497	2.719	3.86	3.748	2.334	1.902	2.733	2.074	3.245	3.245	2.403	2.537	2.099	2.012	2.425	2.427	2.728	3.204	2.347	2.842	3.236	2.2	2.84	2.902	1.873	2.903	2.211	1.771	3.46	1.678	1.616	1.98	2.876	2.613	2.542	2.168	1.557	2.002	2.25	2.122	2.052	1.905	1.548	1.879	2.381	2.197	2.281	2.158	2.48	3.313	1.939	2.719	1.893	2.158	1.943	2.407	2.085	2.288	2.326	2.392	2.37677
6730/	2.585	2.41	2.136	2.781	2.808	2.551	2.812	2.518	2.618	3.27	1.935	2.628	2.54	2.845	2.804	2.895	3.769	3.642	2.643	2.319	2.591	2.203	2.676	2.693	2.743	2.838	2.545	2.008	2.764	2.668	2.609	2.703	2.225	3.057	2.911	2.44	3.006	3.211	2.252	2.25	2.454	1.862	3.046	1.872	1.866	2.323	2.415	2.696	2.505	2.343	2.137	2.094	1.987	2.338	2.226	2.185	2.147	2.231	2.252	2.529	2.125	2.446	1.787	2.185	2.278	1.974	2.198	2.357	2.513	2.563	2.372	2.285	2.579	2.486	2.49856
6731/	2.522	2.942	2.218	2.722	2.8	2.524	2.783	2.731	2.87	3.189	1.828	2.825	2.814	2.67	2.66	2.88	3.481	3.676	2.591	2.219	2.839	2.155	2.843	2.87	2.691	3.053	2.379	2.001	2.748	2.437	2.728	2.67	2.463	3.225	3.07	2.76	3.068	3.293	2.19	2.369	2.597	1.982	2.799	2.0	1.728	2.008	3.127	2.656	2.63	3.116	2.247	2.266	2.263	2.144	2.527	1.971	2.267	2.229	2.6	2.346	2.433	2.099	2.043	2.29	2.208	2.093	2.098	2.29	2.308	1.779	2.457	2.38	2.639	2.643	2.51241
6732/	2.528	2.436	2.303	2.715	2.331	2.508	2.669	2.333	2.831	3.189	1.755	2.761	2.448	2.569	2.419	2.591	2.802	2.879	2.444	2.018	2.682	1.921	2.949	2.893	2.606	2.48	1.981	1.921	2.54	2.243	3.003	2.711	2.185	3.077	2.699	2.415	2.664	3.041	2.424	3.013	2.529	2.071	2.982	1.972	1.798	2.207	2.729	2.615	2.582	3.407	1.767	2.342	2.238	2.241	1.998	1.837	1.83	1.961	2.278	2.336	2.211	2.208	2.465	2.905	1.978	2.397	1.885	2.448	2.18	3.276	2.333	2.441	2.333	2.392	2.36956
6738/	2.568	2.754	1.958	2.542	2.31	2.586	2.532	2.468	2.706	2.86	1.86	2.744	2.601	2.458	2.611	2.65	3.122	3.58	2.546	2.144	2.658	2.183	2.91	2.759	2.591	2.399	2.185	2.124	2.646	2.306	2.575	3.024	2.594	2.903	3.092	2.45	3.018	3.115	1.955	2.759	2.595	1.742	2.873	1.808	1.844	2.053	2.512	3.054	2.426	2.622	1.936	2.13	2.265	2.257	2.062	2.08	2.111	2.108	2.343	2.321	1.957	1.702	2.054	2.25	2.007	2.132	2.019	2.303	2.114	2.231	2.243	2.402	2.507	2.338	2.395
6741/	2.502	2.664	2.318	2.695	2.724	2.824	2.947	2.789	2.826	2.791	1.964	2.805	2.918	2.897	2.816	2.93	3.175	3.517	2.755	2.232	2.828	2.317	3.179	2.868	2.687	2.753	2.349	2.079	2.698	2.652	2.735	2.868	2.552	3.044	3.226	2.658	3.519	3.223	2.151	2.525	2.464	1.745	3.536	2.01	1.884	2.205	3.179	2.929	2.649	2.817	1.974	2.284	2.1	2.292	2.058	2.104	1.997	2.277	2.383	2.7	2.579	2.158	2.31	2.443	2.333	2.149	2.095	2.575	2.418	3.336	2.372	2.608	2.6	2.627	2.56623
6752/	3.232	1.985	2.134	1.958	2.462	1.894	1.62	1.76	1.348	0.0	1.626	1.901	1.469	1.653	1.759	2.057	2.073	1.589	2.071	1.63	1.722	1.882	0.0	2.148	1.786	1.546	1.97	1.614	1.643	1.645	2.707	1.453	2.646	1.688	1.348	1.666	2.402	2.193	1.756	0.0	1.533	2.175	2.484	1.777	2.117	1.775	1.862	1.623	1.591	1.992	2.054	2.182	2.319	2.08	1.254	2.016	2.124	2.111	1.879	2.244	1.548	3.002	3.245	1.566	2.044	1.419	1.639	1.933	1.684	2.262	1.784	2.106	1.815	2.217	1.91339
6802/	1.953	2.438	2.347	2.523	2.43	2.358	2.586	2.415	2.792	3.231	2.105	2.7	2.539	2.385	2.627	2.861	3.933	3.702	2.705	2.257	2.978	2.354	3.584	2.604	2.771	2.969	2.46	2.4	2.665	2.417	2.358	3.067	2.749	3.044	3.265	2.53	3.178	3.427	2.076	2.212	2.355	2.17	3.28	2.06	1.92	2.177	2.55	2.851	2.342	2.776	2.29	2.036	2.026	2.411	2.261	2.107	1.855	1.942	1.934	2.407	2.341	1.961	2.489	2.092	2.183	2.381	2.162	2.241	2.2	2.145	2.146	2.646	2.485	2.938	2.48595
6863/	2.428	2.351	2.03	3.084	2.428	2.959	3.003	2.478	3.174	2.87	1.961	2.759	3.092	2.765	2.699	2.9	3.647	3.752	2.641	2.33	2.765	1.992	2.86	2.689	2.522	2.672	2.218	2.003	2.566	2.393	2.973	2.565	2.481	3.068	2.682	2.327	2.989	3.04	2.21	2.973	2.624	2.009	2.682	1.938	1.745	2.142	2.589	2.52	2.382	2.514	2.01	2.121	2.205	2.531	2.373	1.683	1.952	2.03	2.092	2.146	1.952	1.811	2.267	2.232	2.148	2.914	1.859	2.145	2.41	2.478	2.844	2.026	2.339	2.529	2.43807
6888/	2.339	2.226	2.15	2.489	2.392	2.504	2.461	2.31	2.537	2.531	1.598	2.776	2.963	2.501	2.407	2.57	3.048	3.264	2.605	2.176	2.625	2.043	3.017	2.636	2.574	2.768	2.196	1.869	2.548	2.189	2.51	2.624	2.295	3.045	3.185	2.536	2.914	2.898	1.858	2.593	2.205	1.839	3.155	1.871	1.821	2.139	2.631	2.522	2.362	2.681	1.66	2.228	2.079	1.922	2.044	1.885	2.019	1.764	1.91	2.107	2.085	2.018	2.034	2.46	2.101	2.392	1.886	2.208	1.998	2.897	2.078	2.291	2.257	2.584	2.32546
6908/	2.898	2.366	2.396	2.781	2.42	2.633	2.688	2.497	2.984	2.431	1.647	2.669	2.992	2.518	2.541	2.629	3.535	3.297	2.453	2.055	2.719	1.983	3.009	2.892	2.537	2.625	2.032	1.926	2.473	2.345	2.619	2.451	2.377	3.02	2.882	2.483	2.824	2.809	1.848	1.875	2.387	2.092	3.441	1.844	1.949	2.217	2.742	2.68	2.593	2.251	1.977	2.125	2.157	2.278	2.148	2.003	2.121	2.007	2.119	2.126	1.924	1.97	2.232	2.694	2.141	1.84	1.946	2.231	2.154	2.342	2.095	2.524	2.115	2.422	2.37776
6909/	2.015	2.522	2.101	2.623	2.579	2.394	2.47	2.353	2.882	2.62	1.752	2.797	2.594	2.514	2.399	2.666	3.409	3.448	2.328	2.178	2.899	2.019	3.1	2.203	2.566	2.676	2.125	2.188	2.718	2.367	2.511	2.82	2.527	3.157	3.348	2.521	2.802	3.014	2.182	2.498	2.504	2.008	2.645	1.811	1.843	2.183	2.24	2.937	2.712	2.652	1.842	1.911	1.91	2.186	2.079	1.888	1.675	1.811	2.109	2.523	2.252	2.128	1.832	1.837	2.037	2.435	1.915	2.139	2.123	2.131	2.208	2.493	2.354	2.356	2.35409
6955/	2.744	2.626	2.131	3.258	3.119	3.155	2.988	2.788	3.233	3.527	2.005	2.913	2.606	3.285	2.905	3.219	3.675	3.65	2.574	2.176	2.859	2.291	3.069	3.263	2.923	2.907	2.251	2.221	2.91	2.387	2.982	2.528	2.955	3.61	3.347	2.939	3.072	3.179	2.216	2.778	2.592	2.098	2.628	2.37	1.88	2.567	2.937	2.883	3.061	2.413	2.099	2.673	2.296	2.421	2.066	1.996	2.166	2.071	2.347	2.548	2.278	2.398	2.825	2.757	2.169	2.399	1.997	2.553	2.357	2.071	2.664	2.613	2.555	3.477	2.65196
6957/	2.51	2.739	2.501	2.773	2.667	2.35	2.724	2.365	2.473	2.791	1.882	2.78	2.663	2.603	2.691	2.842	3.706	3.587	2.413	1.982	2.75	2.128	3.087	2.685	2.809	2.785	2.372	2.401	2.712	2.554	2.456	2.066	2.632	3.353	3.724	2.531	2.91	3.139	1.943	2.736	2.336	2.108	3.305	1.89	1.996	2.408	2.605	2.753	2.478	2.826	1.852	2.285	2.108	2.239	2.01	2.048	1.735	2.019	2.202	2.293	2.435	1.928	2.032	2.162	2.088	2.143	2.015	2.311	2.207	2.7	2.354	2.541	2.391	2.893	2.47889
6958/	2.367	2.576	2.288	3.113	2.558	2.754	2.659	2.606	3.277	3.077	1.927	3.005	3.103	2.928	2.89	2.939	3.992	4.081	2.446	2.289	2.808	2.269	3.439	2.977	2.898	2.87	2.382	2.3	2.772	2.711	2.972	2.986	2.839	3.279	3.11	2.943	2.953	3.289	2.265	2.679	2.608	1.987	3.137	2.219	2.123	2.191	2.995	3.002	2.913	2.701	2.071	2.311	1.957	2.296	2.112	2.147	1.895	2.003	2.316	2.38	2.608	2.223	2.253	2.273	2.405	2.391	1.957	2.604	2.145	3.952	2.857	2.631	2.632	2.585	2.60176
6964/	2.453	2.581	2.441	2.548	2.335	2.512	2.478	2.253	2.436	2.738	1.926	2.698	2.266	2.485	2.497	2.564	3.181	3.519	2.44	2.326	2.997	2.333	3.331	2.563	2.574	2.681	2.453	2.216	2.748	2.51	2.341	2.165	2.517	3.167	3.54	2.493	3.065	3.174	1.955	2.191	2.351	2.103	2.831	1.779	2.055	2.021	2.432	2.766	2.535	2.508	1.722	2.057	1.911	2.259	1.733	1.897	2.039	1.843	2.299	2.605	2.51	1.997	2.031	2.115	2.174	2.035	2.1	2.283	2.258	2.405	2.318	2.674	2.45	2.762	2.43722
6965/	2.577	2.703	2.276	2.833	2.747	2.696	2.806	2.648	3.152	3.044	1.798	2.908	2.818	2.994	2.841	2.883	3.524	3.712	2.542	2.204	2.862	2.099	2.952	2.796	2.933	2.759	2.438	2.107	2.764	2.599	2.576	2.709	2.723	3.287	3.308	2.548	3.151	2.912	2.262	3.074	2.492	2.132	2.731	1.958	1.953	2.296	2.941	2.643	2.684	2.639	2.494	2.254	2.53	2.479	2.216	2.131	2.251	2.106	2.398	2.582	2.41	2.536	2.212	2.316	2.281	2.083	1.933	2.567	2.388	2.361	2.401	2.564	2.562	2.999	2.56393
6983/	2.301	2.466	2.176	2.662	2.531	2.693	2.553	2.33	2.458	2.579	1.696	2.739	2.759	2.682	2.618	2.868	3.321	3.723	2.304	2.126	2.601	2.005	2.913	2.478	2.573	2.573	2.222	1.908	2.844	2.119	2.505	3.328	2.356	3.028	3.164	2.592	2.689	2.895	2.485	2.111	2.405	1.87	2.946	1.931	2.011	2.052	2.321	2.663	2.634	2.397	1.966	2.3	2.264	2.483	2.161	1.929	1.628	1.818	2.292	2.137	2.097	2.068	2.102	2.067	1.949	1.854	1.956	2.493	2.286	2.445	1.965	1.901	2.313	2.096	2.35425
6985/	2.172	2.278	2.165	2.823	2.6	2.56	2.366	2.256	2.956	2.556	1.836	2.666	2.388	2.494	2.493	2.56	3.494	3.341	2.293	1.976	2.851	2.031	3.287	2.638	2.446	2.681	2.125	2.008	2.545	2.205	2.717	2.722	2.511	2.729	2.593	2.463	2.673	2.934	1.813	2.678	2.319	1.88	3.26	1.846	1.969	2.033	2.312	2.539	2.616	2.483	1.96	2.056	2.04	2.25	2.083	2.037	1.849	1.77	1.95	2.137	2.616	1.461	2.088	2.261	2.233	2.425	1.847	2.075	1.982	2.471	2.175	2.451	2.413	2.705	2.3508
7041/	0.4	0.492	0.411	0.326	0.395	0.502	0.448	0.506	0.0	0.0	0.0	0.356	0.57	0.557	0.373	0.392	0.354	0.446	0.393	0.449	0.0	0.0	0.506	0.392	0.398	0.503	0.414	0.485	0.511	0.528	0.442	0.471	0.432	0.49	0.445	0.529	0.508	0.408	0.588	0.57	0.49	0.429	0.0	0.0	0.428	0.494	0.561	0.428	0.545	0.0	0.0	0.41	0.464	0.481	0.482	0.405	0.445	0.459	0.39	0.0	0.0	0.463	0.355	0.329	0.0	0.498	0.41	0.498	0.442	0.0	0.581	1.283	0.502	0.467	0.437868
7055/	1.969	1.049	1.269	1.842	1.583	1.893	0.0	0.0	0.0	0.0	0.0	1.844	1.94	1.39	1.324	1.325	0.668	0.547	1.349	1.164	0.868	1.281	0.0	1.757	1.604	1.575	1.763	1.375	1.22	0.775	0.0	0.0	2.474	1.83	0.92	1.83	0.169	1.293	1.316	1.468	1.973	2.342	0.957	0.0	1.587	0.0	2.467	1.786	1.654	0.0	0.0	1.262	1.381	1.275	1.706	1.862	2.076	1.148	1.87	0.0	0.0	1.817	0.79	1.833	0.0	0.0	2.432	1.98	1.278	0.0	0.0	1.739	1.411	1.365	1.54082
7105/	2.565	2.791	1.966	2.601	2.557	2.42	2.687	2.342	2.707	2.897	1.791	2.625	2.445	2.622	2.743	2.707	3.728	3.318	2.634	2.037	2.43	1.942	3.351	2.877	2.834	2.894	2.179	2.267	2.654	2.418	2.886	2.817	2.467	2.776	3.142	2.624	2.931	3.162	1.948	2.339	2.253	1.736	2.69	1.919	1.96	1.879	2.416	2.628	2.274	2.568	1.779	1.852	2.031	2.398	2.426	1.965	1.899	2.085	2.249	2.075	2.33	2.175	2.319	2.012	1.989	2.27	1.932	2.256	2.191	2.932	2.111	2.656	2.37	2.542	2.39223
7106/	2.102	2.75	2.312	2.776	2.926	2.377	2.681	2.782	2.964	2.845	1.918	2.95	2.838	2.794	2.679	2.823	3.461	3.657	2.486	2.38	2.799	2.316	3.248	2.684	2.886	2.906	2.437	2.246	2.881	2.545	2.878	2.52	2.827	3.393	2.893	2.683	2.829	3.187	2.149	2.119	2.417	2.041	3.307	1.948	2.002	2.139	2.795	2.581	2.758	2.619	1.938	2.289	1.975	2.501	2.298	2.16	2.266	1.919	2.535	2.923	2.289	2.01	2.235	2.123	2.333	2.241	2.204	2.505	2.587	2.483	2.398	2.44	2.601	2.967	2.55432
7108/	2.52	2.619	1.833	2.982	2.779	2.797	2.766	2.453	2.829	3.018	1.67	2.931	3.362	2.652	2.688	2.811	3.5	3.395	2.584	1.921	2.998	2.258	3.509	2.862	2.369	2.443	1.931	2.037	2.379	2.014	3.164	3.286	2.815	2.934	3.164	2.511	3.177	3.252	2.222	2.112	2.355	1.846	2.917	1.959	1.856	1.715	2.788	2.768	2.432	3.046	1.928	2.053	2.182	2.337	1.834	1.869	1.99	1.974	2.14	2.571	2.609	2.658	2.49	2.13	1.95	3.044	1.827	2.218	2.05	2.404	2.0	2.587	2.329	2.935	2.42063
7118/	1.442	0.0	0.0	1.507	1.424	0.069	0.854	0.0	0.0	0.0	0.0	1.163	1.944	1.291	1.849	1.485	2.107	2.39	0.0	0.0	1.247	0.0	1.161	1.932	1.625	1.427	1.221	1.631	1.396	0.0	0.0	0.0	1.94	1.751	2.137	1.313	1.551	1.857	1.957	0.862	1.324	0.0	2.388	0.0	1.49	0.0	2.788	2.597	2.073	2.064	0.0	1.441	1.998	1.449	1.299	1.289	0.0	0.0	0.0	0.185	1.064	0.673	0.91	2.495	0.0	1.168	1.211	1.483	1.283	0.0	0.0	0.951	1.903	1.859	1.5921
7148/	2.158	2.619	2.029	2.738	2.666	2.265	2.279	2.341	2.075	0.0	1.83	2.346	2.055	2.36	2.915	2.91	2.46	2.674	2.154	2.628	2.515	1.881	2.214	3.109	2.633	2.335	2.125	2.573	2.621	2.048	2.219	3.534	2.304	2.155	2.142	2.457	2.448	2.033	1.745	2.56	2.131	2.162	1.947	0.0	2.618	1.863	3.234	2.217	2.321	3.566	2.827	3.209	2.968	2.956	2.454	2.404	2.362	2.801	2.413	1.422	2.043	1.992	3.463	2.897	0.938	3.849	2.485	2.869	2.467	2.404	1.709	2.887	2.239	2.831	2.46188
7151/	2.443	2.451	2.275	2.652	3.0	2.408	2.444	2.247	2.629	2.97	1.864	2.837	2.518	2.64	2.527	2.57	3.847	3.488	2.566	2.171	2.721	2.05	2.897	2.283	2.558	2.917	2.195	2.14	2.828	2.394	2.658	3.116	2.69	2.919	2.979	2.723	2.932	3.004	2.02	2.315	2.509	1.814	2.362	1.818	1.927	2.027	2.45	2.954	2.283	2.455	2.055	1.957	2.039	2.059	2.27	1.945	2.018	2.002	2.12	2.07	2.142	1.993	1.778	1.991	2.121	2.121	2.062	2.178	2.069	1.74	2.142	2.333	2.392	2.668	2.36659
7152/	2.329	2.457	2.389	2.738	2.54	2.495	2.438	2.263	2.816	3.017	1.959	2.811	2.658	2.801	2.403	2.638	2.776	3.316	2.624	2.298	2.184	1.886	2.774	2.515	2.591	2.759	2.304	2.309	2.6	2.416	2.302	3.295	2.546	2.982	2.765	2.482	2.594	2.953	2.033	2.467	2.142	1.985	2.831	1.903	1.96	2.198	2.477	2.468	2.351	3.52	1.653	2.031	2.03	2.177	2.305	2.07	2.0	1.967	2.156	2.021	2.162	1.772	1.698	2.069	2.103	2.134	2.127	2.43	2.118	2.186	2.284	1.863	2.216	2.375	2.35032
7163/	2.456	2.302	1.884	2.606	2.446	2.486	2.131	2.122	2.643	3.263	1.58	2.717	2.516	2.449	2.394	2.525	2.654	3.491	2.336	1.743	2.388	1.987	2.757	2.456	2.429	2.598	1.938	1.914	2.484	2.258	2.43	2.58	2.203	2.851	2.956	2.494	2.621	2.777	1.914	2.172	2.271	1.853	2.713	1.988	1.779	2.122	2.34	2.613	2.366	2.734	1.807	2.052	2.025	2.173	2.208	1.81	1.846	1.811	1.97	2.088	1.967	2.264	2.005	2.319	1.983	2.113	1.887	2.181	1.891	2.476	2.095	2.057	2.351	2.394	2.25291
7168/	2.015	2.992	2.165	2.918	2.373	2.57	2.894	2.531	3.002	3.048	1.864	3.256	2.974	2.879	2.774	2.886	3.944	4.11	2.724	2.269	2.698	2.252	3.271	2.813	2.744	2.788	2.277	1.986	2.599	2.593	2.797	2.702	2.611	3.393	3.457	2.475	3.377	3.427	1.987	2.703	2.482	2.169	2.821	2.083	1.751	2.037	2.41	3.2	2.695	3.242	2.247	2.285	2.042	2.444	2.309	1.999	2.114	2.076	2.385	2.558	2.36	1.858	2.357	2.261	2.241	2.4	2.098	2.45	2.129	2.543	2.414	2.479	2.737	2.568	2.56517
7170/	2.713	2.68	2.559	3.018	2.579	2.929	2.587	2.634	3.066	3.316	1.842	3.03	3.077	2.877	2.992	3.081	3.817	4.052	2.598	2.238	3.001	2.13	2.936	2.939	2.776	2.921	2.412	2.286	2.876	2.603	2.782	3.312	2.544	3.061	3.362	2.796	3.09	3.385	2.11	2.654	2.641	2.131	2.68	2.083	1.882	2.29	3.225	3.25	2.791	2.593	2.14	2.42	2.459	2.551	2.444	2.232	2.082	2.182	2.288	2.448	2.161	1.874	2.413	2.354	2.308	2.478	2.021	2.557	2.399	3.058	2.59	2.447	2.648	2.189	2.62365
7206/	2.651	2.573	2.272	2.96	2.65	2.848	2.712	2.638	3.113	3.41	1.976	3.011	3.083	3.091	2.968	3.069	3.835	3.915	2.734	2.238	2.909	2.299	3.612	3.066	2.799	3.017	2.485	2.16	2.902	2.643	3.027	2.597	2.984	3.45	3.548	2.899	3.276	3.389	2.32	2.842	2.705	2.086	3.456	2.131	1.839	2.044	2.755	3.085	2.603	2.598	2.231	2.233	2.501	2.484	2.374	2.126	1.932	2.043	2.786	2.507	2.396	2.215	2.508	2.238	2.368	2.527	2.102	2.564	2.338	2.16	2.203	2.414	2.497	2.884	2.6411
7207/	2.583	2.844	2.195	2.753	2.684	2.904	2.938	2.743	3.195	2.98	1.701	2.954	3.115	2.798	2.805	2.96	4.026	3.951	2.761	2.339	3.097	2.138	3.436	2.966	2.676	2.818	2.245	2.115	2.848	2.445	2.941	2.795	2.64	3.435	3.049	2.8	3.434	3.461	2.071	2.231	2.63	2.154	3.822	1.963	1.726	2.109	3.3	2.846	2.497	2.584	2.338	2.071	2.25	2.372	1.996	2.027	1.862	2.034	2.071	2.61	2.685	2.124	2.425	2.238	2.069	2.955	1.877	2.269	2.263	2.238	2.035	2.496	2.662	2.545	2.58666
7229/	2.22	2.645	2.31	2.86	2.354	2.208	2.749	2.767	3.363	2.443	2.019	2.654	2.552	2.517	2.554	2.628	3.886	3.807	2.718	2.232	3.007	2.363	3.21	2.402	2.616	2.791	2.212	2.347	2.762	2.456	2.32	2.618	2.684	2.893	2.996	2.5	2.853	2.957	2.256	2.531	2.466	2.114	2.755	2.122	1.776	2.351	2.391	2.956	2.573	2.515	2.618	2.024	1.643	2.014	1.968	2.072	1.896	2.223	2.464	2.853	2.557	2.025	1.947	1.91	2.352	2.055	2.273	2.259	2.201	1.909	2.605	2.057	2.453	2.858	2.44554
7230/	2.194	2.536	2.4	2.512	2.186	2.231	2.733	2.534	2.935	2.604	1.859	2.679	2.49	2.362	2.415	2.605	3.577	3.369	2.408	2.02	2.427	2.133	2.924	2.51	2.512	2.469	2.3	1.981	2.475	2.351	2.601	2.306	2.48	2.913	3.2	2.29	2.676	2.58	2.048	2.268	2.267	1.826	2.167	1.904	1.981	2.317	2.252	2.426	2.467	1.997	1.757	1.788	1.703	2.158	1.883	1.935	1.89	1.866	1.993	1.938	2.216	1.682	1.908	2.242	2.036	2.415	1.863	2.034	2.08	2.23	2.368	2.0	1.989	2.564	2.27011
7286/	2.436	2.757	2.443	2.978	2.989	2.801	2.651	2.793	3.364	3.198	1.907	3.133	3.921	3.035	3.086	3.265	3.31	3.601	2.917	2.428	3.025	2.406	3.438	2.961	3.019	3.099	2.481	2.375	2.893	2.737	2.942	3.234	2.52	3.4	3.581	3.02	3.151	3.496	3.177	2.608	2.746	1.988	2.893	2.152	1.847	2.475	2.875	2.94	2.846	2.874	1.895	2.382	2.139	2.347	2.653	2.236	2.569	2.105	2.411	2.641	2.615	1.987	2.184	2.48	2.357	2.305	2.179	2.564	2.259	2.182	2.685	2.323	2.679	2.444	2.70452
7287/	2.682	2.565	2.158	2.81	3.304	3.121	2.857	2.616	3.445	2.949	1.983	2.997	3.048	3.01	3.036	3.147	3.515	3.548	2.991	2.423	2.587	2.368	3.581	2.949	2.834	2.895	2.396	2.328	2.856	2.625	2.916	2.967	2.664	3.769	3.758	2.777	2.982	3.203	2.591	2.807	2.772	2.261	3.395	2.088	1.913	2.254	3.317	3.217	3.174	2.608	2.094	2.417	2.55	2.652	2.104	2.078	2.002	2.255	1.885	1.963	2.497	2.342	2.424	2.433	2.249	2.619	2.032	2.694	2.533	2.55	2.64	2.255	2.638	2.37	2.70026
7289/	2.335	2.476	2.198	2.63	2.497	2.713	2.749	2.64	2.989	2.679	1.496	2.845	2.963	2.555	2.573	2.9	3.095	3.418	2.478	2.249	2.686	1.952	3.146	2.638	2.57	2.823	2.294	2.089	2.914	2.496	2.519	2.683	2.778	3.4	3.443	2.663	2.576	3.098	2.069	2.306	2.563	1.933	3.328	1.822	1.988	2.194	2.666	2.947	2.665	2.533	1.978	2.29	2.254	2.32	2.238	1.942	2.009	1.92	2.458	2.197	2.032	2.019	2.259	2.423	1.912	2.531	2.11	2.283	2.399	2.521	2.17	2.548	2.348	3.0	2.45851
7290/	2.471	2.199	2.335	2.807	2.557	2.691	2.717	2.56	2.823	2.317	1.854	2.717	2.671	2.855	2.689	2.788	3.906	3.939	2.511	2.247	2.864	2.196	3.355	2.693	2.913	2.815	2.386	2.081	2.775	2.543	2.609	2.514	2.181	3.142	3.323	2.402	2.773	2.864	2.303	3.196	2.318	1.931	3.186	1.733	1.868	2.218	2.311	2.612	2.616	3.258	2.001	2.385	2.307	2.394	2.625	2.056	2.138	2.123	2.133	2.241	2.153	2.345	2.181	2.456	2.291	2.45	2.154	2.408	2.451	2.865	2.102	2.228	2.3	2.3	2.49679
7293/	2.459	2.939	2.318	3.021	2.623	3.131	3.187	3.051	3.407	2.68	2.106	3.066	3.13	3.247	3.093	3.167	3.081	3.677	2.905	2.468	3.031	2.626	3.223	2.975	3.115	3.297	2.552	2.254	2.788	2.841	2.883	3.25	2.787	3.602	3.332	3.285	3.303	3.579	2.198	2.653	2.909	2.13	3.205	2.256	1.89	2.975	3.236	2.93	2.858	2.891	2.285	2.419	2.206	2.469	2.577	2.332	2.496	2.416	2.681	2.399	2.815	2.295	2.373	2.696	2.505	2.847	2.344	2.689	2.353	2.94	2.883	2.745	2.878	2.992	2.78505
7321/	2.456	2.814	2.47	3.039	2.786	2.762	2.818	2.624	2.908	3.106	2.129	2.894	3.012	2.818	2.797	3.161	3.891	3.647	2.677	2.337	2.883	2.352	3.29	2.884	2.947	2.97	2.436	2.155	2.95	2.389	2.868	3.04	2.677	3.354	3.193	2.622	3.026	3.409	2.245	2.765	2.591	2.159	2.509	2.231	1.869	2.2	2.585	3.05	2.807	2.611	1.865	2.321	2.212	2.458	2.498	2.073	1.9	1.852	2.462	2.299	2.58	2.098	2.294	2.288	2.359	2.069	2.087	2.498	2.337	2.795	2.082	2.415	2.534	2.467	2.59714
7341/	2.504	2.201	2.352	2.662	2.372	2.635	2.72	2.699	2.978	2.697	1.757	2.577	2.576	2.567	2.441	2.64	3.309	3.401	2.448	2.0	2.675	2.067	3.316	2.578	2.647	2.571	2.185	2.095	2.678	2.313	2.761	2.326	2.475	2.86	2.689	2.427	2.709	3.064	2.008	2.167	2.464	1.701	2.945	1.913	1.784	2.25	2.628	2.682	2.465	2.786	1.918	2.148	2.158	2.32	2.386	2.036	2.003	2.004	2.145	2.481	2.601	2.151	2.079	2.028	2.017	2.356	1.993	2.257	2.285	2.499	2.257	2.454	2.523	2.671	2.40181
7359/	0.9	0.0	0.736	2.131	2.44	0.108	0.0	0.0	0.0	0.0	0.363	2.18	0.0	1.893	1.704	1.447	0.321	1.648	1.598	0.806	0.0	3.486	1.543	1.417	1.773	1.715	1.666	1.735	1.646	0.0	1.404	1.117	1.773	0.408	1.742	0.546	0.0	0.0	1.186	0.0	2.651	1.228	0.0	0.985	2.469	0.0	1.084	1.6	2.678	0.0	0.0	1.722	1.684	1.332	1.59	2.433	0.0	1.084	0.0	0.0	0.0	0.0	1.396	0.996	0.153	0.0	1.704	1.612	1.526	1.081	0.0	0.0	0.973	1.712	1.62111
7366/	2.136	2.538	2.346	2.506	2.648	2.684	2.742	2.568	3.005	2.693	1.904	2.696	2.695	2.687	2.838	3.006	3.679	3.595	2.6	2.256	2.708	2.177	2.865	2.76	2.742	2.775	2.237	2.303	2.607	2.411	2.687	3.129	2.307	3.112	2.989	2.567	2.934	3.076	2.368	2.572	2.434	2.11	2.516	2.105	1.915	2.264	2.568	2.686	2.64	2.388	2.124	2.258	2.257	2.342	2.371	2.053	1.973	1.976	2.177	2.405	2.271	1.783	2.106	2.1	2.374	2.44	2.011	2.33	2.24	1.803	2.39	2.347	2.42	3.249	2.49755
7367/	2.138	2.069	2.368	2.769	2.691	2.879	3.156	2.887	3.121	3.083	1.905	3.032	2.857	3.029	3.017	3.056	3.627	3.754	2.687	2.433	2.826	2.358	2.999	2.969	2.684	2.835	2.267	2.381	2.828	2.432	2.781	2.311	2.516	3.155	3.133	2.55	3.175	3.242	2.623	2.622	2.654	2.151	3.309	2.07	2.011	2.271	2.755	3.017	3.021	2.981	1.802	2.337	2.287	2.717	2.173	2.194	1.794	2.117	2.313	2.594	2.52	1.991	2.35	2.258	2.367	2.115	2.181	2.635	2.199	2.748	2.308	2.596	2.519	3.346	2.61553
7368/	2.012	2.545	2.218	2.585	2.392	2.474	2.59	2.275	2.75	2.577	1.753	2.825	2.724	2.823	2.506	2.709	3.192	3.374	2.579	2.226	2.879	2.066	2.79	2.434	2.772	2.64	2.26	2.3	2.623	2.504	2.322	2.761	2.676	3.027	3.097	2.37	2.917	2.917	2.302	2.354	2.33	1.88	2.929	1.9	1.996	2.068	2.419	2.481	2.389	2.394	2.092	1.932	1.937	2.382	2.378	2.033	2.219	2.06	2.255	2.316	2.026	1.548	1.957	1.89	2.321	2.035	2.107	2.296	2.092	1.938	2.108	2.483	2.409	2.512	2.39003
7515/	1.058	1.788	1.58	1.974	1.081	1.609	0.0	1.714	0.0	1.46	1.702	1.604	1.905	1.996	1.751	1.469	1.781	1.384	1.969	1.987	1.842	1.686	1.702	1.716	1.83	1.681	2.651	1.888	1.751	1.527	1.506	1.638	1.771	1.496	2.599	1.643	1.513	1.523	1.44	0.0	2.086	2.055	2.025	1.45	2.055	1.745	1.311	2.032	1.692	1.803	1.995	1.679	1.914	1.709	1.842	1.638	2.058	1.854	2.501	1.563	1.505	1.915	1.553	1.751	2.75	1.416	1.916	1.468	2.042	1.362	0.0	1.815	1.856	2.272	1.77679
7516/	2.448	2.901	2.279	2.886	3.026	2.808	2.508	2.506	2.998	2.994	1.901	2.817	2.596	2.847	2.599	2.827	3.243	3.192	2.642	2.364	2.878	2.47	3.032	2.462	2.742	2.714	2.32	2.294	2.743	2.318	2.656	2.622	2.478	2.797	3.164	2.724	2.925	3.21	2.121	2.507	2.295	1.96	2.864	1.96	1.983	2.152	2.334	2.407	2.463	2.284	2.006	2.418	2.439	2.33	2.193	2.118	1.866	2.013	2.441	2.249	2.43	1.992	2.075	2.45	2.369	2.289	2.255	2.416	2.111	2.728	2.396	2.35	2.488	2.56	2.48959
7576/	2.071	1.777	3.415	1.763	3.616	2.687	3.93	4.779	0.0	0.0	2.202	1.578	2.01	2.326	2.162	3.314	2.498	2.17	1.795	2.318	2.743	2.612	2.431	1.904	2.638	2.302	2.837	2.281	1.839	3.152	1.956	1.929	2.402	1.86	1.536	2.481	1.874	2.084	2.811	2.472	2.277	1.396	1.6	2.323	2.012	3.512	2.893	2.202	2.569	3.542	1.584	2.01	3.444	3.516	2.929	2.609	2.02	2.672	2.273	1.593	2.978	1.495	2.207	1.637	1.775	3.291	2.853	2.208	2.512	1.376	2.471	2.546	2.259	0.0	2.38858
7581/	2.082	2.296	1.286	1.692	2.495	1.594	1.854	2.008	2.311	2.654	1.853	1.747	2.78	2.515	2.017	1.712	3.066	1.704	2.037	1.56	1.936	1.921	2.64	2.011	2.389	2.407	1.746	1.614	1.805	1.749	1.444	1.43	1.181	1.825	1.59	2.42	2.233	2.37	1.945	3.217	2.092	2.146	2.015	2.035	2.342	1.793	1.404	2.58	2.85	1.774	2.08	2.318	2.199	2.096	1.935	2.055	2.294	2.072	2.18	1.984	1.708	3.55	1.682	1.701	2.125	1.337	2.39	1.933	2.074	1.504	2.296	2.463	2.059	1.759	2.01364
7620/	2.166	2.005	2.152	2.094	1.526	1.91	1.842	2.556	1.134	1.35	2.008	2.01	1.162	2.349	1.545	1.712	1.733	1.591	2.034	1.628	2.123	1.773	1.623	1.58	1.989	1.865	1.891	1.87	1.849	1.773	1.653	1.335	1.651	1.85	2.177	2.052	2.014	1.953	2.335	2.806	2.069	1.661	1.976	1.738	2.175	1.724	1.584	2.456	2.104	2.341	2.022	2.023	0.552	1.655	1.842	1.497	2.11	1.928	2.068	2.061	1.812	2.38	2.636	1.708	2.046	1.341	1.886	1.83	2.261	0.0	2.401	2.152	1.897	1.584	1.87087
7636/	1.2	1.216	2.617	1.868	1.757	1.541	1.769	1.454	2.348	1.776	1.924	1.891	1.459	2.311	3.84	1.809	0.995	1.11	2.164	2.222	0.067	1.181	0.0	0.925	2.666	2.533	2.825	2.336	3.575	2.536	0.102	0.519	1.036	1.062	0.165	1.809	1.3	0.462	0.729	1.876	1.946	1.45	0.0	2.404	3.277	2.394	0.679	1.049	2.123	0.0	0.097	3.583	2.408	2.657	4.012	1.975	2.418	2.837	1.806	0.848	0.112	1.35	1.043	0.171	1.783	1.659	3.044	4.577	3.13	0.0	2.166	0.176	1.272	0.0	2.18481
7690/	2.355	2.335	2.194	2.672	2.519	2.814	2.5	2.397	2.898	3.019	1.652	2.554	3.051	2.491	2.599	2.71	3.253	3.115	2.401	2.143	2.771	2.025	3.431	2.811	2.355	2.595	2.35	2.099	2.65	2.295	2.596	2.599	2.295	3.153	3.634	2.365	2.942	3.073	2.337	2.239	2.238	1.929	3.563	1.799	1.905	2.143	2.842	2.742	2.423	2.846	1.599	2.025	1.999	2.231	2.044	1.977	1.786	1.809	1.862	2.209	2.398	2.082	2.245	2.511	2.236	2.198	2.004	2.364	2.141	2.544	2.201	2.544	2.349	2.34	2.40311
7802/	2.198	2.155	2.444	2.403	2.666	2.695	2.602	2.412	2.62	2.296	1.737	2.674	2.852	2.63	2.571	2.839	3.177	3.279	2.447	2.2	2.254	1.962	2.953	2.662	2.574	2.672	2.265	2.195	2.653	2.415	2.653	2.302	2.585	2.953	3.156	2.437	3.001	2.916	1.945	2.15	2.25	1.841	3.208	1.68	1.951	2.398	2.361	2.586	2.506	2.486	1.795	2.117	2.303	2.28	1.895	2.109	1.9	2.006	2.182	2.32	2.291	2.171	2.094	2.495	2.198	1.979	1.981	2.327	1.994	2.556	2.526	2.326	2.427	2.481	2.40492
7803/	2.069	2.574	2.31	2.377	2.212	2.751	2.817	2.559	2.99	2.675	1.746	2.806	2.597	2.395	2.581	2.79	3.663	3.633	2.447	2.243	2.886	1.933	2.801	2.789	2.628	2.565	2.21	1.885	2.603	2.379	2.833	2.855	2.497	3.031	3.063	2.306	2.942	2.936	2.009	2.365	2.26	2.12	2.887	2.007	1.863	2.176	2.766	2.801	2.516	3.03	2.16	2.177	2.007	2.251	2.243	1.878	1.891	1.907	2.184	2.588	2.343	1.801	2.371	2.477	2.228	2.145	1.971	2.357	2.126	2.184	2.469	2.372	2.407	2.274	2.42617
7831/	2.404	2.022	3.786	4.033	2.237	3.766	4.614	3.996	4.055	2.799	3.146	3.305	3.61	4.322	1.221	3.47	4.088	4.18	1.651	2.975	0.0	1.864	1.745	3.243	3.144	3.965	3.524	2.053	2.201	3.71	2.618	2.45	4.296	4.111	2.775	4.104	3.227	2.402	4.117	3.772	4.01	1.216	2.73	2.895	2.137	4.087	4.056	3.74	3.951	1.963	1.051	2.187	2.514	2.772	1.922	3.442	2.448	3.423	2.134	0.0	0.932	3.561	2.226	3.676	3.994	3.556	2.101	1.962	1.896	3.905	4.157	2.281	2.724	4.129	3.09105
7895/	2.271	2.955	2.28	2.812	2.515	2.611	2.868	2.691	3.078	2.399	1.946	2.716	2.989	2.629	2.692	2.879	3.169	3.607	2.771	2.279	3.021	2.367	3.227	2.777	2.707	2.82	2.262	2.234	2.921	2.405	2.538	2.768	2.404	3.279	2.828	2.702	2.952	3.329	2.179	1.892	2.336	2.208	3.443	1.918	2.052	2.153	2.565	2.73	2.299	2.415	2.275	2.102	1.821	2.256	2.136	2.159	2.372	2.228	2.516	2.502	2.322	2.395	1.772	2.206	2.337	2.174	2.053	2.274	2.406	2.994	2.35	2.526	2.515	2.543	2.5261
7904/	2.839	2.497	2.194	2.766	3.024	2.931	2.952	2.908	3.204	3.154	2.378	3.134	3.318	3.048	2.916	3.298	3.743	3.945	2.722	2.183	3.004	2.518	3.201	3.183	3.08	3.287	2.645	2.214	2.87	2.406	3.116	3.769	2.808	3.269	3.339	2.992	3.215	3.389	2.443	2.448	2.746	1.985	3.283	2.386	1.837	2.445	2.503	3.105	2.735	2.813	2.008	2.443	2.128	2.177	2.185	2.253	1.919	2.046	2.23	2.237	2.787	2.175	2.3	2.208	2.438	2.602	2.111	2.546	2.082	2.587	2.552	2.485	2.575	2.418	2.6651
7906/	2.112	2.506	2.296	2.556	2.476	2.515	2.886	2.523	3.287	3.115	1.854	2.625	2.897	2.53	2.514	2.799	3.21	3.65	2.517	2.183	2.878	2.075	2.854	2.871	2.667	2.732	2.257	2.152	2.617	2.416	2.686	2.663	2.611	3.038	2.971	2.557	3.151	3.101	2.47	2.083	2.374	1.976	3.413	1.8	1.754	2.135	2.846	2.542	2.614	3.35	2.131	2.047	1.834	2.207	1.985	1.994	1.867	1.943	2.289	2.899	2.331	2.293	2.72	2.085	2.207	2.58	2.126	2.347	2.082	2.237	2.52	2.618	2.576	2.643	2.45832
7953/	2.203	2.454	2.521	2.872	2.325	2.418	2.752	2.555	2.761	2.67	1.938	2.888	3.273	2.629	2.554	2.712	3.384	3.655	2.48	2.213	2.574	2.371	2.926	2.906	2.712	2.836	2.243	2.174	2.784	2.434	2.682	2.263	3.041	3.003	3.058	2.856	2.977	3.0	2.397	2.301	2.3	2.107	3.145	2.017	2.154	2.227	2.754	2.706	2.553	2.376	1.996	2.014	2.017	2.053	2.524	2.133	1.957	2.014	2.235	2.185	2.305	2.265	1.919	2.398	2.095	2.328	2.004	2.32	2.127	1.961	2.045	2.683	2.459	3.099	2.45527
7954/	2.36	2.69	2.565	2.885	2.791	2.845	2.939	2.827	3.095	3.245	2.136	3.257	3.323	2.88	2.975	3.255	4.027	4.056	2.794	2.344	2.885	2.459	3.212	3.311	2.984	3.065	2.603	2.333	3.189	2.632	3.034	2.595	2.803	3.178	3.308	2.731	3.14	3.301	2.562	2.35	2.837	2.032	3.001	2.179	2.227	2.339	3.148	2.882	2.972	2.216	1.933	2.417	2.428	2.212	2.461	2.324	1.988	2.175	2.425	2.328	2.322	2.5	2.167	2.54	2.381	2.379	2.106	2.564	2.265	3.082	2.207	2.505	2.672	2.713	2.67325
7965/	1.896	1.718	2.349	2.381	1.041	1.626	1.374	0.0	0.0	0.0	0.0	1.845	3.217	2.936	1.399	1.733	3.964	2.094	1.485	0.943	1.68	0.0	1.92	2.702	1.421	1.636	1.744	1.266	1.68	2.454	1.775	1.331	1.674	1.45	3.722	2.534	1.469	2.0	3.785	3.698	2.202	1.111	1.026	0.0	1.844	0.0	3.378	1.244	2.54	0.0	0.175	1.605	1.432	1.514	1.456	1.451	1.564	1.41	1.421	1.951	0.0	0.0	1.718	3.384	0.0	2.156	1.514	1.96	2.235	2.055	0.0	1.987	1.401	2.026	1.5899
8155/	2.622	3.052	2.46	2.973	2.864	2.876	2.73	2.727	3.002	2.989	2.074	3.155	2.784	2.961	2.69	3.05	3.57	3.884	2.715	2.566	2.859	2.382	3.344	2.919	3.063	2.809	2.398	2.363	3.099	2.433	3.17	2.857	2.807	3.464	3.584	2.607	3.13	3.434	2.279	2.618	2.534	2.234	3.328	2.03	2.228	2.359	2.923	2.862	2.834	2.962	2.434	2.315	2.304	2.664	2.16	2.214	2.136	2.329	2.608	2.05	2.369	1.925	3.041	2.68	2.228	2.247	2.204	2.423	2.714	3.002	2.644	2.681	2.609	2.884	2.68188
8231/	2.57	2.599	2.391	2.895	2.982	2.917	2.838	2.681	2.888	3.064	2.054	2.724	3.077	2.929	2.708	3.024	3.173	3.969	2.692	2.327	2.918	2.095	3.449	2.686	2.933	2.97	2.427	2.312	2.716	2.682	3.312	3.389	2.573	3.294	3.292	2.397	3.307	3.178	2.143	2.748	2.701	2.268	2.945	1.973	1.883	2.432	2.728	2.751	2.781	2.586	2.065	2.204	2.0	2.534	2.477	2.29	2.259	2.288	2.597	2.754	2.538	2.108	2.863	2.33	2.449	1.857	2.286	2.394	2.318	3.33	2.728	2.616	2.566	2.316	2.63149
8307/	1.849	1.906	1.37	1.775	1.67	2.379	1.756	2.439	0.0	1.453	1.641	1.647	2.099	1.609	1.274	1.892	2.189	1.947	2.066	1.759	2.576	1.585	1.472	1.661	1.919	1.881	1.628	1.399	1.506	2.347	1.918	2.185	1.358	1.66	2.266	1.997	1.758	2.167	2.45	1.922	1.886	1.711	2.32	1.826	1.561	2.032	2.131	1.935	1.922	1.565	2.497	1.774	1.888	1.93	1.747	1.866	2.173	1.925	1.944	2.008	1.622	2.002	1.547	2.045	1.928	2.293	2.031	1.906	1.674	1.351	2.257	1.6	1.847	1.238	1.8185
8350/	2.801	2.017	1.946	1.912	2.142	1.712	1.583	1.805	0.0	0.0	1.893	1.988	2.302	2.654	2.246	1.841	1.924	1.734	1.77	1.989	1.855	1.741	2.04	2.406	2.26	2.113	2.206	2.398	2.027	1.961	2.115	0.0	1.854	1.923	1.822	1.968	1.864	2.248	2.191	2.7	1.728	1.953	2.33	1.834	2.302	2.08	2.215	2.135	2.237	2.058	1.688	2.36	1.818	2.339	3.219	2.365	2.294	2.299	1.977	2.709	1.832	3.237	2.041	2.649	2.066	0.0	2.144	1.785	2.314	1.7	1.932	2.289	2.258	2.365	2.08166
