rh.aparc.a2009s.meancurv	rh_G_and_S_frontomargin_meancurv	rh_G_and_S_occipital_inf_meancurv	rh_G_and_S_paracentral_meancurv	rh_G_and_S_subcentral_meancurv	rh_G_and_S_transv_frontopol_meancurv	rh_G_and_S_cingul-Ant_meancurv	rh_G_and_S_cingul-Mid-Ant_meancurv	rh_G_and_S_cingul-Mid-Post_meancurv	rh_G_cingul-Post-dorsal_meancurv	rh_G_cingul-Post-ventral_meancurv	rh_G_cuneus_meancurv	rh_G_front_inf-Opercular_meancurv	rh_G_front_inf-Orbital_meancurv	rh_G_front_inf-Triangul_meancurv	rh_G_front_middle_meancurv	rh_G_front_sup_meancurv	rh_G_Ins_lg_and_S_cent_ins_meancurv	rh_G_insular_short_meancurv	rh_G_occipital_middle_meancurv	rh_G_occipital_sup_meancurv	rh_G_oc-temp_lat-fusifor_meancurv	rh_G_oc-temp_med-Lingual_meancurv	rh_G_oc-temp_med-Parahip_meancurv	rh_G_orbital_meancurv	rh_G_pariet_inf-Angular_meancurv	rh_G_pariet_inf-Supramar_meancurv	rh_G_parietal_sup_meancurv	rh_G_postcentral_meancurv	rh_G_precentral_meancurv	rh_G_precuneus_meancurv	rh_G_rectus_meancurv	rh_G_subcallosal_meancurv	rh_G_temp_sup-G_T_transv_meancurv	rh_G_temp_sup-Lateral_meancurv	rh_G_temp_sup-Plan_polar_meancurv	rh_G_temp_sup-Plan_tempo_meancurv	rh_G_temporal_inf_meancurv	rh_G_temporal_middle_meancurv	rh_Lat_Fis-ant-Horizont_meancurv	rh_Lat_Fis-ant-Vertical_meancurv	rh_Lat_Fis-post_meancurv	rh_Pole_occipital_meancurv	rh_Pole_temporal_meancurv	rh_S_calcarine_meancurv	rh_S_central_meancurv	rh_S_cingul-Marginalis_meancurv	rh_S_circular_insula_ant_meancurv	rh_S_circular_insula_inf_meancurv	rh_S_circular_insula_sup_meancurv	rh_S_collat_transv_ant_meancurv	rh_S_collat_transv_post_meancurv	rh_S_front_inf_meancurv	rh_S_front_middle_meancurv	rh_S_front_sup_meancurv	rh_S_interm_prim-Jensen_meancurv	rh_S_intrapariet_and_P_trans_meancurv	rh_S_oc_middle_and_Lunatus_meancurv	rh_S_oc_sup_and_transversal_meancurv	rh_S_occipital_ant_meancurv	rh_S_oc-temp_lat_meancurv	rh_S_oc-temp_med_and_Lingual_meancurv	rh_S_orbital_lateral_meancurv	rh_S_orbital_med-olfact_meancurv	rh_S_orbital-H_Shaped_meancurv	rh_S_parieto_occipital_meancurv	rh_S_pericallosal_meancurv	rh_S_postcentral_meancurv	rh_S_precentral-inf-part_meancurv	rh_S_precentral-sup-part_meancurv	rh_S_suborbital_meancurv	rh_S_subparietal_meancurv	rh_S_temporal_inf_meancurv	rh_S_temporal_sup_meancurv	rh_S_temporal_transverse_meancurv
10398/	0.144	0.168	0.132	0.148	0.187	0.141	0.133	0.138	0.215	0.157	0.162	0.151	0.191	0.182	0.169	0.159	0.139	0.186	0.17	0.159	0.167	0.163	0.129	0.175	0.16	0.159	0.154	0.126	0.131	0.165	0.226	0.1	0.127	0.144	0.1	0.11	0.162	0.161	0.106	0.113	0.124	0.162	0.168	0.141	0.117	0.123	0.133	0.096	0.116	0.157	0.134	0.133	0.141	0.119	0.097	0.124	0.146	0.146	0.151	0.121	0.12	0.153	0.109	0.137	0.115	0.141	0.104	0.116	0.117	0.15	0.125	0.135	0.115	0.123
10423/	0.173	0.166	0.178	0.164	0.171	0.144	0.147	0.156	0.221	0.167	0.173	0.168	0.162	0.156	0.181	0.164	0.151	0.204	0.166	0.15	0.175	0.171	0.198	0.191	0.173	0.158	0.149	0.174	0.164	0.166	0.19	0.112	0.138	0.198	0.182	0.099	0.18	0.186	0.097	0.125	0.139	0.175	0.234	0.147	0.138	0.128	0.13	0.129	0.12	0.133	0.145	0.136	0.138	0.124	0.116	0.127	0.142	0.142	0.125	0.15	0.133	0.139	0.116	0.152	0.131	0.158	0.131	0.116	0.143	0.16	0.15	0.131	0.131	0.155
10524/	0.15	0.163	0.157	0.156	0.173	0.136	0.142	0.158	0.207	0.161	0.181	0.147	0.179	0.168	0.164	0.159	0.164	0.18	0.174	0.147	0.191	0.191	0.175	0.187	0.167	0.15	0.159	0.141	0.136	0.182	0.184	0.128	0.161	0.159	0.159	0.122	0.167	0.159	0.1	0.11	0.14	0.168	0.185	0.151	0.122	0.132	0.131	0.115	0.129	0.123	0.139	0.143	0.135	0.134	0.137	0.134	0.117	0.135	0.153	0.147	0.129	0.119	0.151	0.156	0.136	0.146	0.123	0.131	0.129	0.163	0.149	0.137	0.131	0.114
10536/	0.174	0.162	0.136	0.153	0.176	0.14	0.133	0.139	0.189	0.17	0.169	0.135	0.167	0.155	0.169	0.153	0.141	0.153	0.157	0.155	0.167	0.179	0.126	0.171	0.165	0.145	0.131	0.126	0.127	0.171	0.199	0.069	0.147	0.148	0.101	0.109	0.149	0.174	0.112	0.105	0.122	0.157	0.158	0.137	0.123	0.104	0.108	0.087	0.115	0.137	0.156	0.129	0.143	0.117	0.112	0.136	0.146	0.126	0.133	0.141	0.12	0.156	0.128	0.151	0.138	0.143	0.13	0.121	0.129	0.143	0.123	0.132	0.115	0.129
10547/	0.178	0.14	0.131	0.138	0.154	0.147	0.126	0.142	0.179	0.178	0.158	0.158	0.178	0.165	0.149	0.145	0.177	0.227	0.152	0.124	0.162	0.181	0.156	0.168	0.141	0.157	0.138	0.135	0.149	0.149	0.185	0.138	0.149	0.155	0.129	0.122	0.163	0.148	0.103	0.122	0.126	0.166	0.19	0.13	0.126	0.126	0.112	0.127	0.125	0.13	0.154	0.113	0.128	0.122	0.144	0.129	0.13	0.127	0.115	0.134	0.111	0.132	0.111	0.144	0.132	0.143	0.125	0.11	0.133	0.124	0.142	0.124	0.11	0.127
10563/	0.161	0.157	0.168	0.149	0.16	0.141	0.131	0.146	0.197	0.15	0.172	0.143	0.158	0.153	0.166	0.155	0.123	0.158	0.166	0.141	0.16	0.155	0.128	0.169	0.155	0.16	0.161	0.128	0.146	0.159	0.199	0.07	0.129	0.147	0.09	0.095	0.165	0.159	0.132	0.117	0.12	0.155	0.183	0.139	0.118	0.112	0.119	0.097	0.117	0.132	0.137	0.142	0.128	0.124	0.131	0.123	0.117	0.111	0.132	0.115	0.114	0.139	0.124	0.133	0.135	0.146	0.116	0.112	0.106	0.132	0.131	0.123	0.111	0.133
10566/	0.161	0.145	0.172	0.142	0.181	0.145	0.138	0.136	0.176	0.187	0.16	0.159	0.17	0.153	0.172	0.162	0.159	0.154	0.146	0.135	0.166	0.154	0.149	0.163	0.148	0.158	0.15	0.132	0.154	0.173	0.189	0.089	0.144	0.146	0.133	0.116	0.171	0.159	0.098	0.144	0.119	0.157	0.163	0.151	0.138	0.119	0.118	0.145	0.112	0.141	0.138	0.118	0.136	0.138	0.132	0.123	0.127	0.114	0.134	0.131	0.127	0.115	0.113	0.144	0.133	0.148	0.119	0.107	0.124	0.124	0.158	0.132	0.121	0.123
10606/	0.163	0.136	0.15	0.154	0.178	0.153	0.149	0.162	0.197	0.2	0.166	0.156	0.175	0.166	0.168	0.168	0.187	0.178	0.183	0.158	0.192	0.176	0.159	0.191	0.171	0.176	0.153	0.16	0.173	0.161	0.206	0.14	0.152	0.191	0.169	0.121	0.198	0.185	0.116	0.121	0.138	0.167	0.206	0.163	0.135	0.131	0.111	0.122	0.131	0.128	0.148	0.151	0.141	0.14	0.117	0.133	0.141	0.14	0.123	0.141	0.129	0.165	0.118	0.164	0.137	0.166	0.126	0.128	0.137	0.176	0.145	0.148	0.139	0.15
10620/	0.161	0.159	0.132	0.145	0.182	0.135	0.128	0.145	0.186	0.173	0.173	0.156	0.174	0.159	0.157	0.156	0.152	0.189	0.163	0.139	0.157	0.171	0.149	0.187	0.159	0.152	0.148	0.146	0.139	0.16	0.184	0.128	0.148	0.163	0.113	0.122	0.174	0.159	0.099	0.113	0.124	0.15	0.208	0.136	0.116	0.114	0.117	0.094	0.106	0.144	0.147	0.12	0.13	0.127	0.112	0.117	0.127	0.125	0.168	0.133	0.106	0.133	0.108	0.149	0.135	0.125	0.125	0.118	0.127	0.125	0.146	0.111	0.115	0.165
10621/	0.164	0.145	0.182	0.143	0.183	0.151	0.149	0.168	0.22	0.197	0.168	0.147	0.17	0.164	0.167	0.161	0.15	0.183	0.158	0.144	0.169	0.168	0.165	0.191	0.17	0.149	0.14	0.142	0.159	0.17	0.218	0.194	0.137	0.185	0.153	0.12	0.181	0.169	0.1	0.112	0.123	0.163	0.202	0.155	0.132	0.141	0.125	0.116	0.116	0.132	0.146	0.136	0.148	0.137	0.121	0.127	0.151	0.141	0.144	0.133	0.128	0.149	0.131	0.159	0.135	0.13	0.123	0.133	0.141	0.147	0.144	0.137	0.119	0.139
10667/	0.161	0.153	0.142	0.151	0.172	0.151	0.137	0.151	0.186	0.168	0.161	0.134	0.173	0.157	0.16	0.155	0.138	0.149	0.149	0.149	0.169	0.175	0.143	0.172	0.151	0.145	0.153	0.147	0.129	0.174	0.219	0.084	0.139	0.157	0.107	0.119	0.16	0.159	0.103	0.118	0.121	0.155	0.17	0.143	0.118	0.108	0.122	0.096	0.11	0.123	0.136	0.117	0.123	0.127	0.121	0.133	0.131	0.117	0.121	0.121	0.126	0.11	0.105	0.133	0.139	0.132	0.135	0.107	0.133	0.107	0.13	0.121	0.117	0.104
10813/	0.197	0.168	0.168	0.157	0.206	0.142	0.138	0.152	0.18	0.188	0.175	0.15	0.167	0.166	0.175	0.169	0.151	0.145	0.182	0.151	0.173	0.192	0.18	0.187	0.179	0.158	0.171	0.16	0.158	0.187	0.215	0.07	0.14	0.163	0.162	0.123	0.214	0.162	0.112	0.135	0.131	0.163	0.199	0.153	0.128	0.129	0.15	0.098	0.122	0.126	0.145	0.137	0.147	0.135	0.123	0.14	0.127	0.144	0.136	0.142	0.114	0.131	0.11	0.159	0.133	0.145	0.136	0.117	0.127	0.135	0.15	0.154	0.123	0.136
10903/	0.159	0.172	0.154	0.161	0.162	0.139	0.145	0.146	0.195	0.153	0.171	0.146	0.169	0.158	0.169	0.166	0.171	0.176	0.173	0.137	0.173	0.186	0.146	0.17	0.154	0.156	0.149	0.153	0.155	0.176	0.197	0.145	0.162	0.167	0.122	0.132	0.175	0.164	0.115	0.15	0.121	0.163	0.174	0.157	0.128	0.119	0.126	0.11	0.122	0.125	0.132	0.117	0.136	0.131	0.131	0.135	0.126	0.143	0.15	0.136	0.129	0.143	0.137	0.146	0.136	0.164	0.119	0.118	0.137	0.106	0.144	0.12	0.123	0.135
10943/	0.191	0.164	0.17	0.155	0.196	0.146	0.151	0.147	0.215	0.177	0.182	0.168	0.174	0.173	0.165	0.167	0.144	0.198	0.171	0.169	0.178	0.181	0.166	0.181	0.163	0.163	0.157	0.151	0.161	0.177	0.202	0.064	0.169	0.176	0.121	0.132	0.186	0.168	0.096	0.12	0.133	0.171	0.199	0.156	0.137	0.134	0.118	0.118	0.133	0.121	0.145	0.131	0.121	0.122	0.139	0.129	0.165	0.143	0.158	0.145	0.129	0.149	0.112	0.148	0.141	0.154	0.126	0.134	0.136	0.155	0.133	0.131	0.119	0.156
5202/	0.14	0.168	0.162	0.159	0.193	0.147	0.141	0.145	0.195	0.192	0.168	0.155	0.179	0.169	0.165	0.17	0.184	0.19	0.185	0.167	0.176	0.175	0.135	0.179	0.179	0.169	0.149	0.147	0.163	0.173	0.238	0.144	0.164	0.157	0.113	0.13	0.159	0.157	0.109	0.1	0.134	0.179	0.169	0.156	0.127	0.134	0.129	0.116	0.127	0.151	0.15	0.136	0.152	0.123	0.112	0.133	0.147	0.149	0.158	0.127	0.13	0.136	0.12	0.14	0.122	0.155	0.109	0.124	0.128	0.098	0.14	0.135	0.12	0.137
5302/	0.165	0.194	0.173	0.173	0.174	0.137	0.162	0.16	0.213	0.203	0.193	0.153	0.179	0.183	0.168	0.17	0.179	0.204	0.196	0.166	0.222	0.213	0.18	0.163	0.177	0.189	0.166	0.175	0.184	0.186	0.2	0.094	0.19	0.188	0.134	0.172	0.221	0.189	0.117	0.143	0.15	0.179	0.173	0.169	0.147	0.151	0.139	0.108	0.128	0.166	0.193	0.143	0.138	0.141	0.139	0.138	0.129	0.142	0.172	0.149	0.149	0.124	0.136	0.143	0.152	0.164	0.135	0.147	0.148	0.157	0.15	0.145	0.139	0.177
5305/	0.147	0.164	0.172	0.187	0.191	0.151	0.158	0.153	0.181	0.181	0.177	0.18	0.152	0.163	0.171	0.169	0.157	0.18	0.167	0.156	0.176	0.172	0.164	0.191	0.183	0.169	0.182	0.181	0.176	0.162	0.237	0.089	0.194	0.174	0.131	0.172	0.192	0.179	0.103	0.122	0.148	0.162	0.18	0.157	0.135	0.136	0.117	0.126	0.133	0.144	0.13	0.151	0.148	0.125	0.165	0.147	0.134	0.137	0.147	0.148	0.128	0.145	0.112	0.135	0.138	0.156	0.128	0.136	0.126	0.171	0.146	0.142	0.14	0.155
5306/	0.157	0.162	0.184	0.164	0.179	0.159	0.16	0.156	0.228	0.174	0.203	0.174	0.162	0.171	0.183	0.171	0.154	0.176	0.178	0.149	0.174	0.197	0.163	0.18	0.175	0.175	0.156	0.166	0.189	0.182	0.203	0.077	0.152	0.215	0.158	0.125	0.196	0.194	0.108	0.123	0.139	0.162	0.225	0.161	0.148	0.14	0.127	0.121	0.126	0.141	0.156	0.148	0.152	0.14	0.139	0.147	0.154	0.153	0.146	0.188	0.146	0.194	0.134	0.158	0.137	0.159	0.14	0.151	0.156	0.109	0.151	0.134	0.144	0.139
5464/	0.188	0.175	0.2	0.183	0.198	0.157	0.169	0.173	0.25	0.208	0.183	0.172	0.192	0.195	0.186	0.189	0.196	0.225	0.189	0.169	0.201	0.193	0.204	0.198	0.196	0.189	0.167	0.176	0.218	0.182	0.245	0.107	0.207	0.189	0.163	0.17	0.189	0.193	0.153	0.189	0.161	0.179	0.212	0.185	0.168	0.139	0.139	0.142	0.144	0.184	0.166	0.152	0.155	0.138	0.179	0.136	0.147	0.144	0.164	0.159	0.158	0.17	0.166	0.157	0.161	0.186	0.143	0.138	0.203	0.167	0.156	0.16	0.157	0.165
5505/	0.187	0.15	0.165	0.154	0.175	0.146	0.155	0.162	0.224	0.182	0.177	0.167	0.187	0.181	0.162	0.163	0.151	0.17	0.197	0.173	0.165	0.184	0.19	0.188	0.187	0.158	0.162	0.139	0.157	0.2	0.26	0.123	0.149	0.158	0.122	0.127	0.176	0.179	0.105	0.123	0.119	0.172	0.2	0.154	0.124	0.136	0.123	0.104	0.114	0.138	0.166	0.121	0.142	0.126	0.141	0.137	0.155	0.144	0.14	0.155	0.127	0.147	0.12	0.144	0.144	0.138	0.125	0.123	0.123	0.115	0.152	0.13	0.131	0.158
5506/	0.18	0.16	0.141	0.161	0.189	0.135	0.148	0.145	0.169	0.173	0.164	0.163	0.168	0.174	0.172	0.161	0.143	0.191	0.16	0.146	0.157	0.189	0.159	0.156	0.19	0.171	0.151	0.153	0.163	0.179	0.175	0.073	0.146	0.163	0.117	0.132	0.193	0.173	0.106	0.091	0.123	0.157	0.188	0.156	0.136	0.125	0.132	0.108	0.128	0.135	0.149	0.132	0.132	0.129	0.146	0.151	0.158	0.152	0.157	0.156	0.132	0.138	0.106	0.136	0.124	0.143	0.147	0.135	0.135	0.122	0.123	0.159	0.113	0.141
5514/	0.166	0.154	0.148	0.159	0.169	0.132	0.139	0.138	0.165	0.168	0.174	0.156	0.168	0.172	0.162	0.159	0.155	0.157	0.162	0.152	0.17	0.182	0.178	0.178	0.162	0.166	0.151	0.141	0.153	0.172	0.209	0.089	0.141	0.167	0.114	0.095	0.175	0.173	0.117	0.097	0.108	0.168	0.172	0.152	0.122	0.129	0.133	0.104	0.118	0.13	0.155	0.118	0.109	0.129	0.099	0.133	0.126	0.129	0.121	0.131	0.117	0.128	0.111	0.138	0.121	0.153	0.117	0.121	0.122	0.13	0.133	0.12	0.112	0.122
5515/	0.156	0.156	0.168	0.173	0.176	0.144	0.155	0.177	0.194	0.222	0.172	0.196	0.185	0.181	0.18	0.181	0.171	0.179	0.173	0.15	0.177	0.209	0.191	0.19	0.158	0.17	0.142	0.156	0.175	0.153	0.197	0.115	0.144	0.2	0.191	0.12	0.189	0.182	0.126	0.13	0.131	0.173	0.23	0.158	0.146	0.118	0.138	0.137	0.14	0.161	0.16	0.139	0.141	0.131	0.133	0.125	0.141	0.141	0.138	0.135	0.139	0.127	0.132	0.142	0.142	0.178	0.13	0.144	0.123	0.136	0.137	0.128	0.141	0.151
5516/	0.182	0.155	0.169	0.165	0.179	0.144	0.14	0.146	0.184	0.176	0.177	0.161	0.165	0.173	0.171	0.166	0.185	0.19	0.16	0.153	0.185	0.186	0.154	0.171	0.168	0.166	0.152	0.154	0.179	0.16	0.167	0.102	0.161	0.154	0.118	0.12	0.186	0.178	0.098	0.137	0.136	0.17	0.2	0.153	0.137	0.119	0.138	0.107	0.129	0.163	0.171	0.138	0.121	0.131	0.148	0.129	0.126	0.135	0.153	0.128	0.136	0.168	0.127	0.143	0.146	0.155	0.122	0.131	0.151	0.17	0.136	0.143	0.128	0.159
5518/	0.152	0.14	0.161	0.146	0.176	0.131	0.138	0.131	0.218	0.148	0.166	0.15	0.137	0.161	0.158	0.159	0.132	0.183	0.179	0.157	0.166	0.191	0.145	0.181	0.167	0.177	0.165	0.161	0.147	0.176	0.203	0.103	0.148	0.145	0.102	0.099	0.161	0.171	0.129	0.111	0.121	0.157	0.196	0.143	0.125	0.122	0.129	0.094	0.115	0.125	0.14	0.127	0.141	0.121	0.13	0.125	0.129	0.142	0.127	0.132	0.112	0.122	0.113	0.132	0.134	0.15	0.117	0.121	0.111	0.154	0.138	0.125	0.112	0.126
5640/	0.168	0.169	0.203	0.163	0.174	0.153	0.149	0.169	0.193	0.218	0.173	0.145	0.174	0.16	0.163	0.167	0.205	0.258	0.168	0.149	0.197	0.189	0.173	0.199	0.167	0.163	0.171	0.166	0.17	0.159	0.194	0.098	0.174	0.178	0.14	0.124	0.188	0.193	0.114	0.113	0.14	0.16	0.211	0.152	0.156	0.133	0.184	0.148	0.135	0.17	0.166	0.145	0.134	0.149	0.117	0.141	0.16	0.132	0.145	0.134	0.141	0.14	0.119	0.148	0.137	0.143	0.139	0.123	0.149	0.117	0.142	0.138	0.136	0.142
5649/	0.171	0.172	0.196	0.151	0.185	0.146	0.167	0.143	0.198	0.183	0.186	0.157	0.167	0.184	0.171	0.168	0.136	0.185	0.187	0.162	0.18	0.177	0.195	0.192	0.179	0.168	0.169	0.165	0.173	0.183	0.215	0.13	0.228	0.167	0.152	0.138	0.195	0.178	0.113	0.113	0.137	0.171	0.225	0.165	0.149	0.134	0.118	0.107	0.136	0.141	0.113	0.133	0.121	0.133	0.126	0.135	0.146	0.127	0.147	0.132	0.129	0.125	0.134	0.135	0.143	0.149	0.133	0.132	0.138	0.102	0.13	0.126	0.126	0.145
5754/	0.165	0.177	0.181	0.175	0.172	0.158	0.157	0.159	0.196	0.179	0.183	0.166	0.17	0.173	0.17	0.177	0.168	0.199	0.176	0.167	0.203	0.191	0.18	0.189	0.18	0.172	0.153	0.169	0.185	0.191	0.232	0.066	0.169	0.195	0.153	0.135	0.2	0.162	0.103	0.103	0.137	0.187	0.196	0.141	0.132	0.14	0.132	0.127	0.128	0.141	0.154	0.131	0.134	0.151	0.155	0.133	0.135	0.148	0.157	0.146	0.129	0.14	0.123	0.162	0.144	0.138	0.131	0.132	0.144	0.132	0.154	0.123	0.13	0.183
5755/	0.185	0.157	0.176	0.175	0.214	0.154	0.175	0.161	0.258	0.196	0.169	0.168	0.173	0.189	0.187	0.191	0.177	0.198	0.171	0.165	0.191	0.19	0.202	0.194	0.183	0.189	0.15	0.173	0.181	0.17	0.221	0.065	0.187	0.213	0.191	0.136	0.198	0.185	0.127	0.131	0.146	0.159	0.288	0.149	0.149	0.136	0.117	0.143	0.118	0.164	0.157	0.152	0.158	0.14	0.155	0.141	0.149	0.162	0.163	0.16	0.132	0.163	0.121	0.148	0.13	0.15	0.152	0.145	0.147	0.209	0.131	0.139	0.147	0.148
5771/	0.164	0.162	0.177	0.144	0.165	0.146	0.142	0.151	0.202	0.189	0.182	0.136	0.15	0.15	0.15	0.164	0.163	0.182	0.151	0.157	0.176	0.175	0.189	0.187	0.187	0.178	0.158	0.149	0.142	0.17	0.182	0.135	0.176	0.173	0.136	0.143	0.202	0.164	0.103	0.104	0.126	0.168	0.215	0.138	0.126	0.111	0.122	0.136	0.117	0.154	0.143	0.111	0.129	0.127	0.117	0.137	0.122	0.133	0.133	0.143	0.138	0.117	0.111	0.119	0.143	0.155	0.125	0.103	0.122	0.11	0.142	0.134	0.131	0.167
5798/	0.339	0.219	0.414	0.287	0.35	0.22	0.148	0.164	0.0	0.0	0.555	0.042	0.814	0.075	0.193	0.268	0.123	0.128	0.522	0.214	0.0	0.423	0.053	0.552	0.245	0.648	0.521	0.555	0.172	0.225	0.461	0.0	0.058	0.181	0.414	0.585	0.332	0.437	0.0	0.0	0.474	0.382	0.365	0.415	0.353	0.389	0.098	0.154	0.449	0.0	0.0	0.039	0.097	0.136	0.259	0.289	0.0	0.053	0.483	0.105	0.0	0.052	0.611	0.678	0.1	0.079	0.534	0.125	0.182	0.14	0.0	0.0	0.294	0.407
5825/	0.192	0.162	0.179	0.18	0.192	0.149	0.175	0.182	0.194	0.2	0.178	0.183	0.168	0.173	0.181	0.191	0.203	0.195	0.181	0.168	0.183	0.179	0.201	0.186	0.192	0.175	0.185	0.176	0.174	0.19	0.223	0.117	0.163	0.184	0.226	0.141	0.2	0.176	0.124	0.134	0.145	0.18	0.231	0.148	0.149	0.169	0.158	0.113	0.147	0.157	0.15	0.142	0.166	0.15	0.158	0.151	0.134	0.127	0.135	0.174	0.14	0.119	0.136	0.149	0.123	0.155	0.144	0.134	0.144	0.154	0.175	0.133	0.124	0.152
5843/	0.188	0.145	0.154	0.151	0.198	0.142	0.151	0.135	0.197	0.157	0.18	0.152	0.179	0.178	0.168	0.176	0.153	0.149	0.164	0.154	0.176	0.176	0.141	0.171	0.167	0.161	0.151	0.148	0.162	0.162	0.194	0.059	0.143	0.157	0.142	0.129	0.174	0.176	0.123	0.126	0.128	0.16	0.194	0.145	0.135	0.125	0.127	0.093	0.127	0.143	0.149	0.146	0.151	0.133	0.122	0.138	0.13	0.142	0.159	0.127	0.129	0.133	0.141	0.134	0.137	0.15	0.127	0.123	0.131	0.175	0.137	0.134	0.118	0.167
5844/	0.18	0.156	0.154	0.145	0.202	0.146	0.14	0.142	0.178	0.163	0.174	0.163	0.131	0.168	0.165	0.158	0.184	0.158	0.17	0.147	0.172	0.167	0.172	0.164	0.166	0.16	0.15	0.159	0.141	0.174	0.196	0.081	0.135	0.183	0.141	0.129	0.182	0.183	0.119	0.146	0.126	0.16	0.204	0.145	0.123	0.149	0.116	0.108	0.124	0.129	0.155	0.135	0.146	0.131	0.124	0.123	0.119	0.133	0.135	0.119	0.12	0.123	0.136	0.14	0.129	0.138	0.144	0.126	0.13	0.177	0.144	0.126	0.13	0.144
5899/	0.172	0.172	0.146	0.16	0.186	0.144	0.145	0.149	0.186	0.161	0.182	0.164	0.168	0.163	0.159	0.144	0.14	0.178	0.177	0.161	0.179	0.185	0.155	0.178	0.166	0.178	0.157	0.155	0.136	0.151	0.196	0.092	0.161	0.152	0.119	0.135	0.172	0.163	0.108	0.138	0.129	0.169	0.184	0.154	0.134	0.137	0.117	0.099	0.125	0.12	0.133	0.135	0.142	0.115	0.134	0.15	0.145	0.145	0.124	0.127	0.12	0.139	0.111	0.146	0.126	0.149	0.128	0.122	0.114	0.148	0.135	0.135	0.125	0.15
5900/	0.147	0.154	0.162	0.16	0.168	0.14	0.143	0.152	0.221	0.243	0.19	0.156	0.167	0.164	0.153	0.151	0.181	0.17	0.175	0.16	0.244	0.252	0.168	0.168	0.16	0.176	0.141	0.147	0.143	0.177	0.191	0.169	0.152	0.171	0.155	0.145	0.19	0.177	0.115	0.149	0.158	0.215	0.182	0.207	0.135	0.124	0.127	0.114	0.132	0.211	0.179	0.138	0.139	0.128	0.12	0.155	0.141	0.136	0.132	0.187	0.177	0.124	0.121	0.138	0.139	0.136	0.14	0.125	0.125	0.155	0.162	0.132	0.133	0.132
5902/	0.18	0.16	0.205	0.177	0.181	0.155	0.16	0.17	0.23	0.195	0.186	0.188	0.184	0.177	0.195	0.184	0.154	0.207	0.179	0.161	0.205	0.194	0.203	0.217	0.193	0.212	0.185	0.216	0.205	0.179	0.203	0.127	0.18	0.217	0.224	0.164	0.215	0.189	0.158	0.113	0.158	0.168	0.248	0.146	0.165	0.153	0.15	0.131	0.143	0.236	0.153	0.152	0.154	0.136	0.131	0.146	0.135	0.142	0.15	0.146	0.143	0.135	0.125	0.16	0.14	0.153	0.164	0.144	0.156	0.189	0.157	0.162	0.137	0.18
5953/	0.194	0.163	0.166	0.159	0.183	0.158	0.14	0.16	0.222	0.209	0.188	0.165	0.176	0.182	0.18	0.164	0.15	0.214	0.175	0.161	0.184	0.192	0.197	0.186	0.195	0.179	0.166	0.171	0.186	0.181	0.182	0.102	0.172	0.189	0.163	0.166	0.186	0.182	0.149	0.125	0.141	0.169	0.197	0.161	0.143	0.134	0.185	0.113	0.13	0.155	0.134	0.143	0.139	0.116	0.129	0.139	0.134	0.148	0.152	0.172	0.132	0.133	0.135	0.146	0.143	0.15	0.136	0.136	0.142	0.154	0.146	0.129	0.126	0.159
5955/	0.179	0.159	0.139	0.166	0.163	0.144	0.142	0.154	0.169	0.165	0.166	0.152	0.17	0.143	0.164	0.16	0.163	0.178	0.174	0.151	0.173	0.178	0.16	0.176	0.17	0.167	0.15	0.15	0.153	0.171	0.193	0.064	0.155	0.156	0.126	0.102	0.165	0.173	0.104	0.071	0.12	0.18	0.194	0.147	0.11	0.123	0.128	0.091	0.118	0.113	0.121	0.126	0.118	0.122	0.123	0.116	0.144	0.13	0.139	0.134	0.134	0.108	0.133	0.142	0.121	0.135	0.132	0.125	0.127	0.163	0.143	0.133	0.127	0.146
5977/	0.167	0.157	0.161	0.146	0.19	0.141	0.132	0.146	0.21	0.171	0.169	0.14	0.184	0.16	0.173	0.167	0.155	0.164	0.154	0.148	0.16	0.167	0.152	0.166	0.172	0.148	0.163	0.145	0.141	0.182	0.231	0.071	0.149	0.155	0.127	0.124	0.177	0.172	0.114	0.084	0.125	0.158	0.184	0.159	0.134	0.117	0.132	0.098	0.114	0.167	0.163	0.144	0.126	0.134	0.129	0.133	0.116	0.131	0.131	0.127	0.111	0.164	0.137	0.143	0.14	0.147	0.128	0.131	0.128	0.154	0.126	0.122	0.128	0.159
6010/	0.191	0.186	0.257	0.185	0.171	0.149	0.194	0.192	0.226	0.209	0.215	0.187	0.234	0.209	0.226	0.207	0.146	0.141	0.181	0.188	0.271	0.242	0.205	0.199	0.221	0.192	0.21	0.221	0.208	0.233	0.258	0.106	0.221	0.218	0.227	0.15	0.22	0.212	0.133	0.155	0.145	0.222	0.216	0.213	0.182	0.176	0.162	0.155	0.133	0.203	0.203	0.155	0.159	0.176	0.177	0.17	0.16	0.164	0.167	0.171	0.2	0.147	0.111	0.168	0.162	0.166	0.16	0.165	0.182	0.148	0.159	0.163	0.152	0.174
6026/	0.161	0.156	0.151	0.149	0.177	0.144	0.145	0.148	0.201	0.161	0.165	0.156	0.16	0.166	0.159	0.153	0.143	0.185	0.164	0.146	0.182	0.182	0.166	0.178	0.146	0.159	0.146	0.132	0.152	0.152	0.209	0.108	0.142	0.16	0.118	0.112	0.179	0.175	0.102	0.129	0.117	0.171	0.178	0.142	0.122	0.124	0.135	0.109	0.112	0.133	0.12	0.132	0.144	0.124	0.109	0.12	0.141	0.129	0.151	0.124	0.126	0.13	0.117	0.156	0.119	0.143	0.115	0.118	0.127	0.122	0.124	0.128	0.119	0.125
6028/	0.197	0.149	0.151	0.174	0.185	0.145	0.151	0.139	0.182	0.177	0.142	0.163	0.151	0.168	0.185	0.161	0.146	0.163	0.168	0.139	0.167	0.177	0.143	0.173	0.175	0.164	0.152	0.154	0.144	0.173	0.222	0.086	0.143	0.137	0.126	0.11	0.179	0.181	0.109	0.16	0.137	0.152	0.197	0.144	0.12	0.122	0.128	0.099	0.115	0.156	0.144	0.134	0.151	0.133	0.165	0.131	0.144	0.136	0.144	0.129	0.125	0.135	0.132	0.141	0.138	0.175	0.129	0.118	0.137	0.152	0.145	0.127	0.123	0.153
6033/	0.168	0.133	0.16	0.16	0.17	0.151	0.147	0.154	0.22	0.197	0.183	0.155	0.169	0.186	0.174	0.155	0.142	0.18	0.157	0.16	0.165	0.182	0.146	0.192	0.16	0.16	0.155	0.143	0.16	0.167	0.172	0.07	0.139	0.156	0.116	0.129	0.179	0.159	0.12	0.138	0.132	0.166	0.18	0.149	0.121	0.152	0.121	0.093	0.108	0.145	0.14	0.121	0.137	0.128	0.074	0.119	0.117	0.127	0.145	0.123	0.139	0.121	0.116	0.154	0.14	0.151	0.112	0.129	0.129	0.177	0.141	0.124	0.126	0.119
6034/	0.177	0.163	0.154	0.171	0.168	0.144	0.16	0.184	0.219	0.165	0.173	0.163	0.164	0.16	0.181	0.172	0.148	0.182	0.161	0.152	0.184	0.176	0.146	0.184	0.165	0.177	0.164	0.155	0.156	0.172	0.188	0.1	0.16	0.17	0.129	0.126	0.182	0.182	0.101	0.127	0.135	0.161	0.216	0.161	0.136	0.159	0.131	0.107	0.137	0.144	0.128	0.134	0.143	0.141	0.107	0.145	0.132	0.14	0.151	0.136	0.131	0.149	0.111	0.148	0.149	0.158	0.137	0.139	0.141	0.143	0.138	0.12	0.13	0.176
6035/	0.169	0.168	0.21	0.156	0.194	0.151	0.162	0.178	0.227	0.186	0.192	0.165	0.151	0.171	0.189	0.186	0.209	0.227	0.177	0.157	0.179	0.207	0.17	0.185	0.208	0.18	0.211	0.212	0.204	0.208	0.237	0.124	0.186	0.161	0.128	0.14	0.188	0.186	0.108	0.11	0.141	0.177	0.193	0.164	0.195	0.158	0.14	0.136	0.127	0.148	0.167	0.141	0.144	0.144	0.113	0.143	0.134	0.147	0.179	0.151	0.146	0.125	0.117	0.158	0.145	0.142	0.161	0.141	0.185	0.173	0.143	0.158	0.135	0.161
6040/	0.184	0.153	0.162	0.154	0.157	0.155	0.148	0.141	0.204	0.161	0.177	0.155	0.167	0.147	0.162	0.148	0.124	0.156	0.166	0.158	0.15	0.191	0.166	0.194	0.162	0.168	0.152	0.145	0.16	0.165	0.258	0.128	0.166	0.166	0.114	0.114	0.151	0.163	0.097	0.112	0.135	0.178	0.2	0.149	0.125	0.13	0.133	0.096	0.122	0.149	0.137	0.139	0.13	0.108	0.142	0.133	0.121	0.133	0.14	0.118	0.125	0.13	0.122	0.138	0.141	0.133	0.13	0.124	0.119	0.118	0.124	0.119	0.126	0.154
6044/	0.202	0.154	0.183	0.189	0.185	0.148	0.155	0.174	0.196	0.154	0.171	0.177	0.148	0.167	0.192	0.187	0.199	0.22	0.184	0.157	0.205	0.189	0.212	0.197	0.172	0.194	0.154	0.17	0.181	0.2	0.253	0.118	0.184	0.213	0.176	0.131	0.227	0.198	0.143	0.14	0.128	0.173	0.242	0.163	0.155	0.129	0.146	0.128	0.131	0.125	0.155	0.139	0.155	0.14	0.133	0.133	0.136	0.123	0.153	0.162	0.138	0.164	0.132	0.157	0.149	0.152	0.132	0.139	0.145	0.185	0.161	0.161	0.14	0.126
6045/	0.166	0.157	0.134	0.153	0.185	0.158	0.143	0.135	0.193	0.14	0.157	0.151	0.172	0.15	0.169	0.169	0.168	0.179	0.145	0.132	0.169	0.177	0.16	0.168	0.159	0.159	0.143	0.13	0.138	0.149	0.172	0.095	0.148	0.16	0.102	0.122	0.16	0.159	0.119	0.144	0.137	0.149	0.171	0.132	0.147	0.108	0.143	0.089	0.124	0.122	0.138	0.117	0.133	0.129	0.124	0.113	0.12	0.131	0.134	0.129	0.124	0.116	0.118	0.134	0.134	0.157	0.112	0.116	0.141	0.149	0.132	0.121	0.107	0.148
6050/	0.226	0.205	0.398	0.157	0.32	0.207	0.165	0.477	0.321	0.197	0.251	0.197	0.197	0.275	0.377	0.298	0.521	0.186	0.219	0.41	0.208	0.419	0.279	0.263	0.24	0.246	0.282	0.314	0.3	0.282	0.287	0.129	0.197	0.253	0.284	0.259	0.18	0.195	0.185	0.15	0.16	0.251	0.227	0.302	0.242	0.45	0.165	0.221	0.157	0.163	0.15	0.251	0.304	0.505	0.154	0.313	0.218	0.228	0.178	0.175	0.336	0.223	0.248	0.196	0.22	0.315	0.262	0.191	0.452	0.218	0.311	0.181	0.187	0.215
6057/	0.176	0.15	0.178	0.153	0.193	0.15	0.143	0.131	0.196	0.206	0.166	0.172	0.161	0.19	0.172	0.174	0.162	0.182	0.164	0.164	0.184	0.187	0.163	0.186	0.182	0.173	0.17	0.151	0.165	0.182	0.231	0.106	0.168	0.2	0.168	0.127	0.177	0.181	0.114	0.164	0.127	0.173	0.223	0.144	0.128	0.113	0.115	0.112	0.13	0.106	0.147	0.148	0.161	0.153	0.127	0.123	0.119	0.121	0.163	0.144	0.115	0.098	0.126	0.136	0.136	0.159	0.141	0.129	0.135	0.132	0.14	0.137	0.12	0.145
6058/	0.171	0.162	0.164	0.145	0.191	0.132	0.156	0.148	0.163	0.165	0.16	0.162	0.157	0.184	0.177	0.163	0.133	0.171	0.172	0.148	0.187	0.165	0.172	0.169	0.194	0.169	0.153	0.158	0.154	0.173	0.208	0.08	0.153	0.15	0.139	0.131	0.177	0.149	0.11	0.137	0.131	0.153	0.179	0.146	0.147	0.126	0.14	0.108	0.113	0.118	0.137	0.141	0.14	0.134	0.132	0.149	0.121	0.137	0.125	0.149	0.131	0.14	0.123	0.135	0.136	0.154	0.143	0.115	0.129	0.138	0.133	0.117	0.125	0.107
6060/	0.159	0.138	0.15	0.139	0.16	0.134	0.145	0.148	0.187	0.163	0.167	0.136	0.162	0.137	0.161	0.153	0.231	0.179	0.154	0.138	0.169	0.176	0.153	0.17	0.167	0.153	0.165	0.153	0.168	0.181	0.189	0.105	0.15	0.167	0.182	0.129	0.178	0.186	0.099	0.095	0.133	0.157	0.198	0.135	0.131	0.122	0.132	0.131	0.117	0.174	0.105	0.13	0.138	0.121	0.126	0.14	0.134	0.123	0.151	0.132	0.113	0.123	0.123	0.131	0.127	0.145	0.126	0.138	0.124	0.145	0.14	0.14	0.124	0.103
6102/	0.158	0.143	0.145	0.134	0.17	0.142	0.132	0.144	0.188	0.175	0.163	0.135	0.181	0.147	0.157	0.159	0.169	0.169	0.166	0.145	0.18	0.176	0.149	0.171	0.154	0.154	0.143	0.134	0.147	0.158	0.19	0.142	0.135	0.141	0.145	0.127	0.173	0.165	0.105	0.124	0.121	0.157	0.185	0.156	0.14	0.112	0.119	0.105	0.107	0.139	0.136	0.124	0.129	0.134	0.104	0.125	0.117	0.133	0.136	0.122	0.128	0.141	0.135	0.139	0.142	0.138	0.12	0.131	0.136	0.142	0.13	0.127	0.122	0.117
6103/	0.164	0.141	0.16	0.143	0.159	0.145	0.145	0.162	0.195	0.181	0.168	0.152	0.186	0.141	0.167	0.157	0.207	0.171	0.152	0.137	0.174	0.16	0.165	0.176	0.167	0.17	0.14	0.139	0.162	0.176	0.178	0.108	0.148	0.164	0.121	0.116	0.179	0.172	0.132	0.117	0.112	0.162	0.173	0.151	0.131	0.118	0.117	0.101	0.109	0.126	0.147	0.124	0.125	0.137	0.116	0.13	0.142	0.127	0.136	0.151	0.136	0.117	0.11	0.139	0.131	0.158	0.134	0.122	0.135	0.178	0.13	0.149	0.131	0.116
6105/	0.178	0.167	0.143	0.154	0.179	0.129	0.125	0.136	0.176	0.178	0.172	0.179	0.191	0.16	0.16	0.154	0.148	0.171	0.163	0.147	0.166	0.18	0.143	0.186	0.16	0.168	0.143	0.134	0.15	0.177	0.228	0.082	0.166	0.161	0.142	0.158	0.201	0.184	0.11	0.107	0.121	0.163	0.229	0.138	0.116	0.121	0.108	0.109	0.107	0.138	0.149	0.137	0.145	0.121	0.113	0.115	0.14	0.127	0.164	0.146	0.112	0.124	0.133	0.143	0.12	0.144	0.116	0.126	0.128	0.128	0.118	0.139	0.123	0.132
6138/	0.162	0.165	0.167	0.16	0.194	0.155	0.159	0.138	0.201	0.184	0.178	0.159	0.176	0.16	0.192	0.165	0.157	0.199	0.172	0.163	0.164	0.189	0.151	0.187	0.174	0.166	0.162	0.152	0.158	0.172	0.224	0.075	0.126	0.16	0.155	0.149	0.177	0.184	0.117	0.142	0.136	0.163	0.225	0.145	0.143	0.138	0.137	0.098	0.125	0.129	0.139	0.149	0.16	0.129	0.139	0.134	0.133	0.141	0.142	0.129	0.113	0.141	0.105	0.156	0.145	0.151	0.125	0.119	0.123	0.165	0.139	0.138	0.119	0.117
6149/	0.159	0.168	0.146	0.147	0.186	0.134	0.148	0.157	0.196	0.18	0.17	0.154	0.171	0.176	0.162	0.156	0.137	0.209	0.173	0.165	0.185	0.189	0.192	0.177	0.173	0.166	0.164	0.141	0.15	0.175	0.175	0.107	0.192	0.154	0.107	0.122	0.188	0.167	0.118	0.127	0.129	0.167	0.179	0.144	0.135	0.122	0.131	0.107	0.105	0.116	0.155	0.126	0.126	0.133	0.15	0.133	0.148	0.13	0.128	0.155	0.118	0.116	0.115	0.136	0.138	0.129	0.122	0.118	0.117	0.112	0.131	0.129	0.123	0.153
6162/	0.171	0.175	0.189	0.168	0.162	0.145	0.158	0.149	0.19	0.203	0.172	0.161	0.133	0.166	0.168	0.154	0.2	0.178	0.188	0.154	0.177	0.178	0.142	0.164	0.168	0.161	0.173	0.169	0.157	0.152	0.21	0.136	0.167	0.185	0.138	0.14	0.19	0.185	0.119	0.124	0.15	0.159	0.212	0.163	0.145	0.145	0.111	0.121	0.128	0.147	0.164	0.129	0.132	0.123	0.161	0.135	0.141	0.154	0.142	0.14	0.125	0.139	0.112	0.144	0.133	0.152	0.139	0.124	0.137	0.166	0.139	0.152	0.124	0.145
6163/	0.167	0.162	0.165	0.164	0.175	0.14	0.132	0.153	0.21	0.212	0.173	0.159	0.182	0.166	0.163	0.169	0.147	0.17	0.186	0.138	0.154	0.181	0.161	0.197	0.183	0.184	0.172	0.172	0.16	0.186	0.219	0.087	0.157	0.162	0.119	0.114	0.175	0.171	0.118	0.114	0.117	0.155	0.18	0.151	0.122	0.124	0.119	0.091	0.107	0.115	0.132	0.133	0.145	0.131	0.089	0.138	0.138	0.111	0.143	0.117	0.117	0.149	0.105	0.13	0.129	0.133	0.137	0.132	0.127	0.143	0.142	0.134	0.119	0.117
6165/	0.175	0.152	0.16	0.155	0.157	0.142	0.123	0.164	0.182	0.196	0.167	0.157	0.153	0.156	0.17	0.165	0.202	0.208	0.159	0.15	0.189	0.179	0.183	0.196	0.183	0.189	0.151	0.142	0.16	0.171	0.195	0.157	0.135	0.173	0.136	0.136	0.174	0.191	0.115	0.107	0.131	0.155	0.21	0.159	0.129	0.131	0.112	0.111	0.114	0.12	0.161	0.133	0.136	0.142	0.138	0.141	0.143	0.136	0.125	0.133	0.131	0.141	0.119	0.162	0.13	0.154	0.119	0.119	0.13	0.164	0.152	0.137	0.134	0.161
6167/	0.169	0.172	0.159	0.157	0.219	0.157	0.139	0.15	0.2	0.172	0.175	0.175	0.181	0.174	0.195	0.177	0.12	0.17	0.179	0.157	0.184	0.193	0.147	0.196	0.162	0.177	0.176	0.149	0.157	0.191	0.204	0.081	0.133	0.157	0.14	0.105	0.186	0.185	0.096	0.154	0.115	0.176	0.194	0.161	0.125	0.109	0.119	0.099	0.116	0.127	0.146	0.119	0.149	0.12	0.153	0.137	0.13	0.132	0.132	0.129	0.126	0.117	0.133	0.15	0.132	0.143	0.125	0.123	0.119	0.155	0.126	0.127	0.111	0.123
6199/	0.194	0.164	0.252	0.184	0.204	0.177	0.158	0.18	0.221	0.178	0.218	0.229	0.3	0.204	0.233	0.215	0.164	0.181	0.215	0.184	0.2	0.24	0.199	0.238	0.179	0.199	0.173	0.212	0.238	0.207	0.245	0.098	0.22	0.196	0.162	0.192	0.214	0.212	0.149	0.201	0.142	0.215	0.249	0.175	0.168	0.165	0.151	0.162	0.149	0.156	0.15	0.154	0.171	0.189	0.159	0.146	0.157	0.142	0.14	0.142	0.152	0.192	0.135	0.18	0.151	0.164	0.154	0.172	0.177	0.176	0.152	0.159	0.139	0.178
6226/	0.147	0.144	0.143	0.162	0.177	0.136	0.148	0.141	0.191	0.174	0.168	0.174	0.144	0.149	0.16	0.151	0.188	0.163	0.16	0.136	0.178	0.165	0.153	0.167	0.157	0.162	0.152	0.138	0.155	0.175	0.187	0.098	0.142	0.183	0.14	0.124	0.181	0.175	0.126	0.149	0.131	0.152	0.217	0.147	0.128	0.133	0.132	0.111	0.121	0.143	0.131	0.134	0.123	0.135	0.11	0.122	0.155	0.132	0.122	0.134	0.122	0.136	0.124	0.127	0.132	0.151	0.121	0.121	0.132	0.146	0.139	0.129	0.117	0.134
6227/	0.176	0.149	0.145	0.153	0.156	0.14	0.142	0.145	0.176	0.166	0.157	0.157	0.2	0.144	0.173	0.15	0.179	0.148	0.162	0.153	0.155	0.161	0.175	0.177	0.156	0.166	0.153	0.143	0.145	0.168	0.198	0.084	0.155	0.188	0.105	0.116	0.188	0.165	0.088	0.132	0.122	0.148	0.195	0.146	0.117	0.115	0.116	0.106	0.114	0.145	0.146	0.117	0.144	0.123	0.114	0.128	0.131	0.114	0.129	0.135	0.109	0.131	0.107	0.142	0.122	0.135	0.133	0.123	0.13	0.147	0.121	0.134	0.11	0.131
6228/	0.179	0.15	0.168	0.168	0.189	0.136	0.131	0.14	0.202	0.172	0.17	0.147	0.154	0.165	0.164	0.169	0.152	0.179	0.171	0.166	0.184	0.188	0.164	0.169	0.15	0.148	0.157	0.155	0.153	0.165	0.188	0.088	0.157	0.17	0.108	0.117	0.175	0.16	0.108	0.142	0.138	0.162	0.192	0.163	0.138	0.142	0.117	0.09	0.13	0.139	0.163	0.141	0.143	0.124	0.124	0.147	0.133	0.147	0.147	0.141	0.119	0.139	0.138	0.143	0.137	0.162	0.129	0.13	0.132	0.138	0.136	0.123	0.127	0.168
6229/	0.177	0.166	0.163	0.171	0.179	0.147	0.133	0.154	0.203	0.183	0.172	0.174	0.181	0.174	0.166	0.16	0.155	0.218	0.171	0.153	0.198	0.19	0.191	0.201	0.166	0.166	0.145	0.154	0.164	0.175	0.197	0.145	0.178	0.187	0.136	0.15	0.2	0.182	0.139	0.163	0.138	0.161	0.215	0.148	0.135	0.123	0.131	0.117	0.119	0.154	0.14	0.139	0.144	0.129	0.15	0.136	0.126	0.139	0.139	0.143	0.131	0.134	0.138	0.173	0.138	0.143	0.129	0.132	0.128	0.167	0.141	0.162	0.14	0.126
6291/	0.206	0.17	0.149	0.17	0.21	0.154	0.166	0.173	0.198	0.179	0.182	0.171	0.273	0.191	0.188	0.181	0.129	0.188	0.186	0.183	0.22	0.19	0.165	0.194	0.178	0.178	0.162	0.148	0.155	0.184	0.203	0.098	0.177	0.17	0.121	0.124	0.191	0.181	0.132	0.143	0.139	0.198	0.174	0.155	0.125	0.127	0.151	0.111	0.131	0.149	0.168	0.156	0.146	0.154	0.139	0.129	0.133	0.155	0.155	0.121	0.139	0.151	0.207	0.165	0.147	0.15	0.138	0.123	0.153	0.114	0.145	0.134	0.137	0.15
6347/	0.178	0.172	0.149	0.156	0.178	0.133	0.139	0.132	0.205	0.158	0.167	0.159	0.169	0.164	0.177	0.156	0.152	0.187	0.161	0.151	0.171	0.179	0.156	0.18	0.168	0.162	0.152	0.137	0.149	0.154	0.192	0.073	0.177	0.169	0.129	0.117	0.182	0.169	0.119	0.151	0.142	0.167	0.188	0.153	0.131	0.131	0.121	0.109	0.138	0.115	0.159	0.133	0.13	0.122	0.122	0.13	0.137	0.136	0.162	0.139	0.136	0.151	0.122	0.14	0.138	0.16	0.125	0.133	0.139	0.132	0.138	0.14	0.123	0.136
6348/	0.159	0.158	0.191	0.148	0.156	0.141	0.15	0.141	0.212	0.164	0.166	0.15	0.179	0.152	0.168	0.161	0.166	0.197	0.154	0.127	0.167	0.188	0.164	0.175	0.164	0.171	0.141	0.165	0.168	0.157	0.177	0.07	0.145	0.16	0.118	0.119	0.179	0.165	0.118	0.113	0.125	0.165	0.197	0.151	0.16	0.144	0.131	0.117	0.132	0.139	0.173	0.128	0.128	0.145	0.136	0.131	0.137	0.123	0.103	0.135	0.132	0.13	0.132	0.156	0.13	0.147	0.138	0.119	0.14	0.146	0.163	0.137	0.115	0.142
6503/	0.17	0.152	0.182	0.17	0.158	0.141	0.133	0.145	0.194	0.184	0.163	0.158	0.178	0.162	0.161	0.148	0.137	0.162	0.158	0.149	0.182	0.177	0.188	0.183	0.17	0.168	0.141	0.184	0.186	0.175	0.226	0.141	0.146	0.174	0.142	0.119	0.182	0.195	0.109	0.144	0.133	0.17	0.224	0.155	0.161	0.129	0.159	0.116	0.114	0.143	0.162	0.129	0.136	0.132	0.139	0.142	0.131	0.136	0.114	0.156	0.133	0.136	0.117	0.155	0.136	0.17	0.145	0.133	0.137	0.117	0.156	0.145	0.128	0.141
6512/	0.193	0.193	0.218	0.178	0.199	0.16	0.183	0.153	0.222	0.178	0.197	0.174	0.187	0.189	0.206	0.204	0.171	0.239	0.191	0.175	0.176	0.212	0.195	0.234	0.188	0.193	0.183	0.189	0.199	0.194	0.255	0.097	0.2	0.206	0.133	0.145	0.208	0.201	0.136	0.143	0.153	0.176	0.199	0.175	0.148	0.182	0.158	0.129	0.155	0.144	0.177	0.136	0.155	0.16	0.144	0.159	0.146	0.148	0.138	0.155	0.141	0.161	0.134	0.169	0.158	0.15	0.151	0.143	0.158	0.133	0.164	0.151	0.141	0.193
6613/	0.163	0.138	0.174	0.172	0.192	0.138	0.141	0.153	0.208	0.205	0.181	0.172	0.162	0.154	0.17	0.159	0.186	0.194	0.161	0.146	0.168	0.171	0.195	0.167	0.174	0.17	0.167	0.172	0.172	0.175	0.194	0.146	0.183	0.163	0.173	0.116	0.199	0.18	0.121	0.097	0.142	0.151	0.213	0.152	0.143	0.135	0.123	0.12	0.129	0.154	0.142	0.125	0.128	0.12	0.106	0.146	0.122	0.13	0.125	0.111	0.129	0.103	0.164	0.146	0.134	0.162	0.131	0.13	0.123	0.132	0.136	0.135	0.123	0.15
6636/	0.377	0.255	0.441	0.195	0.397	0.277	0.238	0.418	0.386	0.263	0.224	0.292	0.43	0.255	0.254	0.309	0.251	0.455	0.184	0.256	0.241	0.296	0.361	0.424	0.221	0.224	0.297	0.21	0.202	0.292	0.417	0.0	0.27	0.346	0.346	0.293	0.204	0.292	0.201	0.0	0.286	0.192	0.405	0.245	0.163	0.365	0.336	0.174	0.196	0.191	0.161	0.267	0.379	0.271	0.161	0.224	0.146	0.182	0.313	0.188	0.199	0.512	0.293	0.351	0.175	0.258	0.229	0.216	0.179	0.0	0.183	0.221	0.319	0.236
6685/	0.374	0.194	0.495	0.72	0.229	0.301	0.0	0.0	0.901	0.903	0.333	0.224	0.401	0.293	0.332	0.24	0.252	0.342	0.265	0.288	0.876	0.339	0.413	0.387	0.399	0.415	0.456	0.488	0.337	0.42	0.965	0.815	0.733	0.639	0.368	0.644	0.582	0.654	0.402	0.08	0.462	0.408	0.34	0.337	0.498	0.573	0.243	0.304	0.314	1.079	0.396	0.298	0.193	0.185	0.158	0.436	0.295	0.407	0.261	0.444	0.426	0.0	0.975	0.5	0.372	0.478	0.49	0.306	0.587	0.299	0.287	0.594	0.403	0.449
6712/	0.192	0.179	0.181	0.157	0.209	0.166	0.169	0.156	0.223	0.211	0.192	0.211	0.221	0.174	0.205	0.178	0.166	0.167	0.186	0.174	0.199	0.186	0.169	0.216	0.224	0.227	0.196	0.177	0.178	0.2	0.218	0.078	0.167	0.177	0.159	0.138	0.201	0.207	0.122	0.168	0.14	0.162	0.233	0.152	0.146	0.127	0.149	0.102	0.138	0.117	0.166	0.132	0.168	0.129	0.139	0.159	0.144	0.138	0.134	0.158	0.152	0.166	0.107	0.15	0.141	0.173	0.149	0.137	0.135	0.153	0.149	0.154	0.134	0.127
6730/	0.189	0.161	0.167	0.173	0.188	0.143	0.145	0.143	0.193	0.162	0.177	0.161	0.163	0.163	0.165	0.168	0.156	0.25	0.166	0.14	0.16	0.171	0.157	0.185	0.159	0.166	0.145	0.14	0.168	0.179	0.182	0.129	0.15	0.16	0.121	0.131	0.167	0.154	0.12	0.125	0.133	0.165	0.184	0.16	0.149	0.134	0.149	0.102	0.126	0.128	0.168	0.12	0.126	0.121	0.123	0.152	0.136	0.121	0.138	0.149	0.127	0.151	0.119	0.14	0.14	0.146	0.141	0.131	0.127	0.142	0.13	0.12	0.126	0.162
6731/	0.184	0.166	0.15	0.16	0.193	0.147	0.127	0.142	0.182	0.175	0.184	0.171	0.159	0.162	0.185	0.166	0.138	0.18	0.186	0.163	0.192	0.182	0.165	0.195	0.173	0.178	0.152	0.154	0.16	0.182	0.204	0.121	0.17	0.181	0.14	0.142	0.193	0.175	0.116	0.141	0.126	0.159	0.199	0.154	0.126	0.116	0.122	0.105	0.125	0.198	0.153	0.147	0.159	0.128	0.142	0.137	0.154	0.145	0.148	0.149	0.138	0.14	0.113	0.153	0.136	0.138	0.13	0.133	0.134	0.149	0.14	0.147	0.136	0.144
6732/	0.174	0.164	0.172	0.177	0.168	0.14	0.135	0.147	0.191	0.218	0.192	0.168	0.203	0.176	0.181	0.184	0.212	0.222	0.188	0.164	0.22	0.194	0.174	0.204	0.178	0.166	0.153	0.16	0.169	0.165	0.231	0.107	0.165	0.197	0.198	0.136	0.197	0.207	0.132	0.163	0.135	0.18	0.231	0.158	0.135	0.136	0.125	0.153	0.135	0.185	0.124	0.137	0.148	0.134	0.145	0.137	0.131	0.141	0.163	0.135	0.142	0.149	0.115	0.159	0.137	0.147	0.15	0.139	0.147	0.212	0.161	0.15	0.139	0.147
6738/	0.168	0.144	0.154	0.157	0.172	0.14	0.149	0.16	0.205	0.164	0.152	0.146	0.142	0.142	0.152	0.162	0.145	0.155	0.153	0.136	0.165	0.182	0.153	0.161	0.164	0.165	0.137	0.125	0.152	0.169	0.2	0.138	0.138	0.169	0.137	0.132	0.184	0.165	0.1	0.134	0.127	0.151	0.175	0.169	0.148	0.142	0.143	0.116	0.112	0.146	0.142	0.126	0.143	0.126	0.123	0.136	0.129	0.133	0.142	0.152	0.144	0.106	0.102	0.149	0.127	0.149	0.123	0.111	0.137	0.135	0.152	0.139	0.134	0.135
6741/	0.145	0.148	0.152	0.158	0.179	0.14	0.154	0.139	0.204	0.18	0.171	0.156	0.153	0.152	0.161	0.152	0.153	0.2	0.158	0.151	0.165	0.186	0.178	0.176	0.148	0.158	0.149	0.148	0.148	0.164	0.18	0.086	0.144	0.145	0.13	0.106	0.178	0.165	0.112	0.134	0.126	0.156	0.201	0.141	0.123	0.126	0.136	0.131	0.124	0.131	0.143	0.127	0.131	0.121	0.108	0.137	0.118	0.14	0.131	0.136	0.136	0.139	0.133	0.153	0.139	0.142	0.119	0.133	0.135	0.175	0.137	0.134	0.122	0.139
6752/	0.225	0.261	0.208	0.247	0.204	0.233	0.308	0.394	0.247	0.0	0.389	0.198	0.218	0.207	0.227	0.184	0.084	0.205	0.232	0.396	0.306	0.334	0.0	0.218	0.302	0.397	0.376	0.226	0.18	0.446	0.22	0.437	0.073	0.596	0.35	0.372	0.305	0.305	0.145	0.0	0.145	0.276	0.467	0.231	0.168	0.288	0.141	0.269	0.148	0.202	0.221	0.262	0.181	0.177	0.264	0.398	0.138	0.191	0.186	0.246	0.204	0.18	0.206	0.222	0.516	0.316	0.241	0.206	0.188	0.164	0.354	0.219	0.291	0.026
6802/	0.192	0.162	0.203	0.18	0.195	0.143	0.143	0.161	0.226	0.179	0.178	0.176	0.206	0.169	0.185	0.188	0.132	0.201	0.174	0.153	0.17	0.181	0.181	0.202	0.174	0.182	0.163	0.154	0.175	0.177	0.202	0.106	0.172	0.175	0.126	0.135	0.196	0.188	0.131	0.123	0.137	0.16	0.195	0.149	0.133	0.14	0.13	0.107	0.117	0.114	0.147	0.145	0.134	0.118	0.124	0.132	0.126	0.148	0.118	0.142	0.12	0.175	0.123	0.156	0.147	0.149	0.129	0.138	0.137	0.153	0.144	0.139	0.127	0.142
6863/	0.173	0.188	0.182	0.163	0.185	0.155	0.144	0.158	0.196	0.198	0.197	0.163	0.179	0.18	0.173	0.182	0.152	0.204	0.186	0.17	0.196	0.21	0.176	0.197	0.185	0.178	0.171	0.153	0.167	0.183	0.21	0.106	0.147	0.216	0.172	0.143	0.243	0.198	0.122	0.188	0.123	0.175	0.202	0.163	0.14	0.139	0.165	0.169	0.11	0.166	0.181	0.127	0.164	0.143	0.141	0.141	0.15	0.135	0.164	0.183	0.146	0.12	0.117	0.157	0.146	0.138	0.135	0.136	0.138	0.123	0.143	0.147	0.132	0.144
6888/	0.151	0.166	0.17	0.164	0.168	0.15	0.148	0.155	0.196	0.183	0.166	0.164	0.162	0.161	0.174	0.171	0.168	0.166	0.159	0.158	0.182	0.179	0.14	0.184	0.165	0.174	0.17	0.158	0.194	0.173	0.214	0.155	0.15	0.165	0.136	0.146	0.169	0.177	0.131	0.12	0.134	0.166	0.189	0.157	0.144	0.137	0.146	0.108	0.127	0.144	0.158	0.149	0.151	0.133	0.128	0.132	0.152	0.141	0.145	0.123	0.137	0.143	0.137	0.145	0.144	0.148	0.132	0.12	0.155	0.177	0.136	0.15	0.134	0.145
6908/	0.196	0.161	0.152	0.158	0.193	0.153	0.136	0.164	0.212	0.197	0.177	0.154	0.154	0.156	0.193	0.172	0.161	0.194	0.179	0.17	0.184	0.192	0.179	0.193	0.17	0.187	0.154	0.154	0.16	0.174	0.258	0.134	0.17	0.195	0.132	0.152	0.231	0.193	0.128	0.108	0.124	0.172	0.213	0.149	0.139	0.143	0.132	0.114	0.123	0.125	0.156	0.146	0.138	0.137	0.131	0.15	0.161	0.144	0.154	0.169	0.133	0.108	0.124	0.156	0.142	0.148	0.133	0.137	0.13	0.132	0.179	0.145	0.143	0.119
6909/	0.211	0.162	0.163	0.153	0.185	0.152	0.143	0.166	0.202	0.188	0.181	0.155	0.177	0.161	0.171	0.154	0.144	0.174	0.175	0.15	0.161	0.174	0.16	0.194	0.175	0.155	0.147	0.135	0.138	0.164	0.195	0.121	0.153	0.153	0.155	0.116	0.17	0.174	0.125	0.122	0.132	0.168	0.227	0.14	0.125	0.149	0.114	0.101	0.129	0.151	0.134	0.124	0.141	0.124	0.135	0.122	0.151	0.133	0.145	0.132	0.116	0.17	0.124	0.173	0.125	0.162	0.13	0.12	0.125	0.145	0.164	0.143	0.13	0.177
6955/	0.156	0.148	0.15	0.141	0.169	0.145	0.141	0.131	0.184	0.179	0.186	0.147	0.154	0.173	0.16	0.151	0.137	0.176	0.162	0.159	0.183	0.182	0.203	0.167	0.165	0.142	0.151	0.15	0.163	0.146	0.195	0.073	0.132	0.177	0.161	0.114	0.184	0.182	0.102	0.115	0.117	0.151	0.223	0.139	0.12	0.12	0.121	0.092	0.111	0.123	0.147	0.129	0.127	0.113	0.122	0.128	0.126	0.154	0.122	0.11	0.119	0.133	0.111	0.135	0.153	0.142	0.123	0.114	0.119	0.116	0.135	0.141	0.124	0.129
6957/	0.152	0.161	0.16	0.144	0.179	0.136	0.156	0.127	0.186	0.174	0.169	0.157	0.172	0.162	0.163	0.166	0.144	0.175	0.165	0.161	0.17	0.178	0.176	0.176	0.148	0.16	0.15	0.136	0.15	0.169	0.207	0.076	0.14	0.171	0.116	0.116	0.153	0.164	0.114	0.171	0.123	0.161	0.189	0.128	0.125	0.142	0.139	0.101	0.117	0.117	0.13	0.131	0.134	0.131	0.133	0.125	0.117	0.15	0.128	0.135	0.12	0.152	0.139	0.141	0.135	0.165	0.12	0.114	0.126	0.15	0.126	0.121	0.12	0.118
6958/	0.158	0.153	0.159	0.151	0.192	0.145	0.132	0.142	0.196	0.155	0.18	0.16	0.191	0.177	0.176	0.17	0.143	0.172	0.179	0.168	0.18	0.176	0.167	0.197	0.194	0.173	0.156	0.152	0.154	0.171	0.182	0.081	0.141	0.18	0.126	0.15	0.176	0.171	0.121	0.116	0.13	0.167	0.191	0.138	0.115	0.117	0.12	0.094	0.118	0.11	0.14	0.11	0.13	0.134	0.112	0.126	0.131	0.129	0.119	0.135	0.121	0.151	0.108	0.133	0.128	0.144	0.115	0.108	0.117	0.15	0.149	0.137	0.128	0.142
6964/	0.174	0.169	0.173	0.157	0.175	0.157	0.138	0.161	0.215	0.207	0.166	0.164	0.18	0.163	0.168	0.165	0.179	0.18	0.166	0.151	0.171	0.181	0.163	0.178	0.167	0.168	0.167	0.152	0.152	0.167	0.182	0.086	0.156	0.153	0.133	0.138	0.174	0.176	0.105	0.151	0.127	0.156	0.21	0.143	0.122	0.15	0.127	0.102	0.121	0.127	0.133	0.131	0.132	0.121	0.137	0.114	0.123	0.128	0.132	0.15	0.13	0.128	0.128	0.132	0.135	0.144	0.132	0.132	0.15	0.165	0.147	0.122	0.134	0.154
6965/	0.177	0.161	0.152	0.158	0.174	0.139	0.141	0.135	0.194	0.18	0.182	0.15	0.159	0.174	0.163	0.157	0.168	0.172	0.157	0.154	0.185	0.186	0.178	0.163	0.172	0.15	0.146	0.142	0.143	0.173	0.187	0.123	0.13	0.158	0.149	0.116	0.178	0.171	0.104	0.138	0.115	0.177	0.203	0.149	0.12	0.122	0.112	0.111	0.118	0.115	0.142	0.11	0.141	0.123	0.122	0.132	0.149	0.138	0.141	0.127	0.112	0.109	0.113	0.156	0.136	0.136	0.115	0.109	0.126	0.134	0.14	0.135	0.126	0.161
6983/	0.156	0.151	0.138	0.159	0.148	0.142	0.147	0.15	0.191	0.169	0.154	0.151	0.151	0.155	0.148	0.158	0.154	0.18	0.143	0.144	0.168	0.157	0.187	0.19	0.149	0.155	0.132	0.134	0.139	0.156	0.184	0.108	0.135	0.164	0.118	0.116	0.175	0.155	0.113	0.099	0.124	0.153	0.201	0.149	0.138	0.116	0.125	0.116	0.124	0.144	0.148	0.119	0.123	0.141	0.115	0.127	0.131	0.131	0.127	0.118	0.131	0.125	0.122	0.156	0.124	0.145	0.114	0.121	0.132	0.141	0.142	0.134	0.129	0.137
6985/	0.164	0.144	0.158	0.149	0.197	0.145	0.137	0.151	0.186	0.177	0.189	0.152	0.192	0.179	0.171	0.161	0.168	0.177	0.157	0.157	0.166	0.176	0.14	0.194	0.168	0.16	0.164	0.171	0.166	0.191	0.228	0.081	0.151	0.166	0.104	0.131	0.176	0.171	0.123	0.101	0.138	0.178	0.178	0.185	0.143	0.122	0.13	0.1	0.118	0.111	0.164	0.132	0.139	0.133	0.152	0.132	0.125	0.141	0.123	0.151	0.133	0.131	0.139	0.158	0.134	0.18	0.148	0.111	0.124	0.129	0.138	0.136	0.132	0.122
7041/	0.167	0.544	0.13	0.136	0.126	0.06	0.094	0.095	0.0	0.0	0.0	0.103	0.092	0.114	0.111	0.136	0.063	0.109	0.226	0.241	0.0	0.0	0.114	0.092	0.123	0.15	0.118	0.259	0.104	0.063	0.024	0.049	0.043	0.178	0.125	0.062	0.081	0.167	0.063	0.072	0.112	0.271	0.0	0.0	0.176	0.089	0.105	0.062	0.184	0.0	0.0	0.168	0.096	0.066	0.091	0.1	0.233	0.06	0.294	0.0	0.0	0.14	0.07	0.162	0.0	0.066	0.139	0.077	0.116	0.0	0.12	0.107	0.088	0.077
7055/	0.077	0.179	0.379	0.132	0.117	0.106	0.0	0.0	0.0	0.0	0.0	0.159	0.164	0.1	0.127	0.119	0.048	0.079	0.166	0.209	0.045	0.069	0.0	0.06	0.115	0.135	0.2	0.126	0.203	0.172	0.0	0.0	0.203	0.187	0.06	0.185	0.087	0.141	0.11	0.043	0.243	0.181	0.056	0.0	0.267	0.0	0.097	0.153	0.168	0.0	0.018	0.142	0.166	0.125	0.089	0.135	0.195	0.128	0.24	0.055	0.033	0.085	0.063	0.099	0.0	0.0	0.144	0.203	0.182	0.0	0.0	0.126	0.153	0.191
7105/	0.167	0.177	0.186	0.177	0.213	0.156	0.147	0.168	0.213	0.172	0.17	0.177	0.166	0.166	0.187	0.198	0.159	0.142	0.173	0.156	0.205	0.191	0.191	0.204	0.195	0.194	0.171	0.189	0.186	0.179	0.214	0.107	0.169	0.193	0.15	0.16	0.191	0.203	0.113	0.103	0.137	0.168	0.218	0.146	0.132	0.139	0.129	0.105	0.121	0.174	0.136	0.123	0.146	0.145	0.151	0.131	0.135	0.125	0.142	0.127	0.145	0.138	0.13	0.154	0.131	0.17	0.14	0.136	0.144	0.161	0.166	0.139	0.128	0.148
7106/	0.166	0.141	0.154	0.145	0.2	0.142	0.136	0.153	0.185	0.148	0.162	0.15	0.152	0.172	0.163	0.155	0.136	0.155	0.155	0.147	0.165	0.17	0.162	0.171	0.169	0.155	0.151	0.144	0.162	0.181	0.228	0.091	0.123	0.165	0.123	0.104	0.166	0.16	0.116	0.119	0.112	0.156	0.169	0.126	0.118	0.127	0.115	0.096	0.117	0.124	0.141	0.126	0.117	0.129	0.13	0.121	0.133	0.125	0.125	0.145	0.104	0.131	0.113	0.14	0.129	0.134	0.122	0.114	0.128	0.177	0.141	0.113	0.105	0.132
7108/	0.203	0.169	0.174	0.161	0.237	0.145	0.169	0.164	0.202	0.194	0.166	0.175	0.174	0.167	0.193	0.209	0.128	0.148	0.168	0.163	0.187	0.207	0.167	0.213	0.19	0.172	0.172	0.151	0.164	0.175	0.232	0.231	0.151	0.181	0.184	0.124	0.191	0.188	0.131	0.103	0.128	0.155	0.237	0.15	0.139	0.139	0.115	0.104	0.115	0.162	0.15	0.13	0.16	0.156	0.128	0.142	0.126	0.157	0.134	0.134	0.138	0.149	0.123	0.148	0.171	0.148	0.135	0.145	0.144	0.137	0.147	0.117	0.133	0.131
7118/	0.168	0.0	0.0	0.092	0.195	0.091	0.077	0.035	0.0	0.0	0.0	0.091	0.165	0.113	0.138	0.19	0.16	0.128	0.0	0.0	0.059	0.0	0.069	0.208	0.116	0.097	0.226	0.097	0.145	0.0	0.0	0.0	0.177	0.148	0.123	0.081	0.071	0.191	0.164	0.153	0.135	0.0	0.08	0.0	0.113	0.0	0.167	0.236	0.215	0.054	0.0	0.151	0.168	0.151	0.132	0.2	0.0	0.0	0.129	0.07	0.086	0.13	0.053	0.231	0.0	0.043	0.152	0.155	0.19	0.0	0.0	0.109	0.169	0.139
7148/	0.127	0.164	0.142	0.128	0.125	0.109	0.146	0.215	0.25	0.0	0.146	0.154	0.033	0.215	0.16	0.149	0.23	0.115	0.17	0.199	0.155	0.177	0.112	0.126	0.199	0.179	0.184	0.144	0.185	0.149	0.182	0.091	0.167	0.168	0.216	0.181	0.153	0.143	0.128	0.179	0.121	0.202	0.135	0.0	0.155	0.138	0.357	0.107	0.11	0.18	0.185	0.113	0.173	0.154	0.141	0.157	0.171	0.186	0.174	0.171	0.21	0.008	0.126	0.157	0.15	0.023	0.162	0.162	0.182	0.277	0.161	0.132	0.13	0.064
7151/	0.164	0.148	0.171	0.148	0.183	0.148	0.148	0.145	0.187	0.151	0.169	0.153	0.178	0.183	0.184	0.16	0.169	0.192	0.167	0.157	0.172	0.169	0.168	0.174	0.157	0.167	0.14	0.141	0.156	0.163	0.195	0.101	0.138	0.17	0.13	0.124	0.176	0.167	0.122	0.123	0.125	0.151	0.188	0.135	0.137	0.133	0.13	0.104	0.123	0.137	0.152	0.125	0.135	0.135	0.134	0.143	0.134	0.14	0.137	0.135	0.117	0.178	0.121	0.144	0.135	0.136	0.136	0.125	0.131	0.087	0.13	0.128	0.124	0.115
7152/	0.168	0.17	0.175	0.141	0.2	0.152	0.126	0.147	0.192	0.158	0.174	0.147	0.175	0.148	0.168	0.156	0.208	0.194	0.164	0.151	0.189	0.175	0.16	0.184	0.168	0.169	0.143	0.17	0.18	0.174	0.165	0.146	0.163	0.17	0.139	0.117	0.197	0.178	0.111	0.122	0.14	0.157	0.21	0.166	0.157	0.139	0.171	0.124	0.122	0.147	0.153	0.136	0.129	0.137	0.121	0.134	0.126	0.122	0.147	0.14	0.137	0.133	0.125	0.144	0.126	0.141	0.141	0.115	0.153	0.127	0.15	0.14	0.115	0.111
7163/	0.189	0.162	0.16	0.167	0.169	0.146	0.147	0.14	0.221	0.163	0.176	0.165	0.142	0.159	0.168	0.159	0.175	0.214	0.17	0.143	0.174	0.184	0.159	0.177	0.159	0.167	0.136	0.145	0.151	0.172	0.203	0.138	0.161	0.171	0.153	0.116	0.196	0.176	0.098	0.174	0.141	0.175	0.217	0.143	0.13	0.151	0.135	0.113	0.123	0.159	0.152	0.149	0.144	0.129	0.118	0.119	0.137	0.138	0.161	0.146	0.135	0.149	0.115	0.151	0.143	0.167	0.124	0.124	0.136	0.11	0.151	0.135	0.141	0.142
7168/	0.175	0.159	0.159	0.164	0.229	0.157	0.138	0.146	0.184	0.181	0.177	0.172	0.194	0.153	0.17	0.177	0.176	0.21	0.168	0.154	0.206	0.179	0.182	0.198	0.173	0.19	0.161	0.156	0.167	0.166	0.192	0.09	0.168	0.183	0.178	0.121	0.185	0.185	0.107	0.112	0.126	0.19	0.21	0.157	0.136	0.147	0.134	0.101	0.112	0.195	0.138	0.134	0.134	0.129	0.148	0.132	0.126	0.138	0.128	0.121	0.134	0.133	0.118	0.16	0.132	0.135	0.138	0.125	0.134	0.182	0.141	0.125	0.135	0.135
7170/	0.177	0.168	0.157	0.158	0.196	0.143	0.133	0.148	0.199	0.182	0.165	0.172	0.204	0.162	0.168	0.168	0.142	0.199	0.17	0.145	0.192	0.177	0.182	0.191	0.161	0.16	0.179	0.156	0.151	0.176	0.216	0.145	0.169	0.198	0.114	0.112	0.202	0.187	0.103	0.117	0.145	0.167	0.196	0.137	0.126	0.13	0.126	0.098	0.124	0.143	0.14	0.132	0.145	0.129	0.136	0.14	0.124	0.12	0.13	0.132	0.133	0.131	0.124	0.147	0.135	0.134	0.134	0.108	0.131	0.157	0.144	0.127	0.146	0.139
7206/	0.187	0.153	0.137	0.153	0.164	0.15	0.147	0.144	0.221	0.197	0.157	0.151	0.157	0.152	0.174	0.17	0.137	0.163	0.172	0.143	0.17	0.171	0.163	0.2	0.157	0.162	0.147	0.148	0.14	0.171	0.225	0.066	0.149	0.14	0.124	0.135	0.178	0.159	0.137	0.126	0.122	0.143	0.191	0.13	0.112	0.099	0.109	0.093	0.108	0.128	0.145	0.119	0.153	0.126	0.134	0.129	0.123	0.14	0.136	0.136	0.114	0.118	0.137	0.148	0.127	0.132	0.118	0.105	0.102	0.095	0.119	0.132	0.119	0.137
7207/	0.193	0.164	0.15	0.135	0.198	0.151	0.121	0.135	0.214	0.169	0.173	0.156	0.185	0.179	0.169	0.167	0.101	0.158	0.189	0.152	0.167	0.185	0.176	0.19	0.184	0.155	0.157	0.15	0.139	0.175	0.192	0.088	0.15	0.169	0.112	0.14	0.181	0.157	0.106	0.121	0.118	0.164	0.195	0.132	0.111	0.124	0.138	0.086	0.11	0.11	0.142	0.123	0.143	0.122	0.14	0.122	0.122	0.134	0.103	0.151	0.125	0.137	0.108	0.15	0.126	0.142	0.118	0.119	0.116	0.131	0.127	0.114	0.124	0.159
7229/	0.182	0.151	0.166	0.167	0.181	0.141	0.156	0.151	0.202	0.186	0.179	0.159	0.163	0.156	0.178	0.163	0.142	0.21	0.17	0.156	0.181	0.188	0.158	0.185	0.176	0.172	0.16	0.164	0.164	0.185	0.205	0.125	0.123	0.166	0.128	0.136	0.203	0.168	0.111	0.128	0.14	0.164	0.213	0.142	0.134	0.141	0.107	0.104	0.121	0.121	0.163	0.126	0.137	0.125	0.113	0.123	0.124	0.139	0.127	0.143	0.122	0.126	0.119	0.133	0.136	0.137	0.133	0.125	0.124	0.19	0.145	0.123	0.129	0.137
7230/	0.194	0.142	0.181	0.166	0.181	0.149	0.14	0.162	0.219	0.197	0.187	0.172	0.212	0.165	0.195	0.178	0.184	0.201	0.177	0.166	0.188	0.201	0.184	0.207	0.192	0.19	0.191	0.177	0.172	0.194	0.199	0.092	0.173	0.184	0.156	0.157	0.21	0.194	0.119	0.135	0.139	0.196	0.252	0.154	0.143	0.154	0.129	0.119	0.134	0.129	0.129	0.118	0.136	0.151	0.139	0.148	0.155	0.127	0.137	0.173	0.138	0.142	0.11	0.147	0.137	0.154	0.152	0.141	0.152	0.148	0.176	0.137	0.132	0.17
7286/	0.152	0.154	0.155	0.147	0.164	0.133	0.128	0.125	0.196	0.197	0.191	0.159	0.185	0.163	0.172	0.162	0.173	0.194	0.178	0.157	0.176	0.174	0.18	0.184	0.159	0.156	0.148	0.15	0.146	0.169	0.2	0.084	0.127	0.168	0.12	0.114	0.196	0.168	0.103	0.115	0.125	0.168	0.175	0.139	0.117	0.129	0.136	0.103	0.121	0.111	0.132	0.126	0.137	0.109	0.135	0.116	0.13	0.136	0.131	0.132	0.115	0.136	0.128	0.135	0.124	0.143	0.116	0.106	0.122	0.12	0.125	0.128	0.114	0.126
7287/	0.139	0.155	0.153	0.143	0.158	0.128	0.13	0.146	0.169	0.133	0.17	0.146	0.15	0.144	0.148	0.156	0.164	0.165	0.168	0.143	0.181	0.177	0.174	0.178	0.161	0.164	0.166	0.135	0.149	0.148	0.168	0.1	0.135	0.159	0.138	0.115	0.164	0.156	0.11	0.096	0.121	0.162	0.17	0.13	0.117	0.138	0.115	0.094	0.129	0.124	0.148	0.121	0.117	0.125	0.127	0.123	0.122	0.119	0.131	0.116	0.125	0.127	0.111	0.136	0.117	0.147	0.113	0.107	0.128	0.15	0.128	0.112	0.112	0.141
7289/	0.154	0.16	0.155	0.155	0.161	0.143	0.155	0.168	0.188	0.141	0.166	0.169	0.158	0.181	0.162	0.172	0.164	0.191	0.158	0.15	0.204	0.187	0.173	0.153	0.154	0.169	0.142	0.153	0.153	0.158	0.195	0.119	0.16	0.148	0.137	0.121	0.187	0.176	0.118	0.146	0.116	0.157	0.186	0.151	0.13	0.116	0.132	0.123	0.126	0.154	0.154	0.13	0.133	0.128	0.132	0.121	0.119	0.135	0.16	0.155	0.14	0.127	0.127	0.146	0.124	0.159	0.121	0.121	0.119	0.152	0.129	0.141	0.129	0.125
7290/	0.175	0.161	0.148	0.169	0.165	0.148	0.151	0.156	0.171	0.172	0.177	0.163	0.17	0.15	0.162	0.161	0.183	0.207	0.157	0.152	0.192	0.18	0.173	0.171	0.163	0.167	0.133	0.14	0.134	0.17	0.156	0.113	0.196	0.169	0.131	0.143	0.193	0.177	0.111	0.129	0.143	0.166	0.178	0.13	0.13	0.118	0.142	0.114	0.129	0.14	0.149	0.14	0.145	0.135	0.137	0.129	0.144	0.133	0.126	0.153	0.128	0.145	0.115	0.164	0.138	0.168	0.126	0.127	0.131	0.144	0.128	0.146	0.129	0.161
7293/	0.159	0.176	0.158	0.143	0.207	0.143	0.143	0.14	0.206	0.174	0.176	0.16	0.155	0.171	0.182	0.172	0.154	0.181	0.174	0.164	0.207	0.191	0.183	0.188	0.168	0.173	0.163	0.158	0.151	0.172	0.206	0.132	0.121	0.155	0.138	0.12	0.196	0.166	0.087	0.117	0.121	0.163	0.188	0.135	0.111	0.127	0.104	0.106	0.119	0.122	0.167	0.109	0.134	0.128	0.134	0.126	0.149	0.124	0.149	0.14	0.124	0.112	0.125	0.14	0.125	0.135	0.115	0.115	0.125	0.136	0.11	0.123	0.116	0.119
7321/	0.17	0.16	0.149	0.145	0.156	0.136	0.135	0.149	0.191	0.162	0.194	0.136	0.157	0.149	0.156	0.155	0.138	0.168	0.171	0.154	0.159	0.189	0.161	0.175	0.164	0.158	0.158	0.139	0.146	0.165	0.189	0.11	0.123	0.132	0.103	0.097	0.169	0.17	0.117	0.1	0.124	0.176	0.197	0.155	0.117	0.138	0.118	0.109	0.115	0.112	0.147	0.118	0.124	0.118	0.147	0.142	0.144	0.134	0.129	0.124	0.122	0.127	0.109	0.142	0.127	0.133	0.122	0.113	0.128	0.096	0.141	0.124	0.115	0.091
7341/	0.199	0.147	0.138	0.153	0.186	0.146	0.134	0.137	0.219	0.15	0.163	0.161	0.188	0.187	0.172	0.156	0.135	0.166	0.175	0.159	0.177	0.185	0.157	0.194	0.171	0.157	0.139	0.145	0.123	0.172	0.204	0.147	0.144	0.173	0.129	0.135	0.154	0.184	0.12	0.12	0.133	0.161	0.171	0.146	0.12	0.135	0.109	0.102	0.123	0.136	0.186	0.133	0.158	0.129	0.099	0.129	0.139	0.132	0.145	0.127	0.128	0.138	0.128	0.147	0.133	0.164	0.121	0.135	0.115	0.149	0.148	0.13	0.128	0.135
7359/	0.048	0.0	0.18	0.214	0.14	0.029	0.0	0.0	0.0	0.0	0.118	0.192	0.071	0.16	0.144	0.189	0.067	0.118	0.035	0.039	0.0	0.047	0.079	0.081	0.145	0.201	0.173	0.134	0.129	0.019	0.05	0.091	0.051	0.056	0.045	0.147	0.0	0.0	0.262	0.0	0.14	0.074	0.0	0.053	0.214	0.018	0.031	0.042	0.238	0.0	0.0	0.205	0.198	0.098	0.254	0.16	0.0	0.067	0.0	0.0	0.0	0.196	0.067	0.063	0.065	0.0	0.151	0.162	0.217	0.152	0.023	0.0	0.102	0.078
7366/	0.181	0.149	0.166	0.154	0.192	0.145	0.149	0.146	0.179	0.146	0.185	0.153	0.177	0.155	0.173	0.165	0.202	0.188	0.167	0.166	0.158	0.186	0.216	0.213	0.157	0.158	0.144	0.144	0.141	0.185	0.221	0.107	0.146	0.156	0.125	0.13	0.165	0.178	0.111	0.101	0.138	0.155	0.21	0.149	0.13	0.136	0.12	0.092	0.117	0.134	0.151	0.123	0.132	0.123	0.132	0.126	0.142	0.136	0.123	0.154	0.118	0.126	0.112	0.178	0.127	0.148	0.125	0.128	0.12	0.153	0.15	0.133	0.116	0.151
7367/	0.168	0.137	0.164	0.171	0.172	0.134	0.134	0.146	0.195	0.162	0.164	0.145	0.194	0.166	0.163	0.15	0.158	0.152	0.163	0.149	0.167	0.17	0.169	0.194	0.158	0.171	0.152	0.146	0.139	0.181	0.188	0.067	0.136	0.146	0.129	0.096	0.176	0.164	0.119	0.135	0.122	0.163	0.187	0.145	0.115	0.142	0.103	0.087	0.114	0.133	0.129	0.108	0.126	0.118	0.126	0.135	0.112	0.13	0.126	0.14	0.111	0.137	0.11	0.134	0.129	0.134	0.128	0.115	0.132	0.134	0.15	0.125	0.117	0.153
7368/	0.154	0.14	0.154	0.145	0.178	0.147	0.151	0.146	0.195	0.163	0.162	0.154	0.175	0.144	0.17	0.164	0.161	0.19	0.175	0.154	0.152	0.178	0.153	0.186	0.158	0.163	0.139	0.15	0.169	0.165	0.196	0.093	0.121	0.172	0.119	0.134	0.182	0.191	0.127	0.098	0.127	0.172	0.167	0.156	0.143	0.118	0.13	0.122	0.123	0.134	0.148	0.129	0.139	0.142	0.118	0.12	0.139	0.142	0.144	0.149	0.112	0.109	0.112	0.153	0.138	0.149	0.137	0.128	0.143	0.143	0.151	0.139	0.13	0.135
7515/	0.393	0.229	0.283	0.306	0.396	0.332	0.0	0.489	0.0	0.261	0.29	0.407	0.327	0.249	0.291	0.415	0.237	0.294	0.23	0.22	0.523	0.242	0.38	0.36	0.199	0.34	0.309	0.203	0.2	0.284	0.455	0.395	0.531	0.338	0.216	0.268	0.398	0.349	0.124	0.0	0.214	0.219	0.255	0.295	0.188	0.675	0.553	0.244	0.22	0.329	0.199	0.279	0.33	0.409	0.333	0.375	0.19	0.194	0.216	0.411	0.418	0.318	0.427	0.328	0.27	0.349	0.216	0.41	0.235	0.507	0.0	0.31	0.268	0.186
7516/	0.179	0.172	0.157	0.15	0.192	0.149	0.146	0.147	0.188	0.17	0.168	0.172	0.186	0.166	0.173	0.174	0.162	0.192	0.166	0.148	0.183	0.182	0.151	0.212	0.171	0.168	0.135	0.154	0.165	0.162	0.208	0.131	0.155	0.171	0.153	0.109	0.19	0.192	0.117	0.132	0.141	0.171	0.192	0.153	0.148	0.136	0.179	0.117	0.146	0.127	0.153	0.135	0.155	0.139	0.136	0.136	0.124	0.135	0.166	0.145	0.131	0.143	0.118	0.177	0.123	0.152	0.122	0.126	0.149	0.18	0.157	0.132	0.133	0.14
7576/	0.172	0.44	0.13	0.263	0.146	0.197	0.179	0.109	0.0	0.0	0.266	0.239	0.196	0.214	0.189	0.188	0.05	0.216	0.202	0.279	0.47	0.161	0.312	0.304	0.239	0.233	0.206	0.279	0.25	0.19	0.26	0.26	0.102	0.265	0.268	0.287	0.264	0.212	0.142	0.114	0.188	0.25	0.36	0.321	0.166	0.119	0.165	0.097	0.18	0.313	0.68	0.209	0.182	0.182	0.098	0.22	0.141	0.156	0.192	0.605	0.337	0.195	0.278	0.166	0.235	0.236	0.199	0.173	0.194	0.27	0.241	0.235	0.223	0.0
7581/	0.248	0.191	0.218	0.207	0.199	0.329	0.267	0.239	0.281	0.318	0.255	0.211	0.224	0.245	0.207	0.209	0.261	0.339	0.243	0.246	0.35	0.245	0.222	0.33	0.213	0.201	0.203	0.239	0.202	0.239	0.355	0.154	0.139	0.269	0.258	0.131	0.218	0.22	0.501	0.193	0.189	0.265	0.223	0.28	0.139	0.248	0.126	0.273	0.259	0.34	0.371	0.182	0.164	0.186	0.21	0.239	0.208	0.173	0.211	0.219	0.437	0.14	0.224	0.209	0.202	0.351	0.2	0.173	0.159	0.39	0.209	0.184	0.202	0.179
7620/	0.659	0.181	0.218	0.223	0.518	0.485	0.262	0.169	0.346	0.63	0.256	0.24	0.383	0.275	0.239	0.352	0.285	0.485	0.209	0.464	0.243	0.412	0.317	0.436	0.283	0.336	0.478	0.204	0.196	0.466	0.42	0.309	0.102	0.242	0.424	0.239	0.217	0.325	0.313	0.142	0.173	0.253	0.371	0.427	0.175	0.433	0.417	0.249	0.149	0.165	0.339	0.315	0.062	0.266	0.296	0.344	0.177	0.24	0.167	0.186	0.254	0.428	0.268	0.253	0.232	0.293	0.189	0.161	0.223	0.0	0.354	0.164	0.315	0.133
7636/	0.195	0.201	0.185	0.162	0.239	0.139	0.138	0.081	0.04	0.069	0.22	0.197	0.287	0.211	0.149	0.171	0.226	0.211	0.158	0.225	0.222	0.248	0.159	0.182	0.18	0.193	0.172	0.17	0.144	0.165	0.132	0.232	0.195	0.17	0.174	0.16	0.186	0.276	0.11	0.313	0.147	0.211	0.0	0.156	0.165	0.135	0.255	0.22	0.172	0.0	0.179	0.198	0.218	0.153	0.132	0.19	0.111	0.199	0.217	0.161	0.208	0.268	0.125	0.236	0.125	0.072	0.18	0.131	0.18	0.024	0.176	0.217	0.138	0.0
7690/	0.179	0.17	0.155	0.162	0.165	0.156	0.147	0.145	0.224	0.165	0.169	0.157	0.168	0.17	0.166	0.168	0.162	0.22	0.174	0.159	0.168	0.182	0.174	0.183	0.161	0.175	0.172	0.166	0.15	0.182	0.218	0.158	0.141	0.174	0.162	0.108	0.186	0.156	0.137	0.123	0.137	0.171	0.19	0.153	0.138	0.158	0.19	0.112	0.134	0.124	0.137	0.118	0.14	0.131	0.14	0.138	0.137	0.136	0.143	0.132	0.132	0.131	0.128	0.163	0.133	0.146	0.131	0.116	0.137	0.153	0.149	0.133	0.128	0.15
7802/	0.166	0.151	0.185	0.163	0.191	0.162	0.154	0.156	0.196	0.185	0.165	0.148	0.181	0.168	0.175	0.165	0.16	0.191	0.183	0.163	0.17	0.189	0.162	0.172	0.158	0.155	0.149	0.174	0.167	0.169	0.187	0.126	0.129	0.145	0.129	0.117	0.179	0.183	0.118	0.105	0.134	0.164	0.166	0.154	0.148	0.139	0.126	0.12	0.127	0.132	0.148	0.145	0.155	0.139	0.117	0.139	0.135	0.145	0.149	0.165	0.127	0.156	0.121	0.156	0.139	0.142	0.142	0.134	0.131	0.125	0.145	0.141	0.137	0.128
7803/	0.166	0.17	0.165	0.159	0.185	0.151	0.147	0.15	0.224	0.139	0.181	0.158	0.161	0.164	0.18	0.175	0.136	0.178	0.185	0.181	0.175	0.182	0.134	0.194	0.169	0.166	0.157	0.181	0.188	0.167	0.219	0.117	0.145	0.17	0.139	0.091	0.18	0.174	0.101	0.1	0.12	0.181	0.2	0.147	0.12	0.142	0.125	0.142	0.112	0.13	0.165	0.128	0.144	0.134	0.162	0.136	0.136	0.142	0.136	0.147	0.127	0.134	0.128	0.167	0.134	0.137	0.125	0.134	0.121	0.085	0.168	0.122	0.121	0.144
7831/	0.091	0.163	0.096	0.087	0.058	0.092	0.134	0.121	0.114	0.106	0.115	0.13	0.069	0.051	0.165	0.095	0.081	0.066	0.131	0.113	0.0	0.133	0.152	0.138	0.152	0.088	0.1	0.089	0.072	0.085	0.152	0.09	0.034	0.066	0.3	0.087	0.026	0.175	0.067	0.075	0.062	0.04	0.241	0.18	0.082	0.091	0.056	0.077	0.071	0.004	0.025	0.186	0.101	0.112	0.056	0.103	0.211	0.121	0.249	0.0	0.021	0.108	0.124	0.12	0.08	0.122	0.089	0.138	0.091	0.124	0.077	0.197	0.236	0.047
7895/	0.166	0.179	0.139	0.144	0.179	0.142	0.164	0.152	0.198	0.171	0.167	0.138	0.177	0.154	0.17	0.16	0.132	0.178	0.165	0.163	0.215	0.167	0.159	0.171	0.175	0.169	0.15	0.139	0.137	0.176	0.201	0.076	0.154	0.166	0.119	0.123	0.168	0.167	0.097	0.114	0.123	0.148	0.19	0.127	0.128	0.102	0.132	0.112	0.125	0.108	0.141	0.124	0.143	0.126	0.145	0.151	0.139	0.142	0.141	0.149	0.119	0.147	0.123	0.134	0.144	0.15	0.134	0.117	0.121	0.154	0.137	0.124	0.11	0.147
7904/	0.212	0.182	0.161	0.156	0.186	0.158	0.144	0.162	0.214	0.178	0.199	0.161	0.245	0.191	0.207	0.188	0.154	0.168	0.22	0.192	0.198	0.216	0.209	0.226	0.2	0.188	0.22	0.174	0.162	0.207	0.208	0.093	0.128	0.174	0.131	0.118	0.183	0.189	0.106	0.103	0.117	0.174	0.211	0.147	0.124	0.123	0.118	0.101	0.106	0.119	0.166	0.14	0.152	0.135	0.158	0.141	0.145	0.119	0.132	0.128	0.112	0.145	0.118	0.157	0.128	0.129	0.117	0.128	0.126	0.134	0.121	0.141	0.119	0.131
7906/	0.164	0.158	0.15	0.17	0.198	0.157	0.152	0.16	0.212	0.138	0.175	0.17	0.215	0.159	0.185	0.188	0.155	0.155	0.177	0.157	0.173	0.169	0.144	0.198	0.176	0.169	0.148	0.148	0.164	0.183	0.219	0.066	0.12	0.173	0.109	0.158	0.199	0.189	0.116	0.141	0.12	0.165	0.204	0.149	0.122	0.113	0.111	0.109	0.113	0.161	0.139	0.136	0.138	0.134	0.123	0.134	0.135	0.111	0.131	0.172	0.133	0.168	0.139	0.151	0.137	0.154	0.126	0.125	0.139	0.161	0.164	0.122	0.129	0.162
7953/	0.159	0.16	0.172	0.14	0.179	0.135	0.139	0.14	0.189	0.167	0.161	0.145	0.176	0.155	0.149	0.152	0.139	0.155	0.157	0.152	0.184	0.168	0.164	0.175	0.161	0.145	0.148	0.134	0.153	0.162	0.19	0.083	0.119	0.16	0.113	0.127	0.177	0.16	0.12	0.1	0.119	0.171	0.195	0.152	0.117	0.114	0.115	0.098	0.121	0.116	0.124	0.131	0.144	0.117	0.138	0.136	0.125	0.123	0.13	0.144	0.123	0.13	0.109	0.133	0.121	0.147	0.099	0.112	0.114	0.121	0.128	0.145	0.126	0.142
7954/	0.169	0.151	0.174	0.151	0.173	0.131	0.131	0.141	0.181	0.163	0.166	0.172	0.164	0.163	0.175	0.158	0.137	0.156	0.164	0.143	0.164	0.19	0.169	0.173	0.16	0.143	0.131	0.143	0.146	0.162	0.186	0.085	0.119	0.174	0.103	0.15	0.166	0.154	0.11	0.108	0.122	0.161	0.208	0.144	0.119	0.113	0.123	0.106	0.113	0.107	0.134	0.128	0.146	0.128	0.117	0.121	0.123	0.129	0.139	0.154	0.111	0.148	0.112	0.133	0.121	0.137	0.123	0.112	0.115	0.179	0.124	0.124	0.116	0.164
7965/	0.149	0.173	0.149	0.247	0.175	0.181	0.16	0.0	0.0	0.0	0.0	0.186	0.091	0.19	0.211	0.186	0.025	0.113	0.196	0.189	0.169	0.0	0.13	0.155	0.19	0.176	0.16	0.198	0.229	0.091	0.172	0.211	0.158	0.205	0.063	0.124	0.23	0.179	0.116	0.09	0.198	0.229	0.201	0.0	0.184	0.0	0.117	0.074	0.112	0.0	0.187	0.21	0.164	0.185	0.159	0.187	0.174	0.152	0.241	0.245	0.0	0.0	0.195	0.113	0.0	0.111	0.178	0.174	0.219	0.236	0.0	0.158	0.186	0.153
8155/	0.156	0.165	0.175	0.135	0.165	0.138	0.136	0.126	0.162	0.174	0.163	0.171	0.142	0.166	0.142	0.149	0.152	0.152	0.157	0.148	0.189	0.188	0.168	0.162	0.155	0.139	0.156	0.143	0.161	0.17	0.196	0.15	0.166	0.17	0.151	0.107	0.157	0.165	0.098	0.142	0.125	0.16	0.19	0.141	0.125	0.12	0.139	0.115	0.126	0.112	0.157	0.136	0.137	0.118	0.114	0.12	0.146	0.135	0.152	0.129	0.124	0.12	0.114	0.148	0.129	0.155	0.118	0.111	0.136	0.129	0.131	0.125	0.107	0.134
8231/	0.174	0.165	0.159	0.141	0.192	0.144	0.131	0.141	0.188	0.198	0.165	0.172	0.205	0.166	0.176	0.165	0.189	0.187	0.178	0.155	0.166	0.199	0.172	0.188	0.166	0.154	0.168	0.152	0.163	0.169	0.2	0.075	0.163	0.173	0.14	0.086	0.186	0.175	0.111	0.166	0.125	0.172	0.217	0.144	0.122	0.129	0.133	0.14	0.135	0.112	0.149	0.128	0.136	0.123	0.131	0.128	0.151	0.13	0.139	0.145	0.121	0.132	0.128	0.149	0.136	0.131	0.133	0.127	0.134	0.175	0.138	0.119	0.122	0.145
8307/	0.246	0.236	0.335	0.202	0.351	0.47	0.176	0.363	0.0	0.344	0.225	0.206	0.224	0.243	0.251	0.325	0.401	0.3	0.221	0.156	0.43	0.322	0.563	0.237	0.195	0.241	0.278	0.276	0.385	0.274	0.32	0.319	0.377	0.279	0.348	0.205	0.37	0.228	0.17	0.164	0.296	0.253	0.407	0.216	0.233	0.238	0.184	0.443	0.17	0.54	0.502	0.201	0.185	0.25	0.153	0.178	0.203	0.144	0.15	0.281	0.339	0.665	0.538	0.283	0.249	0.515	0.228	0.203	0.193	0.38	0.159	0.135	0.292	0.368
8350/	0.328	0.243	0.37	0.223	0.255	0.205	0.178	0.152	0.0	0.0	0.288	0.231	0.263	0.228	0.217	0.241	0.517	0.428	0.25	0.244	0.312	0.387	0.319	0.243	0.256	0.222	0.244	0.248	0.186	0.348	0.319	0.0	0.154	0.25	0.321	0.18	0.243	0.255	0.087	0.126	0.218	0.234	0.281	0.243	0.172	0.304	0.39	0.361	0.118	0.285	0.429	0.201	0.222	0.175	0.18	0.212	0.203	0.175	0.223	0.123	0.263	0.167	0.127	0.255	0.171	0.0	0.237	0.215	0.203	0.196	0.289	0.224	0.216	0.133
