,sub1,sub2,sub3,sub4,sub5,sub6,sub7,sub8,sub9,sub10,sub11,sub12,sub13,sub14,sub15,sub16,sub17,sub18,sub19,sub20,sub21,sub22,sub23,sub24,sub25,sub26,sub27,sub28,sub29,sub30,sub31,sub32,sub33,sub34,sub35,sub36,sub37,sub38,sub39,sub40,sub41,sub42,sub43,sub44,sub45,sub46,sub47,sub48,sub49,sub50,sub51,sub52,sub53,sub54,sub55,sub56,sub57,sub58,sub59,sub60,sub61,sub62,sub63,sub64,sub65,sub66,sub67,sub68,sub69,sub70,sub71,sub72,sub73,sub74,sub75,sub76,sub77,sub78,sub79,sub80,sub81,sub82,sub83,sub84,sub85,sub86,sub87,sub88,sub89,sub90,sub91,sub92,sub93,sub94,sub95,sub96,sub97,sub98,sub99,sub100,sub101,sub102,sub103,sub104,sub105,sub106,sub107,sub108,sub109,sub110,sub111,sub112,sub113,sub114,sub115,sub116,sub117,sub118,sub119,sub120,sub121,sub122,sub123,sub124,sub125,sub126,sub127,sub128,sub129,sub130,sub131,sub132,sub133,sub134,sub135,sub136,sub137,sub138,sub139,sub140,sub141,sub142,sub143,sub144,sub145,sub146,sub147,sub148,sub149,sub150,sub151,sub152,sub153,sub154,sub155,sub156,sub157,sub158,sub159,sub160,sub161,sub162,sub163,sub164,sub165,sub166,sub167,sub168,sub169,sub170,sub171,sub172,sub173,sub174,sub175,sub176,sub177,sub178,sub179,sub180,sub181,sub182,sub183,sub184,sub185,sub186,sub187,sub188,sub189,sub190,sub191,sub192,sub193,sub194,sub195,sub196,sub197,sub198,sub199,sub200,sub201,sub202,sub203,sub204,sub205,sub206,sub207,sub208
dx.1ad.2mci.3smi.x,3,1,2,1,2,3,2,1,2,2,2,2,2,3,3,2,3,1,1,1,1,2,1,3,1,3,1,3,3,2,1,1,1,1,2,1,1,1,2,1,3,1,1,3,2,1,1,1,1,2,1,2,1,1,1,1,2,1,1,2,2,1,3,2,3,3,3,1,3,1,1,1,3,1,1,1,2,1,3,1,3,1,2,2,3,3,1,1,1,2,2,1,1,1,3,2,2,1,1,3,1,2,1,1,1,1,1,3,2,1,2,2,1,3,1,1,1,1,1,2,2,1,2,2,2,1,3,2,1,2,1,1,3,1,2,2,2,1,1,1,1,2,1,2,1,1,2,2,3,1,1,1,3,2,2,1,1,1,1,1,1,2,3,3,1,2,1,1,2,1,1,2,1,1,1,1,2,1,2,1,2,1,2,1,2,2,3,1,1,1,2,3,2,2,1,3,2,1,1,1,1,3,1,1,1,2,1,3
dx2.1adonly.2adwithsmallvv.3mci.4.smi.x,4,1,3,1,3,4,3,1,3,3,3,3,3,4,4,3,4,2,2,1,2,3,2,4,2,4,2,4,4,3,2,1,1,2,3,2,1,1,3,2,4,1,1,4,3,1,1,2,1,3,1,3,2,1,1,1,3,1,1,3,3,1,4,3,4,4,4,2,4,2,1,1,4,1,1,1,3,1,4,1,4,1,3,3,4,4,2,1,2,3,3,1,2,1,4,3,3,1,1,4,1,3,2,1,1,2,2,4,3,1,3,3,2,4,1,1,1,1,1,3,3,1,3,3,3,1,4,3,1,3,2,1,4,1,3,3,3,2,1,1,1,3,1,3,1,1,3,3,4,2,1,2,4,3,3,1,2,1,1,1,1,3,4,4,1,3,1,2,3,1,1,3,1,1,1,2,3,1,3,1,3,1,3,1,3,3,4,1,1,1,3,4,3,3,1,4,3,1,2,1,1,4,1,2,1,3,2,4
pureAD1_smi0,0,1,NaN,1,NaN,0,NaN,1,NaN,NaN,NaN,NaN,NaN,0,0,NaN,0,NaN,NaN,1,NaN,NaN,NaN,0,NaN,0,NaN,0,0,NaN,NaN,1,1,NaN,NaN,NaN,1,1,NaN,NaN,0,1,1,0,NaN,1,1,NaN,1,NaN,1,NaN,NaN,1,1,1,NaN,1,1,NaN,NaN,1,0,NaN,0,0,0,NaN,0,NaN,1,1,0,1,1,1,NaN,1,0,1,0,1,NaN,NaN,0,0,NaN,1,NaN,NaN,NaN,1,NaN,1,0,NaN,NaN,1,1,0,1,NaN,NaN,1,1,NaN,NaN,0,NaN,1,NaN,NaN,NaN,0,1,1,1,1,1,NaN,NaN,1,NaN,NaN,NaN,1,0,NaN,1,NaN,NaN,1,0,1,NaN,NaN,NaN,NaN,1,1,1,NaN,1,NaN,1,1,NaN,NaN,0,NaN,1,NaN,0,NaN,NaN,1,NaN,1,1,1,1,NaN,0,0,1,NaN,1,NaN,NaN,1,1,NaN,1,1,1,NaN,NaN,1,NaN,1,NaN,1,NaN,1,NaN,NaN,0,1,1,1,NaN,0,NaN,NaN,1,0,NaN,1,NaN,1,1,0,1,NaN,1,NaN,NaN,0
pureAD1_MCI0,NaN,1,0,1,0,NaN,0,1,0,0,0,0,0,NaN,NaN,0,NaN,NaN,NaN,1,NaN,0,NaN,NaN,NaN,NaN,NaN,NaN,NaN,0,NaN,1,1,NaN,0,NaN,1,1,0,NaN,NaN,1,1,NaN,0,1,1,NaN,1,0,1,0,NaN,1,1,1,0,1,1,0,0,1,NaN,0,NaN,NaN,NaN,NaN,NaN,NaN,1,1,NaN,1,1,1,0,1,NaN,1,NaN,1,0,0,NaN,NaN,NaN,1,NaN,0,0,1,NaN,1,NaN,0,0,1,1,NaN,1,0,NaN,1,1,NaN,NaN,NaN,0,1,0,0,NaN,NaN,1,1,1,1,1,0,0,1,0,0,0,1,NaN,0,1,0,NaN,1,NaN,1,0,0,0,NaN,1,1,1,0,1,0,1,1,0,0,NaN,NaN,1,NaN,NaN,0,0,1,NaN,1,1,1,1,0,NaN,NaN,1,0,1,NaN,0,1,1,0,1,1,1,NaN,0,1,0,1,0,1,0,1,0,0,NaN,1,1,1,0,NaN,0,0,1,NaN,0,1,NaN,1,1,NaN,1,NaN,1,0,NaN,NaN
MCI1_smi0,0,NaN,1,NaN,1,0,1,NaN,1,1,1,1,1,0,0,1,0,NaN,NaN,NaN,NaN,1,NaN,0,NaN,0,NaN,0,0,1,NaN,NaN,NaN,NaN,1,NaN,NaN,NaN,1,NaN,0,NaN,NaN,0,1,NaN,NaN,NaN,NaN,1,NaN,1,NaN,NaN,NaN,NaN,1,NaN,NaN,1,1,NaN,0,1,0,0,0,NaN,0,NaN,NaN,NaN,0,NaN,NaN,NaN,1,NaN,0,NaN,0,NaN,1,1,0,0,NaN,NaN,NaN,1,1,NaN,NaN,NaN,0,1,1,NaN,NaN,0,NaN,1,NaN,NaN,NaN,NaN,NaN,0,1,NaN,1,1,NaN,0,NaN,NaN,NaN,NaN,NaN,1,1,NaN,1,1,1,NaN,0,1,NaN,1,NaN,NaN,0,NaN,1,1,1,NaN,NaN,NaN,NaN,1,NaN,1,NaN,NaN,1,1,0,NaN,NaN,NaN,0,1,1,NaN,NaN,NaN,NaN,NaN,NaN,1,0,0,NaN,1,NaN,NaN,1,NaN,NaN,1,NaN,NaN,NaN,NaN,1,NaN,1,NaN,1,NaN,1,NaN,1,1,0,NaN,NaN,NaN,1,0,1,1,NaN,0,1,NaN,NaN,NaN,NaN,0,NaN,NaN,NaN,1,NaN,0
pureAD1_MCIandSMI0,0,1,0,1,0,0,0,1,0,0,0,0,0,0,0,0,0,NaN,NaN,1,NaN,0,NaN,0,NaN,0,NaN,0,0,0,NaN,1,1,NaN,0,NaN,1,1,0,NaN,0,1,1,0,0,1,1,NaN,1,0,1,0,NaN,1,1,1,0,1,1,0,0,1,0,0,0,0,0,NaN,0,NaN,1,1,0,1,1,1,0,1,0,1,0,1,0,0,0,0,NaN,1,NaN,0,0,1,NaN,1,0,0,0,1,1,0,1,0,NaN,1,1,NaN,NaN,0,0,1,0,0,NaN,0,1,1,1,1,1,0,0,1,0,0,0,1,0,0,1,0,NaN,1,0,1,0,0,0,NaN,1,1,1,0,1,0,1,1,0,0,0,NaN,1,NaN,0,0,0,1,NaN,1,1,1,1,0,0,0,1,0,1,NaN,0,1,1,0,1,1,1,NaN,0,1,0,1,0,1,0,1,0,0,0,1,1,1,0,0,0,0,1,0,0,1,NaN,1,1,0,1,NaN,1,0,NaN,0