%!PS-Adobe-3.0 EPSF-3.0
%%Title: all_hist_weights.eps
%%Creator: matplotlib version 2.0.2, http://matplotlib.org/
%%CreationDate: Fri Sep  1 18:21:16 2017
%%Orientation: portrait
%%BoundingBox: 90 252 522 540
%%EndComments
%%BeginProlog
/mpldict 8 dict def
mpldict begin
/m { moveto } bind def
/l { lineto } bind def
/r { rlineto } bind def
/c { curveto } bind def
/cl { closepath } bind def
/box {
m
1 index 0 r
0 exch r
neg 0 r
cl
} bind def
/clipbox {
box
clip
newpath
} bind def
%!PS-Adobe-3.0 Resource-Font
%%Title: DejaVu Sans
%%Copyright: Copyright (c) 2003 by Bitstream, Inc. All Rights Reserved. Copyright (c) 2006 by Tavmjong Bah. All Rights Reserved. DejaVu changes are in public domain 
%%Creator: Converted from TrueType to type 3 by PPR
25 dict begin
/_d{bind def}bind def
/_m{moveto}_d
/_l{lineto}_d
/_cl{closepath eofill}_d
/_c{curveto}_d
/_sc{7 -1 roll{setcachedevice}{pop pop pop pop pop pop}ifelse}_d
/_e{exec}_d
/FontName /DejaVuSans def
/PaintType 0 def
/FontMatrix[.001 0 0 .001 0 0]def
/FontBBox[-1021 -463 1793 1232]def
/FontType 3 def
/Encoding [ /space /period /zero /one /two /three /four /five /A /H /W /a /e /g /h /i /l /m /o /r /s /t /minus ] def
/FontInfo 10 dict dup begin
/FamilyName (DejaVu Sans) def
/FullName (DejaVu Sans) def
/Notice (Copyright (c) 2003 by Bitstream, Inc. All Rights Reserved. Copyright (c) 2006 by Tavmjong Bah. All Rights Reserved. DejaVu changes are in public domain ) def
/Weight (Book) def
/Version (Version 2.35) def
/ItalicAngle 0.0 def
/isFixedPitch false def
/UnderlinePosition -130 def
/UnderlineThickness 90 def
end readonly def
/CharStrings 23 dict dup begin
/space{318 0 0 0 0 0 _sc
}_d
/period{318 0 107 0 210 124 _sc
107 124 _m
210 124 _l
210 0 _l
107 0 _l
107 124 _l
_cl}_d
/zero{636 0 66 -13 570 742 _sc
318 664 _m
267 664 229 639 203 589 _c
177 539 165 464 165 364 _c
165 264 177 189 203 139 _c
229 89 267 64 318 64 _c
369 64 407 89 433 139 _c
458 189 471 264 471 364 _c
471 464 458 539 433 589 _c
407 639 369 664 318 664 _c
318 742 _m
399 742 461 709 505 645 _c
548 580 570 486 570 364 _c
570 241 548 147 505 83 _c
461 19 399 -13 318 -13 _c
236 -13 173 19 130 83 _c
87 147 66 241 66 364 _c
66 486 87 580 130 645 _c
173 709 236 742 318 742 _c
_cl}_d
/one{636 0 110 0 544 729 _sc
124 83 _m
285 83 _l
285 639 _l
110 604 _l
110 694 _l
284 729 _l
383 729 _l
383 83 _l
544 83 _l
544 0 _l
124 0 _l
124 83 _l
_cl}_d
/two{{636 0 73 0 536 742 _sc
192 83 _m
536 83 _l
536 0 _l
73 0 _l
73 83 _l
110 121 161 173 226 239 _c
290 304 331 346 348 365 _c
380 400 402 430 414 455 _c
426 479 433 504 433 528 _c
433 566 419 598 392 622 _c
365 646 330 659 286 659 _c
255 659 222 653 188 643 _c
154 632 117 616 78 594 _c
78 694 _l
118 710 155 722 189 730 _c
223 738 255 742 284 742 _c
}_e{359 742 419 723 464 685 _c
509 647 532 597 532 534 _c
532 504 526 475 515 449 _c
504 422 484 390 454 354 _c
446 344 420 317 376 272 _c
332 227 271 164 192 83 _c
_cl}_e}_d
/three{{636 0 76 -13 556 742 _sc
406 393 _m
453 383 490 362 516 330 _c
542 298 556 258 556 212 _c
556 140 531 84 482 45 _c
432 6 362 -13 271 -13 _c
240 -13 208 -10 176 -4 _c
144 1 110 10 76 22 _c
76 117 _l
103 101 133 89 166 81 _c
198 73 232 69 268 69 _c
330 69 377 81 409 105 _c
441 129 458 165 458 212 _c
458 254 443 288 413 312 _c
383 336 341 349 287 349 _c
}_e{202 349 _l
202 430 _l
291 430 _l
339 430 376 439 402 459 _c
428 478 441 506 441 543 _c
441 580 427 609 401 629 _c
374 649 336 659 287 659 _c
260 659 231 656 200 650 _c
169 644 135 635 98 623 _c
98 711 _l
135 721 170 729 203 734 _c
235 739 266 742 296 742 _c
370 742 429 725 473 691 _c
517 657 539 611 539 553 _c
539 513 527 479 504 451 _c
481 423 448 403 406 393 _c
_cl}_e}_d
/four{636 0 49 0 580 729 _sc
378 643 _m
129 254 _l
378 254 _l
378 643 _l
352 729 _m
476 729 _l
476 254 _l
580 254 _l
580 172 _l
476 172 _l
476 0 _l
378 0 _l
378 172 _l
49 172 _l
49 267 _l
352 729 _l
_cl}_d
/five{{636 0 77 -13 549 729 _sc
108 729 _m
495 729 _l
495 646 _l
198 646 _l
198 467 _l
212 472 227 476 241 478 _c
255 480 270 482 284 482 _c
365 482 429 459 477 415 _c
525 370 549 310 549 234 _c
549 155 524 94 475 51 _c
426 8 357 -13 269 -13 _c
238 -13 207 -10 175 -6 _c
143 -1 111 6 77 17 _c
77 116 _l
106 100 136 88 168 80 _c
199 72 232 69 267 69 _c
}_e{323 69 368 83 401 113 _c
433 143 450 183 450 234 _c
450 284 433 324 401 354 _c
368 384 323 399 267 399 _c
241 399 214 396 188 390 _c
162 384 135 375 108 363 _c
108 729 _l
_cl}_e}_d
/A{684 0 8 0 676 729 _sc
342 632 _m
208 269 _l
476 269 _l
342 632 _l
286 729 _m
398 729 _l
676 0 _l
573 0 _l
507 187 _l
178 187 _l
112 0 _l
8 0 _l
286 729 _l
_cl}_d
/H{752 0 98 0 654 729 _sc
98 729 _m
197 729 _l
197 430 _l
555 430 _l
555 729 _l
654 729 _l
654 0 _l
555 0 _l
555 347 _l
197 347 _l
197 0 _l
98 0 _l
98 729 _l
_cl}_d
/W{989 0 33 0 956 729 _sc
33 729 _m
133 729 _l
286 113 _l
439 729 _l
550 729 _l
703 113 _l
856 729 _l
956 729 _l
773 0 _l
649 0 _l
495 633 _l
340 0 _l
216 0 _l
33 729 _l
_cl}_d
/a{{613 0 60 -13 522 560 _sc
343 275 _m
270 275 220 266 192 250 _c
164 233 150 205 150 165 _c
150 133 160 107 181 89 _c
202 70 231 61 267 61 _c
317 61 357 78 387 114 _c
417 149 432 196 432 255 _c
432 275 _l
343 275 _l
522 312 _m
522 0 _l
432 0 _l
432 83 _l
411 49 385 25 355 10 _c
325 -5 287 -13 243 -13 _c
187 -13 142 2 109 33 _c
76 64 60 106 60 159 _c
}_e{60 220 80 266 122 298 _c
163 329 224 345 306 345 _c
432 345 _l
432 354 _l
432 395 418 427 391 450 _c
364 472 326 484 277 484 _c
245 484 215 480 185 472 _c
155 464 127 453 100 439 _c
100 522 _l
132 534 164 544 195 550 _c
226 556 256 560 286 560 _c
365 560 424 539 463 498 _c
502 457 522 395 522 312 _c
_cl}_e}_d
/e{{615 0 55 -13 562 560 _sc
562 296 _m
562 252 _l
149 252 _l
153 190 171 142 205 110 _c
238 78 284 62 344 62 _c
378 62 412 66 444 74 _c
476 82 509 95 541 113 _c
541 28 _l
509 14 476 3 442 -3 _c
408 -9 373 -13 339 -13 _c
251 -13 182 12 131 62 _c
80 112 55 181 55 268 _c
55 357 79 428 127 481 _c
175 533 241 560 323 560 _c
397 560 455 536 498 489 _c
}_e{540 441 562 377 562 296 _c
472 322 _m
471 371 457 410 431 440 _c
404 469 368 484 324 484 _c
274 484 234 469 204 441 _c
174 413 156 373 152 322 _c
472 322 _l
_cl}_e}_d
/g{{635 0 55 -207 544 560 _sc
454 280 _m
454 344 440 395 414 431 _c
387 467 349 485 301 485 _c
253 485 215 467 188 431 _c
161 395 148 344 148 280 _c
148 215 161 165 188 129 _c
215 93 253 75 301 75 _c
349 75 387 93 414 129 _c
440 165 454 215 454 280 _c
544 68 _m
544 -24 523 -93 482 -139 _c
440 -184 377 -207 292 -207 _c
260 -207 231 -204 203 -200 _c
175 -195 147 -188 121 -178 _c
}_e{121 -91 _l
147 -105 173 -115 199 -122 _c
225 -129 251 -133 278 -133 _c
336 -133 380 -117 410 -87 _c
439 -56 454 -10 454 52 _c
454 96 _l
435 64 411 40 382 24 _c
353 8 319 0 279 0 _c
211 0 157 25 116 76 _c
75 127 55 195 55 280 _c
55 364 75 432 116 483 _c
157 534 211 560 279 560 _c
319 560 353 552 382 536 _c
411 520 435 496 454 464 _c
454 547 _l
544 547 _l
}_e{544 68 _l
_cl}_e}_d
/h{634 0 91 0 549 760 _sc
549 330 _m
549 0 _l
459 0 _l
459 327 _l
459 379 448 417 428 443 _c
408 469 378 482 338 482 _c
289 482 251 466 223 435 _c
195 404 181 362 181 309 _c
181 0 _l
91 0 _l
91 760 _l
181 760 _l
181 462 _l
202 494 227 519 257 535 _c
286 551 320 560 358 560 _c
420 560 468 540 500 501 _c
532 462 549 405 549 330 _c
_cl}_d
/i{278 0 94 0 184 760 _sc
94 547 _m
184 547 _l
184 0 _l
94 0 _l
94 547 _l
94 760 _m
184 760 _l
184 646 _l
94 646 _l
94 760 _l
_cl}_d
/l{278 0 94 0 184 760 _sc
94 760 _m
184 760 _l
184 0 _l
94 0 _l
94 760 _l
_cl}_d
/m{{974 0 91 0 889 560 _sc
520 442 _m
542 482 569 511 600 531 _c
631 550 668 560 711 560 _c
767 560 811 540 842 500 _c
873 460 889 403 889 330 _c
889 0 _l
799 0 _l
799 327 _l
799 379 789 418 771 444 _c
752 469 724 482 686 482 _c
639 482 602 466 575 435 _c
548 404 535 362 535 309 _c
535 0 _l
445 0 _l
445 327 _l
445 379 435 418 417 444 _c
398 469 369 482 331 482 _c
}_e{285 482 248 466 221 435 _c
194 404 181 362 181 309 _c
181 0 _l
91 0 _l
91 547 _l
181 547 _l
181 462 _l
201 495 226 520 255 536 _c
283 552 317 560 357 560 _c
397 560 430 550 458 530 _c
486 510 506 480 520 442 _c
_cl}_e}_d
/o{612 0 55 -13 557 560 _sc
306 484 _m
258 484 220 465 192 427 _c
164 389 150 338 150 273 _c
150 207 163 156 191 118 _c
219 80 257 62 306 62 _c
354 62 392 80 420 118 _c
448 156 462 207 462 273 _c
462 337 448 389 420 427 _c
392 465 354 484 306 484 _c
306 560 _m
384 560 445 534 490 484 _c
534 433 557 363 557 273 _c
557 183 534 113 490 63 _c
445 12 384 -13 306 -13 _c
227 -13 165 12 121 63 _c
77 113 55 183 55 273 _c
55 363 77 433 121 484 _c
165 534 227 560 306 560 _c
_cl}_d
/r{411 0 91 0 411 560 _sc
411 463 _m
401 469 390 473 378 476 _c
366 478 353 480 339 480 _c
288 480 249 463 222 430 _c
194 397 181 350 181 288 _c
181 0 _l
91 0 _l
91 547 _l
181 547 _l
181 462 _l
199 495 224 520 254 536 _c
284 552 321 560 365 560 _c
371 560 378 559 386 559 _c
393 558 401 557 411 555 _c
411 463 _l
_cl}_d
/s{{521 0 54 -13 472 560 _sc
443 531 _m
443 446 _l
417 458 391 468 364 475 _c
336 481 308 485 279 485 _c
234 485 200 478 178 464 _c
156 450 145 430 145 403 _c
145 382 153 366 169 354 _c
185 342 217 330 265 320 _c
296 313 _l
360 299 405 279 432 255 _c
458 230 472 195 472 151 _c
472 100 452 60 412 31 _c
372 1 316 -13 246 -13 _c
216 -13 186 -10 154 -5 _c
}_e{122 0 89 8 54 20 _c
54 113 _l
87 95 120 82 152 74 _c
184 65 216 61 248 61 _c
290 61 323 68 346 82 _c
368 96 380 117 380 144 _c
380 168 371 187 355 200 _c
339 213 303 226 247 238 _c
216 245 _l
160 257 119 275 95 299 _c
70 323 58 356 58 399 _c
58 450 76 490 112 518 _c
148 546 200 560 268 560 _c
301 560 332 557 362 552 _c
391 547 418 540 443 531 _c
}_e{_cl}_e}_d
/t{392 0 27 0 368 702 _sc
183 702 _m
183 547 _l
368 547 _l
368 477 _l
183 477 _l
183 180 _l
183 135 189 106 201 94 _c
213 81 238 75 276 75 _c
368 75 _l
368 0 _l
276 0 _l
206 0 158 13 132 39 _c
106 65 93 112 93 180 _c
93 477 _l
27 477 _l
27 547 _l
93 547 _l
93 702 _l
183 702 _l
_cl}_d
/minus{838 0 106 272 732 355 _sc
106 355 _m
732 355 _l
732 272 _l
106 272 _l
106 355 _l
_cl}_d
end readonly def

/BuildGlyph
 {exch begin
 CharStrings exch
 2 copy known not{pop /.notdef}if
 true 3 1 roll get exec
 end}_d

/BuildChar {
 1 index /Encoding get exch get
 1 index /BuildGlyph get exec
}_d

FontName currentdict end definefont pop
end
%%EndProlog
mpldict begin
90 252 translate
432 288 0 0 clipbox
gsave
0 0 m
432 0 l
432 288 l
0 288 l
cl
1.000 setgray
fill
grestore
gsave
54 36 m
388.8 36 l
388.8 253.44 l
54 253.44 l
cl
1.000 setgray
fill
grestore
gsave
334.8 217.4 54 36 clipbox
69.218182 36 m
75.305455 36 l
75.305455 39.982418 l
69.218182 39.982418 l
cl
0.122 0.467 0.706 setrgbcolor
fill
grestore
gsave
334.8 217.4 54 36 clipbox
75.305455 36 m
81.392727 36 l
81.392727 39.982418 l
75.305455 39.982418 l
cl
0.122 0.467 0.706 setrgbcolor
fill
grestore
gsave
334.8 217.4 54 36 clipbox
81.392727 36 m
87.48 36 l
87.48 43.964835 l
81.392727 43.964835 l
cl
0.122 0.467 0.706 setrgbcolor
fill
grestore
gsave
334.8 217.4 54 36 clipbox
87.48 36 m
93.567273 36 l
93.567273 43.964835 l
87.48 43.964835 l
cl
0.122 0.467 0.706 setrgbcolor
fill
grestore
gsave
334.8 217.4 54 36 clipbox
93.567273 36 m
99.654545 36 l
99.654545 43.964835 l
93.567273 43.964835 l
cl
0.122 0.467 0.706 setrgbcolor
fill
grestore
gsave
334.8 217.4 54 36 clipbox
99.654545 36 m
105.741818 36 l
105.741818 55.912088 l
99.654545 55.912088 l
cl
0.122 0.467 0.706 setrgbcolor
fill
grestore
gsave
334.8 217.4 54 36 clipbox
105.741818 36 m
111.829091 36 l
111.829091 63.876923 l
105.741818 63.876923 l
cl
0.122 0.467 0.706 setrgbcolor
fill
grestore
gsave
334.8 217.4 54 36 clipbox
111.829091 36 m
117.916364 36 l
117.916364 67.859341 l
111.829091 67.859341 l
cl
0.122 0.467 0.706 setrgbcolor
fill
grestore
gsave
334.8 217.4 54 36 clipbox
117.916364 36 m
124.003636 36 l
124.003636 79.806593 l
117.916364 79.806593 l
cl
0.122 0.467 0.706 setrgbcolor
fill
grestore
gsave
334.8 217.4 54 36 clipbox
124.003636 36 m
130.090909 36 l
130.090909 71.841758 l
124.003636 71.841758 l
cl
0.122 0.467 0.706 setrgbcolor
fill
grestore
gsave
334.8 217.4 54 36 clipbox
130.090909 36 m
136.178182 36 l
136.178182 87.771429 l
130.090909 87.771429 l
cl
0.122 0.467 0.706 setrgbcolor
fill
grestore
gsave
334.8 217.4 54 36 clipbox
136.178182 36 m
142.265455 36 l
142.265455 123.613187 l
136.178182 123.613187 l
cl
0.122 0.467 0.706 setrgbcolor
fill
grestore
gsave
334.8 217.4 54 36 clipbox
142.265455 36 m
148.352727 36 l
148.352727 131.578022 l
142.265455 131.578022 l
cl
0.122 0.467 0.706 setrgbcolor
fill
grestore
gsave
334.8 217.4 54 36 clipbox
148.352727 36 m
154.44 36 l
154.44 103.701099 l
148.352727 103.701099 l
cl
0.122 0.467 0.706 setrgbcolor
fill
grestore
gsave
334.8 217.4 54 36 clipbox
154.44 36 m
160.527273 36 l
160.527273 139.542857 l
154.44 139.542857 l
cl
0.122 0.467 0.706 setrgbcolor
fill
grestore
gsave
334.8 217.4 54 36 clipbox
160.527273 36 m
166.614545 36 l
166.614545 139.542857 l
160.527273 139.542857 l
cl
0.122 0.467 0.706 setrgbcolor
fill
grestore
gsave
334.8 217.4 54 36 clipbox
166.614545 36 m
172.701818 36 l
172.701818 191.314286 l
166.614545 191.314286 l
cl
0.122 0.467 0.706 setrgbcolor
fill
grestore
gsave
334.8 217.4 54 36 clipbox
172.701818 36 m
178.789091 36 l
178.789091 203.261538 l
172.701818 203.261538 l
cl
0.122 0.467 0.706 setrgbcolor
fill
grestore
gsave
334.8 217.4 54 36 clipbox
178.789091 36 m
184.876364 36 l
184.876364 211.226374 l
178.789091 211.226374 l
cl
0.122 0.467 0.706 setrgbcolor
fill
grestore
gsave
334.8 217.4 54 36 clipbox
184.876364 36 m
190.963636 36 l
190.963636 191.314286 l
184.876364 191.314286 l
cl
0.122 0.467 0.706 setrgbcolor
fill
grestore
gsave
334.8 217.4 54 36 clipbox
190.963636 36 m
197.050909 36 l
197.050909 195.296703 l
190.963636 195.296703 l
cl
0.122 0.467 0.706 setrgbcolor
fill
grestore
gsave
334.8 217.4 54 36 clipbox
197.050909 36 m
203.138182 36 l
203.138182 203.261538 l
197.050909 203.261538 l
cl
0.122 0.467 0.706 setrgbcolor
fill
grestore
gsave
334.8 217.4 54 36 clipbox
203.138182 36 m
209.225455 36 l
209.225455 219.191209 l
203.138182 219.191209 l
cl
0.122 0.467 0.706 setrgbcolor
fill
grestore
gsave
334.8 217.4 54 36 clipbox
209.225455 36 m
215.312727 36 l
215.312727 243.085714 l
209.225455 243.085714 l
cl
0.122 0.467 0.706 setrgbcolor
fill
grestore
gsave
334.8 217.4 54 36 clipbox
215.312727 36 m
221.4 36 l
221.4 207.243956 l
215.312727 207.243956 l
cl
0.122 0.467 0.706 setrgbcolor
fill
grestore
gsave
334.8 217.4 54 36 clipbox
221.4 36 m
227.487273 36 l
227.487273 159.454945 l
221.4 159.454945 l
cl
0.122 0.467 0.706 setrgbcolor
fill
grestore
gsave
334.8 217.4 54 36 clipbox
227.487273 36 m
233.574545 36 l
233.574545 175.384615 l
227.487273 175.384615 l
cl
0.122 0.467 0.706 setrgbcolor
fill
grestore
gsave
334.8 217.4 54 36 clipbox
233.574545 36 m
239.661818 36 l
239.661818 199.279121 l
233.574545 199.279121 l
cl
0.122 0.467 0.706 setrgbcolor
fill
grestore
gsave
334.8 217.4 54 36 clipbox
239.661818 36 m
245.749091 36 l
245.749091 171.402198 l
239.661818 171.402198 l
cl
0.122 0.467 0.706 setrgbcolor
fill
grestore
gsave
334.8 217.4 54 36 clipbox
245.749091 36 m
251.836364 36 l
251.836364 143.525275 l
245.749091 143.525275 l
cl
0.122 0.467 0.706 setrgbcolor
fill
grestore
gsave
334.8 217.4 54 36 clipbox
251.836364 36 m
257.923636 36 l
257.923636 147.507692 l
251.836364 147.507692 l
cl
0.122 0.467 0.706 setrgbcolor
fill
grestore
gsave
334.8 217.4 54 36 clipbox
257.923636 36 m
264.010909 36 l
264.010909 131.578022 l
257.923636 131.578022 l
cl
0.122 0.467 0.706 setrgbcolor
fill
grestore
gsave
334.8 217.4 54 36 clipbox
264.010909 36 m
270.098182 36 l
270.098182 99.718681 l
264.010909 99.718681 l
cl
0.122 0.467 0.706 setrgbcolor
fill
grestore
gsave
334.8 217.4 54 36 clipbox
270.098182 36 m
276.185455 36 l
276.185455 87.771429 l
270.098182 87.771429 l
cl
0.122 0.467 0.706 setrgbcolor
fill
grestore
gsave
334.8 217.4 54 36 clipbox
276.185455 36 m
282.272727 36 l
282.272727 99.718681 l
276.185455 99.718681 l
cl
0.122 0.467 0.706 setrgbcolor
fill
grestore
gsave
334.8 217.4 54 36 clipbox
282.272727 36 m
288.36 36 l
288.36 83.789011 l
282.272727 83.789011 l
cl
0.122 0.467 0.706 setrgbcolor
fill
grestore
gsave
334.8 217.4 54 36 clipbox
288.36 36 m
294.447273 36 l
294.447273 79.806593 l
288.36 79.806593 l
cl
0.122 0.467 0.706 setrgbcolor
fill
grestore
gsave
334.8 217.4 54 36 clipbox
294.447273 36 m
300.534545 36 l
300.534545 51.92967 l
294.447273 51.92967 l
cl
0.122 0.467 0.706 setrgbcolor
fill
grestore
gsave
334.8 217.4 54 36 clipbox
300.534545 36 m
306.621818 36 l
306.621818 67.859341 l
300.534545 67.859341 l
cl
0.122 0.467 0.706 setrgbcolor
fill
grestore
gsave
334.8 217.4 54 36 clipbox
306.621818 36 m
312.709091 36 l
312.709091 47.947253 l
306.621818 47.947253 l
cl
0.122 0.467 0.706 setrgbcolor
fill
grestore
gsave
334.8 217.4 54 36 clipbox
312.709091 36 m
318.796364 36 l
318.796364 59.894505 l
312.709091 59.894505 l
cl
0.122 0.467 0.706 setrgbcolor
fill
grestore
gsave
334.8 217.4 54 36 clipbox
318.796364 36 m
324.883636 36 l
324.883636 67.859341 l
318.796364 67.859341 l
cl
0.122 0.467 0.706 setrgbcolor
fill
grestore
gsave
334.8 217.4 54 36 clipbox
324.883636 36 m
330.970909 36 l
330.970909 55.912088 l
324.883636 55.912088 l
cl
0.122 0.467 0.706 setrgbcolor
fill
grestore
gsave
334.8 217.4 54 36 clipbox
330.970909 36 m
337.058182 36 l
337.058182 36 l
330.970909 36 l
cl
0.122 0.467 0.706 setrgbcolor
fill
grestore
gsave
334.8 217.4 54 36 clipbox
337.058182 36 m
343.145455 36 l
343.145455 55.912088 l
337.058182 55.912088 l
cl
0.122 0.467 0.706 setrgbcolor
fill
grestore
gsave
334.8 217.4 54 36 clipbox
343.145455 36 m
349.232727 36 l
349.232727 39.982418 l
343.145455 39.982418 l
cl
0.122 0.467 0.706 setrgbcolor
fill
grestore
gsave
334.8 217.4 54 36 clipbox
349.232727 36 m
355.32 36 l
355.32 47.947253 l
349.232727 47.947253 l
cl
0.122 0.467 0.706 setrgbcolor
fill
grestore
gsave
334.8 217.4 54 36 clipbox
355.32 36 m
361.407273 36 l
361.407273 51.92967 l
355.32 51.92967 l
cl
0.122 0.467 0.706 setrgbcolor
fill
grestore
gsave
334.8 217.4 54 36 clipbox
361.407273 36 m
367.494545 36 l
367.494545 39.982418 l
361.407273 39.982418 l
cl
0.122 0.467 0.706 setrgbcolor
fill
grestore
gsave
334.8 217.4 54 36 clipbox
367.494545 36 m
373.581818 36 l
373.581818 39.982418 l
367.494545 39.982418 l
cl
0.122 0.467 0.706 setrgbcolor
fill
grestore
0.800 setlinewidth
1 setlinejoin
0 setlinecap
[] 0 setdash
0.000 setgray
gsave
/o {
gsave
newpath
translate
0.8 setlinewidth
1 setlinejoin
0 setlinecap
0 0 m
0 -3.5 l

gsave
0.000 setgray
fill
grestore
stroke
grestore
} bind def
106.174 36 o
grestore
/DejaVuSans findfont
10.000 scalefont
setfont
gsave
94.033852 21.406250 translate
0.000000 rotate
0.000000 0.000000 m /minus glyphshow
8.378906 0.000000 m /zero glyphshow
14.741211 0.000000 m /period glyphshow
17.919922 0.000000 m /two glyphshow
grestore
gsave
/o {
gsave
newpath
translate
0.8 setlinewidth
1 setlinejoin
0 setlinecap
0 0 m
0 -3.5 l

gsave
0.000 setgray
fill
grestore
stroke
grestore
} bind def
162.6 36 o
grestore
gsave
150.459090 21.406250 translate
0.000000 rotate
0.000000 0.000000 m /minus glyphshow
8.378906 0.000000 m /zero glyphshow
14.741211 0.000000 m /period glyphshow
17.919922 0.000000 m /one glyphshow
grestore
gsave
/o {
gsave
newpath
translate
0.8 setlinewidth
1 setlinejoin
0 setlinecap
0 0 m
0 -3.5 l

gsave
0.000 setgray
fill
grestore
stroke
grestore
} bind def
219.025 36 o
grestore
gsave
211.071828 21.406250 translate
0.000000 rotate
0.000000 0.000000 m /zero glyphshow
6.362305 0.000000 m /period glyphshow
9.541016 0.000000 m /zero glyphshow
grestore
gsave
/o {
gsave
newpath
translate
0.8 setlinewidth
1 setlinejoin
0 setlinecap
0 0 m
0 -3.5 l

gsave
0.000 setgray
fill
grestore
stroke
grestore
} bind def
275.45 36 o
grestore
gsave
267.497065 21.406250 translate
0.000000 rotate
0.000000 0.000000 m /zero glyphshow
6.362305 0.000000 m /period glyphshow
9.541016 0.000000 m /one glyphshow
grestore
gsave
/o {
gsave
newpath
translate
0.8 setlinewidth
1 setlinejoin
0 setlinecap
0 0 m
0 -3.5 l

gsave
0.000 setgray
fill
grestore
stroke
grestore
} bind def
331.875 36 o
grestore
gsave
323.922303 21.406250 translate
0.000000 rotate
0.000000 0.000000 m /zero glyphshow
6.362305 0.000000 m /period glyphshow
9.541016 0.000000 m /two glyphshow
grestore
gsave
/o {
gsave
newpath
translate
0.8 setlinewidth
1 setlinejoin
0 setlinecap
0 0 m
0 -3.5 l

gsave
0.000 setgray
fill
grestore
stroke
grestore
} bind def
388.301 36 o
grestore
gsave
380.347540 21.406250 translate
0.000000 rotate
0.000000 0.000000 m /zero glyphshow
6.362305 0.000000 m /period glyphshow
9.541016 0.000000 m /three glyphshow
grestore
gsave
201.071875 7.734375 translate
0.000000 rotate
0.000000 0.000000 m /W glyphshow
9.887695 0.000000 m /e glyphshow
16.040039 0.000000 m /i glyphshow
18.818359 0.000000 m /g glyphshow
25.166016 0.000000 m /h glyphshow
31.503906 0.000000 m /t glyphshow
35.424805 0.000000 m /s glyphshow
grestore
gsave
/o {
gsave
newpath
translate
0.8 setlinewidth
1 setlinejoin
0 setlinecap
0 0 m
-3.5 0 l

gsave
0.000 setgray
fill
grestore
stroke
grestore
} bind def
54 36 o
grestore
gsave
40.640625 32.203125 translate
0.000000 rotate
0.000000 0.000000 m /zero glyphshow
grestore
gsave
/o {
gsave
newpath
translate
0.8 setlinewidth
1 setlinejoin
0 setlinecap
0 0 m
-3.5 0 l

gsave
0.000 setgray
fill
grestore
stroke
grestore
} bind def
54 75.8242 o
grestore
gsave
34.281250 72.027301 translate
0.000000 rotate
0.000000 0.000000 m /one glyphshow
6.362305 0.000000 m /zero glyphshow
grestore
gsave
/o {
gsave
newpath
translate
0.8 setlinewidth
1 setlinejoin
0 setlinecap
0 0 m
-3.5 0 l

gsave
0.000 setgray
fill
grestore
stroke
grestore
} bind def
54 115.648 o
grestore
gsave
34.281250 111.851477 translate
0.000000 rotate
0.000000 0.000000 m /two glyphshow
6.362305 0.000000 m /zero glyphshow
grestore
gsave
/o {
gsave
newpath
translate
0.8 setlinewidth
1 setlinejoin
0 setlinecap
0 0 m
-3.5 0 l

gsave
0.000 setgray
fill
grestore
stroke
grestore
} bind def
54 155.473 o
grestore
gsave
34.281250 151.675652 translate
0.000000 rotate
0.000000 0.000000 m /three glyphshow
6.362305 0.000000 m /zero glyphshow
grestore
gsave
/o {
gsave
newpath
translate
0.8 setlinewidth
1 setlinejoin
0 setlinecap
0 0 m
-3.5 0 l

gsave
0.000 setgray
fill
grestore
stroke
grestore
} bind def
54 195.297 o
grestore
gsave
34.281250 191.499828 translate
0.000000 rotate
0.000000 0.000000 m /four glyphshow
6.362305 0.000000 m /zero glyphshow
grestore
gsave
/o {
gsave
newpath
translate
0.8 setlinewidth
1 setlinejoin
0 setlinecap
0 0 m
-3.5 0 l

gsave
0.000 setgray
fill
grestore
stroke
grestore
} bind def
54 235.121 o
grestore
gsave
34.281250 231.324004 translate
0.000000 rotate
0.000000 0.000000 m /five glyphshow
6.362305 0.000000 m /zero glyphshow
grestore
0 setlinejoin
2 setlinecap
[] 0 setdash
gsave
54 36 m
54 253.44 l
stroke
grestore
gsave
388.8 36 m
388.8 253.44 l
stroke
grestore
gsave
54 36 m
388.8 36 l
stroke
grestore
gsave
54 253.44 m
388.8 253.44 l
stroke
grestore
/DejaVuSans findfont
12.000 scalefont
setfont
gsave
154.642188 259.440000 translate
0.000000 rotate
0.000000 0.000000 m /A glyphshow
8.208984 0.000000 m /l glyphshow
11.542969 0.000000 m /l glyphshow
14.876953 0.000000 m /space glyphshow
18.691406 0.000000 m /W glyphshow
30.556641 0.000000 m /e glyphshow
37.939453 0.000000 m /i glyphshow
41.273438 0.000000 m /g glyphshow
48.890625 0.000000 m /h glyphshow
56.496094 0.000000 m /t glyphshow
61.201172 0.000000 m /s glyphshow
67.453125 0.000000 m /space glyphshow
71.267578 0.000000 m /H glyphshow
80.291016 0.000000 m /i glyphshow
83.625000 0.000000 m /s glyphshow
89.876953 0.000000 m /t glyphshow
94.582031 0.000000 m /o glyphshow
101.923828 0.000000 m /g glyphshow
109.541016 0.000000 m /r glyphshow
114.474609 0.000000 m /a glyphshow
121.828125 0.000000 m /m glyphshow
grestore

end
showpage
